<?xml version="1.0" encoding="UTF-8"?>
<svg xmlns="http://www.w3.org/2000/svg" xmlns:xlink="http://www.w3.org/1999/xlink" width="363.43pt" height="115.43pt" viewBox="0 0 363.43 115.43" version="1.1">
<defs>
<g>
<symbol overflow="visible" id="glyph0-0">
<path style="stroke:none;" d=""/>
</symbol>
<symbol overflow="visible" id="glyph0-1">
<path style="stroke:none;" d="M 6.5625 -2.296875 C 6.734375 -2.296875 6.921875 -2.296875 6.921875 -2.5 C 6.921875 -2.6875 6.734375 -2.6875 6.5625 -2.6875 L 1.171875 -2.6875 C 1 -2.6875 0.828125 -2.6875 0.828125 -2.5 C 0.828125 -2.296875 1 -2.296875 1.171875 -2.296875 Z M 6.5625 -2.296875 "/>
</symbol>
<symbol overflow="visible" id="glyph0-2">
<path style="stroke:none;" d="M 3.546875 -5.75 C 3.46875 -5.921875 3.40625 -5.96875 3.3125 -5.96875 C 3.1875 -5.96875 3.15625 -5.890625 3.09375 -5.75 L 0.625 -0.171875 C 0.5625 -0.046875 0.546875 -0.03125 0.546875 0.015625 C 0.546875 0.125 0.640625 0.21875 0.75 0.21875 C 0.8125 0.21875 0.890625 0.203125 0.984375 0.015625 L 3.3125 -5.28125 L 5.65625 0.015625 C 5.75 0.21875 5.859375 0.21875 5.890625 0.21875 C 6 0.21875 6.09375 0.125 6.09375 0.015625 C 6.09375 0 6.09375 -0.015625 6.03125 -0.140625 Z M 3.546875 -5.75 "/>
</symbol>
<symbol overflow="visible" id="glyph1-0">
<path style="stroke:none;" d=""/>
</symbol>
<symbol overflow="visible" id="glyph1-1">
<path style="stroke:none;" d="M 3.734375 -0.765625 C 3.734375 -0.453125 3.734375 0 4.765625 0 L 5.25 0 C 5.4375 0 5.5625 0 5.5625 -0.234375 C 5.5625 -0.46875 5.4375 -0.46875 5.296875 -0.46875 C 4.6875 -0.484375 4.6875 -0.609375 4.6875 -0.84375 L 4.6875 -2.984375 C 4.6875 -3.875 3.984375 -4.515625 2.5 -4.515625 C 1.9375 -4.515625 0.71875 -4.46875 0.71875 -3.59375 C 0.71875 -3.15625 1.0625 -2.96875 1.328125 -2.96875 C 1.640625 -2.96875 1.96875 -3.1875 1.96875 -3.59375 C 1.96875 -3.890625 1.78125 -4.0625 1.75 -4.09375 C 2.03125 -4.140625 2.34375 -4.15625 2.46875 -4.15625 C 3.203125 -4.15625 3.5625 -3.734375 3.5625 -2.984375 L 3.5625 -2.640625 C 2.84375 -2.609375 0.3125 -2.515625 0.3125 -1.078125 C 0.3125 -0.125 1.5625 0.0625 2.25 0.0625 C 3.046875 0.0625 3.515625 -0.34375 3.734375 -0.765625 Z M 3.5625 -2.328125 L 3.5625 -1.390625 C 3.5625 -0.421875 2.640625 -0.296875 2.390625 -0.296875 C 1.890625 -0.296875 1.484375 -0.640625 1.484375 -1.09375 C 1.484375 -2.15625 3.0625 -2.296875 3.5625 -2.328125 Z M 3.5625 -2.328125 "/>
</symbol>
<symbol overflow="visible" id="glyph1-2">
<path style="stroke:none;" d="M 2.140625 -4 L 2.140625 -6.921875 L 0.375 -6.84375 L 0.375 -6.375 C 0.984375 -6.375 1.0625 -6.375 1.0625 -5.984375 L 1.0625 0 L 1.53125 0 L 2.015625 -0.5625 C 2.09375 -0.484375 2.578125 0.0625 3.46875 0.0625 C 4.953125 0.0625 5.984375 -0.84375 5.984375 -2.21875 C 5.984375 -3.546875 5.046875 -4.484375 3.59375 -4.484375 C 2.875 -4.484375 2.375 -4.203125 2.140625 -4 Z M 2.1875 -0.984375 L 2.1875 -3.484375 C 2.46875 -3.84375 2.9375 -4.125 3.484375 -4.125 C 4.703125 -4.125 4.703125 -2.921875 4.703125 -2.21875 C 4.703125 -1.75 4.703125 -1.203125 4.453125 -0.8125 C 4.15625 -0.40625 3.703125 -0.296875 3.375 -0.296875 C 2.6875 -0.296875 2.296875 -0.84375 2.1875 -0.984375 Z M 2.1875 -0.984375 "/>
</symbol>
</g>
<clipPath id="clip1">
  <path d="M 156 29 L 363.429688 29 L 363.429688 106 L 156 106 Z M 156 29 "/>
</clipPath>
<clipPath id="clip2">
  <path d="M 0 34 L 323 34 L 323 115.429688 L 0 115.429688 Z M 0 34 "/>
</clipPath>
<clipPath id="clip3">
  <path d="M 307 53 L 363.429688 53 L 363.429688 111 L 307 111 Z M 307 53 "/>
</clipPath>
<clipPath id="clip4">
  <path d="M 201 24 L 363.429688 24 L 363.429688 65 L 201 65 Z M 201 24 "/>
</clipPath>
</defs>
<g id="surface1">
<path style=" stroke:none;fill-rule:nonzero;fill:rgb(23.136902%,21.174622%,31.765747%);fill-opacity:0.1;" d="M 0.398438 46.117188 L 156.871094 75.597656 L 206.761719 29.675781 L 50.289062 0.195312 Z M 0.398438 46.117188 "/>
<g clip-path="url(#clip1)" clip-rule="nonzero">
<path style=" stroke:none;fill-rule:nonzero;fill:rgb(23.136902%,21.174622%,31.765747%);fill-opacity:0.1;" d="M 156.871094 75.597656 L 313.347656 105.078125 L 363.238281 59.15625 L 206.761719 29.675781 Z M 156.871094 75.597656 "/>
</g>
<path style="fill:none;stroke-width:0.79701;stroke-linecap:butt;stroke-linejoin:miter;stroke:rgb(0%,0%,0%);stroke-opacity:1;stroke-miterlimit:10;" d="M 156.473094 -29.481656 L 2.543406 -0.47775 " transform="matrix(1,0,0,-1,0.398,46.116)"/>
<path style=" stroke:none;fill-rule:nonzero;fill:rgb(0%,0%,0%);fill-opacity:1;" d="M 0.398438 46.117188 L 4.085938 48.917969 L 2.945312 46.59375 L 4.855469 44.847656 "/>
<g clip-path="url(#clip2)" clip-rule="nonzero">
<path style="fill:none;stroke-width:0.79701;stroke-linecap:butt;stroke-linejoin:miter;stroke:rgb(0%,0%,0%);stroke-opacity:1;stroke-miterlimit:10;" d="M 0.0004375 -0.0011875 L 310.402781 -58.481656 " transform="matrix(1,0,0,-1,0.398,46.116)"/>
</g>
<path style=" stroke:none;fill-rule:nonzero;fill:rgb(0%,0%,0%);fill-opacity:1;" d="M 313.347656 105.078125 L 309.65625 102.273438 L 310.800781 104.597656 L 308.890625 106.347656 "/>
<path style="fill:none;stroke-width:0.79701;stroke-linecap:butt;stroke-linejoin:miter;stroke:rgb(23.136902%,21.174622%,31.765747%);stroke-opacity:1;stroke-miterlimit:10;" d="M 156.473094 -29.481656 L 204.457469 14.686313 " transform="matrix(1,0,0,-1,0.398,46.116)"/>
<path style=" stroke:none;fill-rule:nonzero;fill:rgb(23.136902%,21.174622%,31.765747%);fill-opacity:1;" d="M 206.761719 29.675781 L 202.308594 30.957031 L 204.855469 31.429688 L 205.117188 34.007812 "/>
<path style="fill:none;stroke-width:0.79701;stroke-linecap:butt;stroke-linejoin:miter;stroke:rgb(0%,0%,0%);stroke-opacity:1;stroke-miterlimit:10;" d="M 77.422312 4.651156 C 79.750437 -1.739469 89.50825 -6.29025 98.336375 -3.079312 C 107.1645 0.135531 111.715281 9.893344 108.500437 18.721469 C 106.422312 24.432406 101.457469 28.600375 95.473094 29.655063 C 91.031687 30.436313 86.457469 29.424594 82.762156 26.83475 " transform="matrix(1,0,0,-1,0.398,46.116)"/>
<path style=" stroke:none;fill-rule:nonzero;fill:rgb(0%,0%,0%);fill-opacity:1;" d="M 76.933594 39.03125 L 76.40625 43.632812 L 77.820312 41.464844 L 80.300781 42.214844 "/>
<g style="fill:rgb(0%,0%,0%);fill-opacity:1;">
  <use xlink:href="#glyph0-1" x="74.785" y="36.712"/>
</g>
<g style="fill:rgb(0%,0%,0%);fill-opacity:1;">
  <use xlink:href="#glyph1-1" x="82.534" y="36.712"/>
</g>
<g style="fill:rgb(0%,0%,0%);fill-opacity:1;">
  <use xlink:href="#glyph0-2" x="90.317" y="36.712"/>
</g>
<g style="fill:rgb(0%,0%,0%);fill-opacity:1;">
  <use xlink:href="#glyph1-2" x="99.173" y="36.712"/>
</g>
<path style="fill:none;stroke-width:0.3985;stroke-linecap:butt;stroke-linejoin:miter;stroke:rgb(59.606934%,62.353516%,47.840881%);stroke-opacity:1;stroke-miterlimit:10;" d="M 0.0004375 -0.0011875 L 156.473094 -29.481656 " transform="matrix(1,0,0,-1,0.398,46.116)"/>
<path style="fill:none;stroke-width:0.3985;stroke-linecap:butt;stroke-linejoin:miter;stroke:rgb(59.606934%,62.353516%,47.840881%);stroke-opacity:1;stroke-miterlimit:10;" d="M 156.473094 -29.481656 L 206.363719 16.440219 " transform="matrix(1,0,0,-1,0.398,46.116)"/>
<path style="fill:none;stroke-width:0.3985;stroke-linecap:butt;stroke-linejoin:miter;stroke:rgb(59.606934%,62.353516%,47.840881%);stroke-opacity:1;stroke-miterlimit:10;" d="M 206.363719 16.440219 L 49.891062 45.920688 " transform="matrix(1,0,0,-1,0.398,46.116)"/>
<path style="fill:none;stroke-width:0.3985;stroke-linecap:butt;stroke-linejoin:miter;stroke:rgb(59.606934%,62.353516%,47.840881%);stroke-opacity:1;stroke-miterlimit:10;" d="M 49.891062 45.920688 L 0.0004375 -0.0011875 " transform="matrix(1,0,0,-1,0.398,46.116)"/>
<path style="fill:none;stroke-width:0.79701;stroke-linecap:butt;stroke-linejoin:miter;stroke:rgb(0%,0%,0%);stroke-opacity:1;stroke-miterlimit:10;" d="M 230.742625 -22.676969 C 233.957469 -31.505094 243.715281 -36.055875 252.543406 -32.841031 C 261.371531 -29.630094 265.922312 -19.868375 262.707469 -11.044156 C 260.629344 -5.333219 255.660594 -1.16525 249.680125 -0.110562 C 245.238719 0.674594 240.6645 -0.341031 239.090281 -1.442594 " transform="matrix(1,0,0,-1,0.398,46.116)"/>
<path style=" stroke:none;fill-rule:nonzero;fill:rgb(0%,0%,0%);fill-opacity:1;" d="M 237.367188 49.042969 L 241.953125 48.363281 L 239.488281 47.558594 L 239.574219 44.96875 "/>
<path style="fill:none;stroke-width:0.3985;stroke-linecap:butt;stroke-linejoin:miter;stroke:rgb(59.606934%,62.353516%,47.840881%);stroke-opacity:1;stroke-miterlimit:10;" d="M 156.473094 -29.481656 L 312.949656 -58.962125 " transform="matrix(1,0,0,-1,0.398,46.116)"/>
<g clip-path="url(#clip3)" clip-rule="nonzero">
<path style="fill:none;stroke-width:0.3985;stroke-linecap:butt;stroke-linejoin:miter;stroke:rgb(59.606934%,62.353516%,47.840881%);stroke-opacity:1;stroke-miterlimit:10;" d="M 312.949656 -58.962125 L 362.840281 -13.04025 " transform="matrix(1,0,0,-1,0.398,46.116)"/>
</g>
<g clip-path="url(#clip4)" clip-rule="nonzero">
<path style="fill:none;stroke-width:0.3985;stroke-linecap:butt;stroke-linejoin:miter;stroke:rgb(59.606934%,62.353516%,47.840881%);stroke-opacity:1;stroke-miterlimit:10;" d="M 362.840281 -13.04025 L 206.363719 16.440219 " transform="matrix(1,0,0,-1,0.398,46.116)"/>
</g>
<path style="fill:none;stroke-width:0.3985;stroke-linecap:butt;stroke-linejoin:miter;stroke:rgb(59.606934%,62.353516%,47.840881%);stroke-opacity:1;stroke-miterlimit:10;" d="M 206.363719 16.440219 L 156.473094 -29.481656 " transform="matrix(1,0,0,-1,0.398,46.116)"/>
<g style="fill:rgb(0%,0%,0%);fill-opacity:1;">
  <use xlink:href="#glyph1-1" x="234.661" y="65.058"/>
</g>
<g style="fill:rgb(0%,0%,0%);fill-opacity:1;">
  <use xlink:href="#glyph0-2" x="242.445" y="65.058"/>
</g>
<g style="fill:rgb(0%,0%,0%);fill-opacity:1;">
  <use xlink:href="#glyph1-2" x="251.3" y="65.058"/>
</g>
<g style="fill:rgb(0%,0%,0%);fill-opacity:1;">
  <use xlink:href="#glyph0-1" x="78.779" y="74.119"/>
</g>
<g style="fill:rgb(0%,0%,0%);fill-opacity:1;">
  <use xlink:href="#glyph1-1" x="86.528" y="74.119"/>
</g>
<g style="fill:rgb(0%,0%,0%);fill-opacity:1;">
  <use xlink:href="#glyph1-2" x="181.47" y="41.071"/>
</g>
<g style="fill:rgb(0%,0%,0%);fill-opacity:1;">
  <use xlink:href="#glyph1-1" x="289.586" y="112.11"/>
</g>
</g>
</svg>
