<?xml version="1.0" encoding="UTF-8" standalone="no"?>
<svg
   xmlns:dc="http://purl.org/dc/elements/1.1/"
   xmlns:cc="http://creativecommons.org/ns#"
   xmlns:rdf="http://www.w3.org/1999/02/22-rdf-syntax-ns#"
   xmlns:svg="http://www.w3.org/2000/svg"
   xmlns="http://www.w3.org/2000/svg"
   xmlns:xlink="http://www.w3.org/1999/xlink"
   width="230.32825pt"
   height="183.66022pt"
   viewBox="0 0 230.32825 183.66022"
   version="1.1"
   id="svg935">
  <metadata
     id="metadata939">
    <rdf:RDF>
      <cc:Work
         rdf:about="">
        <dc:format>image/svg+xml</dc:format>
        <dc:type
           rdf:resource="http://purl.org/dc/dcmitype/StillImage" />
      </cc:Work>
    </rdf:RDF>
  </metadata>
  <defs
     id="defs52">
    <g
       id="g50">
      <symbol
         overflow="visible"
         id="glyph0-0">
        <path
           style="stroke:none"
           d=""
           id="path2" />
      </symbol>
      <symbol
         overflow="visible"
         id="glyph0-1">
        <path
           style="stroke:none"
           d="m 2.9375,-6.375 c 0,-0.25 0,-0.265625 -0.234375,-0.265625 C 2.078125,-6 1.203125,-6 0.890625,-6 v 0.3125 c 0.203125,0 0.78125,0 1.296875,-0.265625 v 5.171875 c 0,0.359375 -0.03125,0.46875 -0.921875,0.46875 h -0.3125 V 0 c 0.34375,-0.03125 1.203125,-0.03125 1.609375,-0.03125 0.390625,0 1.265625,0 1.609375,0.03125 v -0.3125 h -0.3125 c -0.90625,0 -0.921875,-0.109375 -0.921875,-0.46875 z m 0,0"
           id="path5" />
      </symbol>
      <symbol
         overflow="visible"
         id="glyph0-2">
        <path
           style="stroke:none"
           d="m 1.265625,-0.765625 1.0625,-1.03125 c 1.546875,-1.375 2.140625,-1.90625 2.140625,-2.90625 0,-1.140625 -0.890625,-1.9375 -2.109375,-1.9375 -1.125,0 -1.859375,0.921875 -1.859375,1.8125 0,0.546875 0.5,0.546875 0.53125,0.546875 0.171875,0 0.515625,-0.109375 0.515625,-0.53125 0,-0.25 -0.1875,-0.515625 -0.53125,-0.515625 -0.078125,0 -0.09375,0 -0.125,0.015625 0.21875,-0.65625 0.765625,-1.015625 1.34375,-1.015625 0.90625,0 1.328125,0.8125 1.328125,1.625 C 3.5625,-3.90625 3.078125,-3.125 2.515625,-2.5 l -1.90625,2.125 C 0.5,-0.265625 0.5,-0.234375 0.5,0 H 4.203125 L 4.46875,-1.734375 H 4.234375 C 4.171875,-1.4375 4.109375,-1 4,-0.84375 3.9375,-0.765625 3.28125,-0.765625 3.0625,-0.765625 Z m 0,0"
           id="path8" />
      </symbol>
      <symbol
         overflow="visible"
         id="glyph0-3">
        <path
           style="stroke:none"
           d="m 4.578125,-3.1875 c 0,-0.796875 -0.046875,-1.59375 -0.390625,-2.328125 -0.453125,-0.96875 -1.28125,-1.125 -1.6875,-1.125 -0.609375,0 -1.328125,0.265625 -1.75,1.1875 -0.3125,0.6875 -0.359375,1.46875 -0.359375,2.265625 0,0.75 0.03125,1.640625 0.453125,2.40625 0.421875,0.796875 1.15625,1 1.640625,1 0.53125,0 1.296875,-0.203125 1.734375,-1.15625 0.3125,-0.6875 0.359375,-1.46875 0.359375,-2.25 z M 2.484375,0 C 2.09375,0 1.5,-0.25 1.328125,-1.203125 1.21875,-1.796875 1.21875,-2.71875 1.21875,-3.3125 c 0,-0.640625 0,-1.296875 0.078125,-1.828125 0.1875,-1.1875 0.9375,-1.28125 1.1875,-1.28125 0.328125,0 0.984375,0.1875 1.171875,1.171875 0.109375,0.5625 0.109375,1.3125 0.109375,1.9375 0,0.75 0,1.421875 -0.109375,2.0625 C 3.5,-0.296875 2.9375,0 2.484375,0 Z m 0,0"
           id="path11" />
      </symbol>
      <symbol
         overflow="visible"
         id="glyph0-4">
        <path
           style="stroke:none"
           d="m 4.46875,-2 c 0,-1.1875 -0.8125,-2.1875 -1.890625,-2.1875 -0.46875,0 -0.90625,0.15625 -1.265625,0.515625 V -5.625 c 0.203125,0.0625 0.53125,0.125 0.84375,0.125 1.234375,0 1.9375,-0.90625 1.9375,-1.03125 0,-0.0625 -0.03125,-0.109375 -0.109375,-0.109375 0,0 -0.03125,0 -0.078125,0.03125 C 3.703125,-6.515625 3.21875,-6.3125 2.546875,-6.3125 2.15625,-6.3125 1.6875,-6.390625 1.21875,-6.59375 1.140625,-6.625 1.125,-6.625 1.109375,-6.625 1,-6.625 1,-6.546875 1,-6.390625 V -3.4375 c 0,0.171875 0,0.25 0.140625,0.25 0.078125,0 0.09375,-0.015625 0.140625,-0.078125 C 1.390625,-3.421875 1.75,-3.96875 2.5625,-3.96875 c 0.515625,0 0.765625,0.453125 0.84375,0.640625 0.15625,0.375 0.1875,0.75 0.1875,1.25 0,0.359375 0,0.953125 -0.25,1.375 C 3.109375,-0.3125 2.734375,-0.0625 2.28125,-0.0625 c -0.71875,0 -1.296875,-0.53125 -1.46875,-1.109375 0.03125,0 0.0625,0.015625 0.171875,0.015625 0.328125,0 0.5,-0.25 0.5,-0.484375 0,-0.25 -0.171875,-0.5 -0.5,-0.5 C 0.84375,-2.140625 0.5,-2.0625 0.5,-1.609375 0.5,-0.75 1.1875,0.21875 2.296875,0.21875 3.453125,0.21875 4.46875,-0.734375 4.46875,-2 Z m 0,0"
           id="path14" />
      </symbol>
      <symbol
         overflow="visible"
         id="glyph0-5">
        <path
           style="stroke:none"
           d="m 2.890625,-3.515625 c 0.8125,-0.265625 1.390625,-0.953125 1.390625,-1.75 0,-0.8125 -0.875,-1.375 -1.828125,-1.375 -1,0 -1.765625,0.59375 -1.765625,1.359375 0,0.328125 0.21875,0.515625 0.515625,0.515625 0.296875,0 0.5,-0.21875 0.5,-0.515625 0,-0.484375 -0.46875,-0.484375 -0.609375,-0.484375 0.296875,-0.5 0.953125,-0.625 1.3125,-0.625 0.421875,0 0.96875,0.21875 0.96875,1.109375 0,0.125 -0.03125,0.703125 -0.28125,1.140625 C 2.796875,-3.65625 2.453125,-3.625 2.203125,-3.625 2.125,-3.609375 1.890625,-3.59375 1.8125,-3.59375 c -0.078125,0.015625 -0.140625,0.03125 -0.140625,0.125 0,0.109375 0.0625,0.109375 0.234375,0.109375 h 0.4375 c 0.8125,0 1.1875,0.671875 1.1875,1.65625 0,1.359375 -0.6875,1.640625 -1.125,1.640625 -0.4375,0 -1.1875,-0.171875 -1.53125,-0.75 0.34375,0.046875 0.65625,-0.171875 0.65625,-0.546875 0,-0.359375 -0.265625,-0.5625 -0.546875,-0.5625 -0.25,0 -0.5625,0.140625 -0.5625,0.578125 0,0.90625 0.921875,1.5625 2.015625,1.5625 1.21875,0 2.125,-0.90625 2.125,-1.921875 0,-0.8125 -0.640625,-1.59375 -1.671875,-1.8125 z m 0,0"
           id="path17" />
      </symbol>
      <symbol
         overflow="visible"
         id="glyph0-6">
        <path
           style="stroke:none"
           d="m 4.75,-6.078125 c 0.078125,-0.109375 0.078125,-0.125 0.078125,-0.34375 H 2.40625 c -1.203125,0 -1.234375,-0.125 -1.265625,-0.3125 h -0.25 L 0.5625,-4.6875 h 0.25 c 0.03125,-0.15625 0.109375,-0.78125 0.25,-0.90625 0.0625,-0.0625 0.84375,-0.0625 0.96875,-0.0625 h 2.0625 C 3.984375,-5.5 3.203125,-4.40625 2.984375,-4.078125 2.078125,-2.734375 1.75,-1.34375 1.75,-0.328125 c 0,0.09375 0,0.546875 0.46875,0.546875 0.453125,0 0.453125,-0.453125 0.453125,-0.546875 V -0.84375 c 0,-0.546875 0.03125,-1.09375 0.109375,-1.625 0.046875,-0.234375 0.171875,-1.09375 0.625,-1.703125 z m 0,0"
           id="path20" />
      </symbol>
      <symbol
         overflow="visible"
         id="glyph1-0">
        <path
           style="stroke:none"
           d=""
           id="path23" />
      </symbol>
      <symbol
         overflow="visible"
         id="glyph1-1">
        <path
           style="stroke:none"
           d="m 6.5625,-2.296875 c 0.171875,0 0.359375,0 0.359375,-0.203125 0,-0.1875 -0.1875,-0.1875 -0.359375,-0.1875 H 1.171875 c -0.171875,0 -0.34375,0 -0.34375,0.1875 0,0.203125 0.171875,0.203125 0.34375,0.203125 z m 0,0"
           id="path26" />
      </symbol>
      <symbol
         overflow="visible"
         id="glyph2-0">
        <path
           style="stroke:none"
           d=""
           id="path29" />
      </symbol>
      <symbol
         overflow="visible"
         id="glyph2-1">
        <path
           style="stroke:none"
           d="M 3.734375,17.640625 C 3.953125,17.640625 4,17.640625 4,17.5 4.03125,10.515625 4.828125,4.71875 8.328125,-0.15625 c 0.0625,-0.09375 0.0625,-0.109375 0.0625,-0.140625 0,-0.09375 -0.0625,-0.09375 -0.21875,-0.09375 -0.171875,0 -0.1875,0 -0.203125,0.015625 -0.046875,0.03125 -1.3125,1.484375 -2.3125,3.5 -1.3125,2.625 -2.140625,5.640625 -2.515625,9.28125 -0.03125,0.296875 -0.234375,2.375 -0.234375,4.734375 v 0.390625 c 0,0.109375 0.0625,0.109375 0.28125,0.109375 z m 0,0"
           id="path32" />
      </symbol>
      <symbol
         overflow="visible"
         id="glyph2-2">
        <path
           style="stroke:none"
           d="M 4,0.171875 C 4,-0.09375 4,-0.09375 3.734375,-0.09375 H 3.1875 c -0.28125,0 -0.28125,0 -0.28125,0.265625 V 5.8125 c 0,0.265625 0,0.265625 0.28125,0.265625 H 3.734375 C 4,6.078125 4,6.078125 4,5.8125 Z m 0,0"
           id="path35" />
      </symbol>
      <symbol
         overflow="visible"
         id="glyph2-3">
        <path
           style="stroke:none"
           d="m 3.1875,-0.5 c -0.21875,0 -0.28125,0 -0.28125,0.109375 V 0 c 0,6.09375 1.078125,9.65625 1.390625,10.671875 C 4.96875,12.875 6.078125,15.21875 7.75,17.265625 7.890625,17.453125 7.9375,17.5 7.96875,17.515625 8,17.53125 8,17.53125 8.171875,17.53125 c 0.15625,0 0.21875,0 0.21875,-0.09375 0,-0.01563 0,-0.04687 -0.0625,-0.125 C 5.015625,12.703125 4.015625,7.15625 4,-0.359375 4,-0.5 3.953125,-0.5 3.734375,-0.5 Z m 0,0"
           id="path38" />
      </symbol>
      <symbol
         overflow="visible"
         id="glyph2-4">
        <path
           style="stroke:none"
           d="M 5.8125,17.140625 C 5.8125,11.0625 4.71875,7.484375 4.421875,6.484375 3.734375,4.265625 2.625,1.9375 0.96875,-0.125 0.8125,-0.296875 0.78125,-0.34375 0.734375,-0.375 c -0.015625,0 -0.03125,-0.015625 -0.1875,-0.015625 -0.140625,0 -0.234375,0 -0.234375,0.09375 0,0.03125 0,0.046875 0.140625,0.234375 3.46875,4.84375 4.234375,10.8125 4.25,17.5625 0,0.140625 0.0625,0.140625 0.28125,0.140625 H 5.53125 c 0.203125,0 0.265625,0 0.28125,-0.109375 z m 0,0"
           id="path41" />
      </symbol>
      <symbol
         overflow="visible"
         id="glyph2-5">
        <path
           style="stroke:none"
           d="M 5.8125,0.171875 C 5.8125,-0.09375 5.796875,-0.09375 5.53125,-0.09375 H 4.984375 c -0.265625,0 -0.28125,0 -0.28125,0.265625 V 5.8125 c 0,0.265625 0.015625,0.265625 0.28125,0.265625 H 5.53125 c 0.265625,0 0.28125,0 0.28125,-0.265625 z m 0,0"
           id="path44" />
      </symbol>
      <symbol
         overflow="visible"
         id="glyph2-6">
        <path
           style="stroke:none"
           d="M 5.8125,-0.390625 C 5.796875,-0.5 5.734375,-0.5 5.53125,-0.5 H 4.984375 c -0.21875,0 -0.28125,0 -0.28125,0.140625 0,1.03125 -0.015625,3.40625 -0.265625,5.875 C 3.890625,10.671875 2.578125,14.25 0.390625,17.3125 0.3125,17.390625 0.3125,17.421875 0.3125,17.4375 c 0,0.09375 0.09375,0.09375 0.234375,0.09375 0.15625,0 0.1875,0 0.203125,-0.01563 C 0.78125,17.484375 2.046875,16.03125 3.0625,14.03125 4.375,11.390625 5.203125,8.375 5.578125,4.75 5.609375,4.4375 5.8125,2.359375 5.8125,0 Z m 0,0"
           id="path47" />
      </symbol>
    </g>
  </defs>
  <g
     id="surface1"
     transform="translate(-137.52225,-120.082)">
    <g
       style="fill:#000000;fill-opacity:1"
       id="g56">
      <use
         xlink:href="#glyph0-1"
         x="237.819"
         y="134.211"
         id="use54"
         width="100%"
         height="100%" />
    </g>
    <g
       style="fill:#000000;fill-opacity:1"
       id="g60">
      <use
         xlink:href="#glyph0-1"
         x="260.51199"
         y="134.211"
         id="use58"
         width="100%"
         height="100%" />
    </g>
    <g
       style="fill:#000000;fill-opacity:1"
       id="g64">
      <use
         xlink:href="#glyph0-2"
         x="283.20499"
         y="134.211"
         id="use62"
         width="100%"
         height="100%" />
    </g>
    <path
       style="fill:none;stroke:#000000;stroke-width:0.3985;stroke-linecap:butt;stroke-linejoin:miter;stroke-miterlimit:10;stroke-opacity:1"
       d="m 221.36719,-65.796875 v 12.996094"
       transform="matrix(1,0,0,-1,72,72)"
       id="path66" />
    <g
       style="fill:#000000;fill-opacity:1"
       id="g70">
      <use
         xlink:href="#glyph0-1"
         x="306.29599"
         y="134.211"
         id="use68"
         width="100%"
         height="100%" />
    </g>
    <g
       style="fill:#000000;fill-opacity:1"
       id="g74">
      <use
         xlink:href="#glyph0-3"
         x="328.98801"
         y="134.211"
         id="use72"
         width="100%"
         height="100%" />
    </g>
    <g
       style="fill:#000000;fill-opacity:1"
       id="g78">
      <use
         xlink:href="#glyph0-3"
         x="351.681"
         y="134.211"
         id="use76"
         width="100%"
         height="100%" />
    </g>
    <g
       style="fill:#000000;fill-opacity:1"
       id="g82">
      <use
         xlink:href="#glyph1-1"
         x="230.071"
         y="147.207"
         id="use80"
         width="100%"
         height="100%" />
    </g>
    <g
       style="fill:#000000;fill-opacity:1"
       id="g86">
      <use
         xlink:href="#glyph0-2"
         x="237.819"
         y="147.207"
         id="use84"
         width="100%"
         height="100%" />
    </g>
    <g
       style="fill:#000000;fill-opacity:1"
       id="g90">
      <use
         xlink:href="#glyph1-1"
         x="252.763"
         y="147.207"
         id="use88"
         width="100%"
         height="100%" />
    </g>
    <g
       style="fill:#000000;fill-opacity:1"
       id="g94">
      <use
         xlink:href="#glyph0-1"
         x="260.51199"
         y="147.207"
         id="use92"
         width="100%"
         height="100%" />
    </g>
    <g
       style="fill:#000000;fill-opacity:1"
       id="g98">
      <use
         xlink:href="#glyph1-1"
         x="275.45599"
         y="147.207"
         id="use96"
         width="100%"
         height="100%" />
    </g>
    <g
       style="fill:#000000;fill-opacity:1"
       id="g102">
      <use
         xlink:href="#glyph0-4"
         x="283.20499"
         y="147.207"
         id="use100"
         width="100%"
         height="100%" />
    </g>
    <path
       style="fill:none;stroke:#000000;stroke-width:0.3985;stroke-linecap:butt;stroke-linejoin:miter;stroke-miterlimit:10;stroke-opacity:1"
       d="m 221.36719,-79.027344 v 13.230469"
       transform="matrix(1,0,0,-1,72,72)"
       id="path104" />
    <g
       style="fill:#000000;fill-opacity:1"
       id="g108">
      <use
         xlink:href="#glyph0-3"
         x="306.29599"
         y="147.207"
         id="use106"
         width="100%"
         height="100%" />
    </g>
    <g
       style="fill:#000000;fill-opacity:1"
       id="g112">
      <use
         xlink:href="#glyph0-1"
         x="328.98801"
         y="147.207"
         id="use110"
         width="100%"
         height="100%" />
    </g>
    <g
       style="fill:#000000;fill-opacity:1"
       id="g116">
      <use
         xlink:href="#glyph0-3"
         x="351.681"
         y="147.207"
         id="use114"
         width="100%"
         height="100%" />
    </g>
    <g
       style="fill:#000000;fill-opacity:1"
       id="g120">
      <use
         xlink:href="#glyph0-5"
         x="237.819"
         y="160.435"
         id="use118"
         width="100%"
         height="100%" />
    </g>
    <g
       style="fill:#000000;fill-opacity:1"
       id="g124">
      <use
         xlink:href="#glyph0-4"
         x="260.51199"
         y="160.435"
         id="use122"
         width="100%"
         height="100%" />
    </g>
    <g
       style="fill:#000000;fill-opacity:1"
       id="g128">
      <use
         xlink:href="#glyph0-4"
         x="283.20499"
         y="160.435"
         id="use126"
         width="100%"
         height="100%" />
    </g>
    <path
       style="fill:none;stroke:#000000;stroke-width:0.3985;stroke-linecap:butt;stroke-linejoin:miter;stroke-miterlimit:10;stroke-opacity:1"
       d="m 221.36719,-92.023438 v 12.996094"
       transform="matrix(1,0,0,-1,72,72)"
       id="path130" />
    <g
       style="fill:#000000;fill-opacity:1"
       id="g134">
      <use
         xlink:href="#glyph0-3"
         x="306.29599"
         y="160.435"
         id="use132"
         width="100%"
         height="100%" />
    </g>
    <g
       style="fill:#000000;fill-opacity:1"
       id="g138">
      <use
         xlink:href="#glyph0-3"
         x="328.98801"
         y="160.435"
         id="use136"
         width="100%"
         height="100%" />
    </g>
    <g
       style="fill:#000000;fill-opacity:1"
       id="g142">
      <use
         xlink:href="#glyph0-1"
         x="351.681"
         y="160.435"
         id="use140"
         width="100%"
         height="100%" />
    </g>
    <g
       style="fill:#000000;fill-opacity:1"
       id="g146">
      <use
         xlink:href="#glyph0-1"
         x="156.461"
         y="179.10001"
         id="use144"
         width="100%"
         height="100%" />
    </g>
    <g
       style="fill:#000000;fill-opacity:1"
       id="g150">
      <use
         xlink:href="#glyph0-3"
         x="179.153"
         y="179.10001"
         id="use148"
         width="100%"
         height="100%" />
    </g>
    <g
       style="fill:#000000;fill-opacity:1"
       id="g154">
      <use
         xlink:href="#glyph0-3"
         x="201.84599"
         y="179.10001"
         id="use152"
         width="100%"
         height="100%" />
    </g>
    <g
       style="fill:#000000;fill-opacity:1"
       id="g158">
      <use
         xlink:href="#glyph0-1"
         x="237.819"
         y="179.10001"
         id="use156"
         width="100%"
         height="100%" />
    </g>
    <g
       style="fill:#000000;fill-opacity:1"
       id="g162">
      <use
         xlink:href="#glyph0-1"
         x="260.51199"
         y="179.10001"
         id="use160"
         width="100%"
         height="100%" />
    </g>
    <g
       style="fill:#000000;fill-opacity:1"
       id="g166">
      <use
         xlink:href="#glyph0-2"
         x="283.20499"
         y="179.10001"
         id="use164"
         width="100%"
         height="100%" />
    </g>
    <path
       style="fill:none;stroke:#000000;stroke-width:0.3985;stroke-linecap:butt;stroke-linejoin:miter;stroke-miterlimit:10;stroke-opacity:1"
       d="m 221.36719,-110.6875 v 12.996094"
       transform="matrix(1,0,0,-1,72,72)"
       id="path168" />
    <g
       style="fill:#000000;fill-opacity:1"
       id="g172">
      <use
         xlink:href="#glyph0-1"
         x="306.29599"
         y="179.10001"
         id="use170"
         width="100%"
         height="100%" />
    </g>
    <g
       style="fill:#000000;fill-opacity:1"
       id="g176">
      <use
         xlink:href="#glyph0-3"
         x="328.98801"
         y="179.10001"
         id="use174"
         width="100%"
         height="100%" />
    </g>
    <g
       style="fill:#000000;fill-opacity:1"
       id="g180">
      <use
         xlink:href="#glyph0-3"
         x="351.681"
         y="179.10001"
         id="use178"
         width="100%"
         height="100%" />
    </g>
    <g
       style="fill:#000000;fill-opacity:1"
       id="g184">
      <use
         xlink:href="#glyph0-2"
         x="156.461"
         y="192.09599"
         id="use182"
         width="100%"
         height="100%" />
    </g>
    <g
       style="fill:#000000;fill-opacity:1"
       id="g188">
      <use
         xlink:href="#glyph0-1"
         x="179.153"
         y="192.09599"
         id="use186"
         width="100%"
         height="100%" />
    </g>
    <g
       style="fill:#000000;fill-opacity:1"
       id="g192">
      <use
         xlink:href="#glyph0-3"
         x="201.84599"
         y="192.09599"
         id="use190"
         width="100%"
         height="100%" />
    </g>
    <g
       style="fill:#000000;fill-opacity:1"
       id="g196">
      <use
         xlink:href="#glyph0-3"
         x="237.819"
         y="192.09599"
         id="use194"
         width="100%"
         height="100%" />
    </g>
    <g
       style="fill:#000000;fill-opacity:1"
       id="g200">
      <use
         xlink:href="#glyph0-1"
         x="260.51199"
         y="192.09599"
         id="use198"
         width="100%"
         height="100%" />
    </g>
    <g
       style="fill:#000000;fill-opacity:1"
       id="g204">
      <use
         xlink:href="#glyph1-1"
         x="275.45599"
         y="192.09599"
         id="use202"
         width="100%"
         height="100%" />
    </g>
    <g
       style="fill:#000000;fill-opacity:1"
       id="g208">
      <use
         xlink:href="#glyph0-1"
         x="283.20499"
         y="192.09599"
         id="use206"
         width="100%"
         height="100%" />
    </g>
    <path
       style="fill:none;stroke:#000000;stroke-width:0.3985;stroke-linecap:butt;stroke-linejoin:miter;stroke-miterlimit:10;stroke-opacity:1"
       d="m 221.36719,-123.91406 v 13.22656"
       transform="matrix(1,0,0,-1,72,72)"
       id="path210" />
    <g
       style="fill:#000000;fill-opacity:1"
       id="g214">
      <use
         xlink:href="#glyph0-2"
         x="306.29599"
         y="192.09599"
         id="use212"
         width="100%"
         height="100%" />
    </g>
    <g
       style="fill:#000000;fill-opacity:1"
       id="g218">
      <use
         xlink:href="#glyph0-1"
         x="328.98801"
         y="192.09599"
         id="use216"
         width="100%"
         height="100%" />
    </g>
    <g
       style="fill:#000000;fill-opacity:1"
       id="g222">
      <use
         xlink:href="#glyph0-3"
         x="351.681"
         y="192.09599"
         id="use220"
         width="100%"
         height="100%" />
    </g>
    <g
       style="fill:#000000;fill-opacity:1"
       id="g226">
      <use
         xlink:href="#glyph1-1"
         x="148.71201"
         y="205.32401"
         id="use224"
         width="100%"
         height="100%" />
    </g>
    <g
       style="fill:#000000;fill-opacity:1"
       id="g230">
      <use
         xlink:href="#glyph0-5"
         x="156.461"
         y="205.32401"
         id="use228"
         width="100%"
         height="100%" />
    </g>
    <g
       style="fill:#000000;fill-opacity:1"
       id="g234">
      <use
         xlink:href="#glyph0-3"
         x="179.153"
         y="205.32401"
         id="use232"
         width="100%"
         height="100%" />
    </g>
    <g
       style="fill:#000000;fill-opacity:1"
       id="g238">
      <use
         xlink:href="#glyph0-1"
         x="201.84599"
         y="205.32401"
         id="use236"
         width="100%"
         height="100%" />
    </g>
    <g
       style="fill:#000000;fill-opacity:1"
       id="g242">
      <use
         xlink:href="#glyph0-3"
         x="237.819"
         y="205.32401"
         id="use240"
         width="100%"
         height="100%" />
    </g>
    <g
       style="fill:#000000;fill-opacity:1"
       id="g246">
      <use
         xlink:href="#glyph0-2"
         x="260.51199"
         y="205.32401"
         id="use244"
         width="100%"
         height="100%" />
    </g>
    <g
       style="fill:#000000;fill-opacity:1"
       id="g250">
      <use
         xlink:href="#glyph1-1"
         x="275.45599"
         y="205.32401"
         id="use248"
         width="100%"
         height="100%" />
    </g>
    <g
       style="fill:#000000;fill-opacity:1"
       id="g254">
      <use
         xlink:href="#glyph0-1"
         x="283.20499"
         y="205.32401"
         id="use252"
         width="100%"
         height="100%" />
    </g>
    <path
       style="fill:none;stroke:#000000;stroke-width:0.3985;stroke-linecap:butt;stroke-linejoin:miter;stroke-miterlimit:10;stroke-opacity:1"
       d="m 221.36719,-137.14453 v 13.23047"
       transform="matrix(1,0,0,-1,72,72)"
       id="path256" />
    <g
       style="fill:#000000;fill-opacity:1"
       id="g260">
      <use
         xlink:href="#glyph1-1"
         x="298.547"
         y="205.32401"
         id="use258"
         width="100%"
         height="100%" />
    </g>
    <g
       style="fill:#000000;fill-opacity:1"
       id="g264">
      <use
         xlink:href="#glyph0-5"
         x="306.29599"
         y="205.32401"
         id="use262"
         width="100%"
         height="100%" />
    </g>
    <g
       style="fill:#000000;fill-opacity:1"
       id="g268">
      <use
         xlink:href="#glyph0-3"
         x="328.98801"
         y="205.32401"
         id="use266"
         width="100%"
         height="100%" />
    </g>
    <g
       style="fill:#000000;fill-opacity:1"
       id="g272">
      <use
         xlink:href="#glyph0-1"
         x="351.681"
         y="205.32401"
         id="use270"
         width="100%"
         height="100%" />
    </g>
    <g
       style="fill:#000000;fill-opacity:1"
       id="g276">
      <use
         xlink:href="#glyph0-1"
         x="156.461"
         y="224.22099"
         id="use274"
         width="100%"
         height="100%" />
    </g>
    <g
       style="fill:#000000;fill-opacity:1"
       id="g280">
      <use
         xlink:href="#glyph1-1"
         x="171.405"
         y="224.22099"
         id="use278"
         width="100%"
         height="100%" />
    </g>
    <g
       style="fill:#000000;fill-opacity:1"
       id="g284">
      <use
         xlink:href="#glyph0-1"
         x="179.15401"
         y="224.22099"
         id="use282"
         width="100%"
         height="100%" />
    </g>
    <g
       style="fill:#000000;fill-opacity:1"
       id="g288">
      <use
         xlink:href="#glyph0-3"
         x="201.84599"
         y="224.22099"
         id="use286"
         width="100%"
         height="100%" />
    </g>
    <g
       style="fill:#000000;fill-opacity:1"
       id="g292">
      <use
         xlink:href="#glyph0-1"
         x="237.819"
         y="224.22099"
         id="use290"
         width="100%"
         height="100%" />
    </g>
    <g
       style="fill:#000000;fill-opacity:1"
       id="g296">
      <use
         xlink:href="#glyph0-3"
         x="260.51199"
         y="224.22099"
         id="use294"
         width="100%"
         height="100%" />
    </g>
    <g
       style="fill:#000000;fill-opacity:1"
       id="g300">
      <use
         xlink:href="#glyph0-5"
         x="283.20499"
         y="224.22099"
         id="use298"
         width="100%"
         height="100%" />
    </g>
    <path
       style="fill:none;stroke:#000000;stroke-width:0.3985;stroke-linecap:butt;stroke-linejoin:miter;stroke-miterlimit:10;stroke-opacity:1"
       d="m 221.36719,-156.03906 v 13.22656"
       transform="matrix(1,0,0,-1,72,72)"
       id="path302" />
    <g
       style="fill:#000000;fill-opacity:1"
       id="g306">
      <use
         xlink:href="#glyph1-1"
         x="298.547"
         y="224.22099"
         id="use304"
         width="100%"
         height="100%" />
    </g>
    <g
       style="fill:#000000;fill-opacity:1"
       id="g310">
      <use
         xlink:href="#glyph0-1"
         x="306.29599"
         y="224.22099"
         id="use308"
         width="100%"
         height="100%" />
    </g>
    <g
       style="fill:#000000;fill-opacity:1"
       id="g314">
      <use
         xlink:href="#glyph1-1"
         x="321.23999"
         y="224.22099"
         id="use312"
         width="100%"
         height="100%" />
    </g>
    <g
       style="fill:#000000;fill-opacity:1"
       id="g318">
      <use
         xlink:href="#glyph0-1"
         x="328.98901"
         y="224.22099"
         id="use316"
         width="100%"
         height="100%" />
    </g>
    <g
       style="fill:#000000;fill-opacity:1"
       id="g322">
      <use
         xlink:href="#glyph0-3"
         x="351.681"
         y="224.22099"
         id="use320"
         width="100%"
         height="100%" />
    </g>
    <g
       style="fill:#000000;fill-opacity:1"
       id="g326">
      <use
         xlink:href="#glyph0-3"
         x="156.461"
         y="237.45"
         id="use324"
         width="100%"
         height="100%" />
    </g>
    <g
       style="fill:#000000;fill-opacity:1"
       id="g330">
      <use
         xlink:href="#glyph0-1"
         x="179.153"
         y="237.45"
         id="use328"
         width="100%"
         height="100%" />
    </g>
    <g
       style="fill:#000000;fill-opacity:1"
       id="g334">
      <use
         xlink:href="#glyph0-3"
         x="201.84599"
         y="237.45"
         id="use332"
         width="100%"
         height="100%" />
    </g>
    <g
       style="fill:#000000;fill-opacity:1"
       id="g338">
      <use
         xlink:href="#glyph0-3"
         x="237.819"
         y="237.45"
         id="use336"
         width="100%"
         height="100%" />
    </g>
    <g
       style="fill:#000000;fill-opacity:1"
       id="g342">
      <use
         xlink:href="#glyph0-1"
         x="260.51199"
         y="237.45"
         id="use340"
         width="100%"
         height="100%" />
    </g>
    <g
       style="fill:#000000;fill-opacity:1"
       id="g346">
      <use
         xlink:href="#glyph1-1"
         x="275.45599"
         y="237.45"
         id="use344"
         width="100%"
         height="100%" />
    </g>
    <g
       style="fill:#000000;fill-opacity:1"
       id="g350">
      <use
         xlink:href="#glyph0-1"
         x="283.20499"
         y="237.45"
         id="use348"
         width="100%"
         height="100%" />
    </g>
    <path
       style="fill:none;stroke:#000000;stroke-width:0.3985;stroke-linecap:butt;stroke-linejoin:miter;stroke-miterlimit:10;stroke-opacity:1"
       d="m 221.36719,-169.26953 v 13.23047"
       transform="matrix(1,0,0,-1,72,72)"
       id="path352" />
    <g
       style="fill:#000000;fill-opacity:1"
       id="g356">
      <use
         xlink:href="#glyph0-2"
         x="306.29599"
         y="237.45"
         id="use354"
         width="100%"
         height="100%" />
    </g>
    <g
       style="fill:#000000;fill-opacity:1"
       id="g360">
      <use
         xlink:href="#glyph0-1"
         x="328.98801"
         y="237.45"
         id="use358"
         width="100%"
         height="100%" />
    </g>
    <g
       style="fill:#000000;fill-opacity:1"
       id="g364">
      <use
         xlink:href="#glyph0-3"
         x="351.681"
         y="237.45"
         id="use362"
         width="100%"
         height="100%" />
    </g>
    <g
       style="fill:#000000;fill-opacity:1"
       id="g368">
      <use
         xlink:href="#glyph0-3"
         x="156.461"
         y="250.67799"
         id="use366"
         width="100%"
         height="100%" />
    </g>
    <g
       style="fill:#000000;fill-opacity:1"
       id="g372">
      <use
         xlink:href="#glyph1-1"
         x="171.405"
         y="250.67799"
         id="use370"
         width="100%"
         height="100%" />
    </g>
    <g
       style="fill:#000000;fill-opacity:1"
       id="g376">
      <use
         xlink:href="#glyph0-2"
         x="179.15401"
         y="250.67799"
         id="use374"
         width="100%"
         height="100%" />
    </g>
    <g
       style="fill:#000000;fill-opacity:1"
       id="g380">
      <use
         xlink:href="#glyph0-1"
         x="201.84599"
         y="250.67799"
         id="use378"
         width="100%"
         height="100%" />
    </g>
    <g
       style="fill:#000000;fill-opacity:1"
       id="g384">
      <use
         xlink:href="#glyph0-3"
         x="237.819"
         y="250.67799"
         id="use382"
         width="100%"
         height="100%" />
    </g>
    <g
       style="fill:#000000;fill-opacity:1"
       id="g388">
      <use
         xlink:href="#glyph0-3"
         x="260.51199"
         y="250.67799"
         id="use386"
         width="100%"
         height="100%" />
    </g>
    <g
       style="fill:#000000;fill-opacity:1"
       id="g392">
      <use
         xlink:href="#glyph0-1"
         x="283.20499"
         y="250.67799"
         id="use390"
         width="100%"
         height="100%" />
    </g>
    <path
       style="fill:none;stroke:#000000;stroke-width:0.3985;stroke-linecap:butt;stroke-linejoin:miter;stroke-miterlimit:10;stroke-opacity:1"
       d="m 221.36719,-182.49609 v 13.22656"
       transform="matrix(1,0,0,-1,72,72)"
       id="path394" />
    <g
       style="fill:#000000;fill-opacity:1"
       id="g398">
      <use
         xlink:href="#glyph1-1"
         x="298.547"
         y="250.67799"
         id="use396"
         width="100%"
         height="100%" />
    </g>
    <g
       style="fill:#000000;fill-opacity:1"
       id="g402">
      <use
         xlink:href="#glyph0-6"
         x="306.29599"
         y="250.67799"
         id="use400"
         width="100%"
         height="100%" />
    </g>
    <g
       style="fill:#000000;fill-opacity:1"
       id="g406">
      <use
         xlink:href="#glyph1-1"
         x="321.23999"
         y="250.67799"
         id="use404"
         width="100%"
         height="100%" />
    </g>
    <g
       style="fill:#000000;fill-opacity:1"
       id="g410">
      <use
         xlink:href="#glyph0-2"
         x="328.98901"
         y="250.67799"
         id="use408"
         width="100%"
         height="100%" />
    </g>
    <g
       style="fill:#000000;fill-opacity:1"
       id="g414">
      <use
         xlink:href="#glyph0-1"
         x="351.681"
         y="250.67799"
         id="use412"
         width="100%"
         height="100%" />
    </g>
    <g
       style="fill:#000000;fill-opacity:1"
       id="g418">
      <use
         xlink:href="#glyph0-1"
         x="156.461"
         y="269.57501"
         id="use416"
         width="100%"
         height="100%" />
    </g>
    <g
       style="fill:#000000;fill-opacity:1"
       id="g422">
      <use
         xlink:href="#glyph0-3"
         x="179.153"
         y="269.57501"
         id="use420"
         width="100%"
         height="100%" />
    </g>
    <g
       style="fill:#000000;fill-opacity:1"
       id="g426">
      <use
         xlink:href="#glyph1-1"
         x="194.09801"
         y="269.57501"
         id="use424"
         width="100%"
         height="100%" />
    </g>
    <g
       style="fill:#000000;fill-opacity:1"
       id="g430">
      <use
         xlink:href="#glyph0-5"
         x="201.847"
         y="269.57501"
         id="use428"
         width="100%"
         height="100%" />
    </g>
    <g
       style="fill:#000000;fill-opacity:1"
       id="g434">
      <use
         xlink:href="#glyph0-1"
         x="237.819"
         y="269.57501"
         id="use432"
         width="100%"
         height="100%" />
    </g>
    <g
       style="fill:#000000;fill-opacity:1"
       id="g438">
      <use
         xlink:href="#glyph0-3"
         x="260.51199"
         y="269.57501"
         id="use436"
         width="100%"
         height="100%" />
    </g>
    <g
       style="fill:#000000;fill-opacity:1"
       id="g442">
      <use
         xlink:href="#glyph0-3"
         x="283.20499"
         y="269.57501"
         id="use440"
         width="100%"
         height="100%" />
    </g>
    <path
       style="fill:none;stroke:#000000;stroke-width:0.3985;stroke-linecap:butt;stroke-linejoin:miter;stroke-miterlimit:10;stroke-opacity:1"
       d="m 221.36719,-201.39453 v 13.23047"
       transform="matrix(1,0,0,-1,72,72)"
       id="path444" />
    <g
       style="fill:#000000;fill-opacity:1"
       id="g450">
      <use
         xlink:href="#glyph0-2"
         x="301.315"
         y="269.57501"
         id="use446"
         width="100%"
         height="100%" />
      <use
         xlink:href="#glyph0-3"
         x="306.2963"
         y="269.57501"
         id="use448"
         width="100%"
         height="100%" />
    </g>
    <g
       style="fill:#000000;fill-opacity:1"
       id="g454">
      <use
         xlink:href="#glyph0-4"
         x="328.98801"
         y="269.57501"
         id="use452"
         width="100%"
         height="100%" />
    </g>
    <g
       style="fill:#000000;fill-opacity:1"
       id="g458">
      <use
         xlink:href="#glyph1-1"
         x="343.93301"
         y="269.57501"
         id="use456"
         width="100%"
         height="100%" />
    </g>
    <g
       style="fill:#000000;fill-opacity:1"
       id="g462">
      <use
         xlink:href="#glyph0-5"
         x="351.68201"
         y="269.57501"
         id="use460"
         width="100%"
         height="100%" />
    </g>
    <g
       style="fill:#000000;fill-opacity:1"
       id="g466">
      <use
         xlink:href="#glyph0-3"
         x="156.461"
         y="282.80301"
         id="use464"
         width="100%"
         height="100%" />
    </g>
    <g
       style="fill:#000000;fill-opacity:1"
       id="g470">
      <use
         xlink:href="#glyph0-1"
         x="179.153"
         y="282.80301"
         id="use468"
         width="100%"
         height="100%" />
    </g>
    <g
       style="fill:#000000;fill-opacity:1"
       id="g474">
      <use
         xlink:href="#glyph0-1"
         x="201.84599"
         y="282.80301"
         id="use472"
         width="100%"
         height="100%" />
    </g>
    <g
       style="fill:#000000;fill-opacity:1"
       id="g478">
      <use
         xlink:href="#glyph0-3"
         x="237.819"
         y="282.80301"
         id="use476"
         width="100%"
         height="100%" />
    </g>
    <g
       style="fill:#000000;fill-opacity:1"
       id="g482">
      <use
         xlink:href="#glyph0-1"
         x="260.51199"
         y="282.80301"
         id="use480"
         width="100%"
         height="100%" />
    </g>
    <g
       style="fill:#000000;fill-opacity:1"
       id="g486">
      <use
         xlink:href="#glyph0-3"
         x="283.20499"
         y="282.80301"
         id="use484"
         width="100%"
         height="100%" />
    </g>
    <path
       style="fill:none;stroke:#000000;stroke-width:0.3985;stroke-linecap:butt;stroke-linejoin:miter;stroke-miterlimit:10;stroke-opacity:1"
       d="m 221.36719,-214.62109 v 13.22656"
       transform="matrix(1,0,0,-1,72,72)"
       id="path488" />
    <g
       style="fill:#000000;fill-opacity:1"
       id="g492">
      <use
         xlink:href="#glyph1-1"
         x="298.547"
         y="282.80301"
         id="use490"
         width="100%"
         height="100%" />
    </g>
    <g
       style="fill:#000000;fill-opacity:1"
       id="g496">
      <use
         xlink:href="#glyph0-4"
         x="306.29599"
         y="282.80301"
         id="use494"
         width="100%"
         height="100%" />
    </g>
    <g
       style="fill:#000000;fill-opacity:1"
       id="g500">
      <use
         xlink:href="#glyph1-1"
         x="321.23999"
         y="282.80301"
         id="use498"
         width="100%"
         height="100%" />
    </g>
    <g
       style="fill:#000000;fill-opacity:1"
       id="g504">
      <use
         xlink:href="#glyph0-1"
         x="328.98901"
         y="282.80301"
         id="use502"
         width="100%"
         height="100%" />
    </g>
    <g
       style="fill:#000000;fill-opacity:1"
       id="g508">
      <use
         xlink:href="#glyph0-1"
         x="351.681"
         y="282.80301"
         id="use506"
         width="100%"
         height="100%" />
    </g>
    <g
       style="fill:#000000;fill-opacity:1"
       id="g512">
      <use
         xlink:href="#glyph0-3"
         x="156.461"
         y="296.03101"
         id="use510"
         width="100%"
         height="100%" />
    </g>
    <g
       style="fill:#000000;fill-opacity:1"
       id="g516">
      <use
         xlink:href="#glyph0-3"
         x="179.153"
         y="296.03101"
         id="use514"
         width="100%"
         height="100%" />
    </g>
    <g
       style="fill:#000000;fill-opacity:1"
       id="g520">
      <use
         xlink:href="#glyph0-1"
         x="201.84599"
         y="296.03101"
         id="use518"
         width="100%"
         height="100%" />
    </g>
    <g
       style="fill:#000000;fill-opacity:1"
       id="g524">
      <use
         xlink:href="#glyph0-3"
         x="237.819"
         y="296.03101"
         id="use522"
         width="100%"
         height="100%" />
    </g>
    <g
       style="fill:#000000;fill-opacity:1"
       id="g528">
      <use
         xlink:href="#glyph0-3"
         x="260.51199"
         y="296.03101"
         id="use526"
         width="100%"
         height="100%" />
    </g>
    <g
       style="fill:#000000;fill-opacity:1"
       id="g532">
      <use
         xlink:href="#glyph0-1"
         x="283.20499"
         y="296.03101"
         id="use530"
         width="100%"
         height="100%" />
    </g>
    <path
       style="fill:none;stroke:#000000;stroke-width:0.3985;stroke-linecap:butt;stroke-linejoin:miter;stroke-miterlimit:10;stroke-opacity:1"
       d="m 221.36719,-227.85156 v 13.23047"
       transform="matrix(1,0,0,-1,72,72)"
       id="path534" />
    <g
       style="fill:#000000;fill-opacity:1"
       id="g538">
      <use
         xlink:href="#glyph1-1"
         x="298.547"
         y="296.03101"
         id="use536"
         width="100%"
         height="100%" />
    </g>
    <g
       style="fill:#000000;fill-opacity:1"
       id="g542">
      <use
         xlink:href="#glyph0-6"
         x="306.29599"
         y="296.03201"
         id="use540"
         width="100%"
         height="100%" />
    </g>
    <g
       style="fill:#000000;fill-opacity:1"
       id="g546">
      <use
         xlink:href="#glyph1-1"
         x="321.23999"
         y="296.03101"
         id="use544"
         width="100%"
         height="100%" />
    </g>
    <g
       style="fill:#000000;fill-opacity:1"
       id="g550">
      <use
         xlink:href="#glyph0-2"
         x="328.98901"
         y="296.03201"
         id="use548"
         width="100%"
         height="100%" />
    </g>
    <g
       style="fill:#000000;fill-opacity:1"
       id="g554">
      <use
         xlink:href="#glyph0-1"
         x="351.681"
         y="296.03101"
         id="use552"
         width="100%"
         height="100%" />
    </g>
    <g
       style="fill:#000000;fill-opacity:1"
       id="g558">
      <use
         xlink:href="#glyph2-1"
         x="135.616"
         y="168.89301"
         id="use556"
         width="100%"
         height="100%" />
    </g>
    <g
       style="fill:#000000;fill-opacity:1"
       id="g562">
      <use
         xlink:href="#glyph2-2"
         x="135.616"
         y="186.427"
         id="use560"
         width="100%"
         height="100%" />
    </g>
    <g
       style="fill:#000000;fill-opacity:1"
       id="g566">
      <use
         xlink:href="#glyph2-3"
         x="135.616"
         y="192.804"
         id="use564"
         width="100%"
         height="100%" />
    </g>
    <g
       style="fill:#000000;fill-opacity:1"
       id="g570">
      <use
         xlink:href="#glyph2-4"
         x="211.201"
         y="168.89301"
         id="use568"
         width="100%"
         height="100%" />
    </g>
    <g
       style="fill:#000000;fill-opacity:1"
       id="g574">
      <use
         xlink:href="#glyph2-5"
         x="211.201"
         y="186.427"
         id="use572"
         width="100%"
         height="100%" />
    </g>
    <g
       style="fill:#000000;fill-opacity:1"
       id="g578">
      <use
         xlink:href="#glyph2-6"
         x="211.201"
         y="192.804"
         id="use576"
         width="100%"
         height="100%" />
    </g>
    <g
       style="fill:#000000;fill-opacity:1"
       id="g582">
      <use
         xlink:href="#glyph2-1"
         x="135.616"
         y="214.131"
         id="use580"
         width="100%"
         height="100%" />
    </g>
    <g
       style="fill:#000000;fill-opacity:1"
       id="g586">
      <use
         xlink:href="#glyph2-2"
         x="135.616"
         y="231.66499"
         id="use584"
         width="100%"
         height="100%" />
    </g>
    <g
       style="fill:#000000;fill-opacity:1"
       id="g590">
      <use
         xlink:href="#glyph2-3"
         x="135.616"
         y="238.04201"
         id="use588"
         width="100%"
         height="100%" />
    </g>
    <g
       style="fill:#000000;fill-opacity:1"
       id="g594">
      <use
         xlink:href="#glyph2-4"
         x="211.201"
         y="214.131"
         id="use592"
         width="100%"
         height="100%" />
    </g>
    <g
       style="fill:#000000;fill-opacity:1"
       id="g598">
      <use
         xlink:href="#glyph2-5"
         x="211.201"
         y="231.66499"
         id="use596"
         width="100%"
         height="100%" />
    </g>
    <g
       style="fill:#000000;fill-opacity:1"
       id="g602">
      <use
         xlink:href="#glyph2-6"
         x="211.201"
         y="238.04201"
         id="use600"
         width="100%"
         height="100%" />
    </g>
    <g
       style="fill:#000000;fill-opacity:1"
       id="g606">
      <use
         xlink:href="#glyph2-1"
         x="135.616"
         y="259.48599"
         id="use604"
         width="100%"
         height="100%" />
    </g>
    <g
       style="fill:#000000;fill-opacity:1"
       id="g610">
      <use
         xlink:href="#glyph2-2"
         x="135.616"
         y="277.01999"
         id="use608"
         width="100%"
         height="100%" />
    </g>
    <g
       style="fill:#000000;fill-opacity:1"
       id="g614">
      <use
         xlink:href="#glyph2-3"
         x="135.616"
         y="283.397"
         id="use612"
         width="100%"
         height="100%" />
    </g>
    <g
       style="fill:#000000;fill-opacity:1"
       id="g618">
      <use
         xlink:href="#glyph2-4"
         x="211.201"
         y="259.48599"
         id="use616"
         width="100%"
         height="100%" />
    </g>
    <g
       style="fill:#000000;fill-opacity:1"
       id="g622">
      <use
         xlink:href="#glyph2-5"
         x="211.201"
         y="277.01999"
         id="use620"
         width="100%"
         height="100%" />
    </g>
    <g
       style="fill:#000000;fill-opacity:1"
       id="g626">
      <use
         xlink:href="#glyph2-6"
         x="211.201"
         y="283.397"
         id="use624"
         width="100%"
         height="100%" />
    </g>
    <g
       style="fill:#000000;fill-opacity:1"
       id="g630">
      <use
         xlink:href="#glyph2-1"
         x="216.976"
         y="123.589"
         id="use628"
         width="100%"
         height="100%" />
    </g>
    <g
       style="fill:#000000;fill-opacity:1"
       id="g634">
      <use
         xlink:href="#glyph2-2"
         x="216.976"
         y="141.123"
         id="use632"
         width="100%"
         height="100%" />
    </g>
    <g
       style="fill:#000000;fill-opacity:1"
       id="g638">
      <use
         xlink:href="#glyph2-3"
         x="216.976"
         y="147.5"
         id="use636"
         width="100%"
         height="100%" />
    </g>
    <g
       style="fill:#000000;fill-opacity:1"
       id="g642">
      <use
         xlink:href="#glyph2-4"
         x="361.03799"
         y="123.589"
         id="use640"
         width="100%"
         height="100%" />
    </g>
    <g
       style="fill:#000000;fill-opacity:1"
       id="g646">
      <use
         xlink:href="#glyph2-5"
         x="361.03799"
         y="141.123"
         id="use644"
         width="100%"
         height="100%" />
    </g>
    <g
       style="fill:#000000;fill-opacity:1"
       id="g650">
      <use
         xlink:href="#glyph2-6"
         x="361.03799"
         y="147.5"
         id="use648"
         width="100%"
         height="100%" />
    </g>
    <g
       style="fill:#000000;fill-opacity:1"
       id="g654">
      <use
         xlink:href="#glyph2-1"
         x="216.976"
         y="168.89301"
         id="use652"
         width="100%"
         height="100%" />
    </g>
    <g
       style="fill:#000000;fill-opacity:1"
       id="g658">
      <use
         xlink:href="#glyph2-2"
         x="216.976"
         y="186.427"
         id="use656"
         width="100%"
         height="100%" />
    </g>
    <g
       style="fill:#000000;fill-opacity:1"
       id="g662">
      <use
         xlink:href="#glyph2-3"
         x="216.976"
         y="192.804"
         id="use660"
         width="100%"
         height="100%" />
    </g>
    <g
       style="fill:#000000;fill-opacity:1"
       id="g666">
      <use
         xlink:href="#glyph2-4"
         x="361.03799"
         y="168.89301"
         id="use664"
         width="100%"
         height="100%" />
    </g>
    <g
       style="fill:#000000;fill-opacity:1"
       id="g670">
      <use
         xlink:href="#glyph2-5"
         x="361.03799"
         y="186.427"
         id="use668"
         width="100%"
         height="100%" />
    </g>
    <g
       style="fill:#000000;fill-opacity:1"
       id="g674">
      <use
         xlink:href="#glyph2-6"
         x="361.03799"
         y="192.804"
         id="use672"
         width="100%"
         height="100%" />
    </g>
    <g
       style="fill:#000000;fill-opacity:1"
       id="g678">
      <use
         xlink:href="#glyph2-1"
         x="216.976"
         y="214.131"
         id="use676"
         width="100%"
         height="100%" />
    </g>
    <g
       style="fill:#000000;fill-opacity:1"
       id="g682">
      <use
         xlink:href="#glyph2-2"
         x="216.976"
         y="231.66499"
         id="use680"
         width="100%"
         height="100%" />
    </g>
    <g
       style="fill:#000000;fill-opacity:1"
       id="g686">
      <use
         xlink:href="#glyph2-3"
         x="216.976"
         y="238.04201"
         id="use684"
         width="100%"
         height="100%" />
    </g>
    <g
       style="fill:#000000;fill-opacity:1"
       id="g690">
      <use
         xlink:href="#glyph2-4"
         x="361.03799"
         y="214.131"
         id="use688"
         width="100%"
         height="100%" />
    </g>
    <g
       style="fill:#000000;fill-opacity:1"
       id="g694">
      <use
         xlink:href="#glyph2-5"
         x="361.03799"
         y="231.66499"
         id="use692"
         width="100%"
         height="100%" />
    </g>
    <g
       style="fill:#000000;fill-opacity:1"
       id="g698">
      <use
         xlink:href="#glyph2-6"
         x="361.03799"
         y="238.04201"
         id="use696"
         width="100%"
         height="100%" />
    </g>
    <g
       style="fill:#000000;fill-opacity:1"
       id="g702">
      <use
         xlink:href="#glyph2-1"
         x="216.976"
         y="259.48599"
         id="use700"
         width="100%"
         height="100%" />
    </g>
    <g
       style="fill:#000000;fill-opacity:1"
       id="g706">
      <use
         xlink:href="#glyph2-2"
         x="216.976"
         y="277.01999"
         id="use704"
         width="100%"
         height="100%" />
    </g>
    <g
       style="fill:#000000;fill-opacity:1"
       id="g710">
      <use
         xlink:href="#glyph2-3"
         x="216.976"
         y="283.397"
         id="use708"
         width="100%"
         height="100%" />
    </g>
    <g
       style="fill:#000000;fill-opacity:1"
       id="g714">
      <use
         xlink:href="#glyph2-4"
         x="361.03799"
         y="259.48599"
         id="use712"
         width="100%"
         height="100%" />
    </g>
    <g
       style="fill:#000000;fill-opacity:1"
       id="g718">
      <use
         xlink:href="#glyph2-5"
         x="361.03799"
         y="277.01999"
         id="use716"
         width="100%"
         height="100%" />
    </g>
    <g
       style="fill:#000000;fill-opacity:1"
       id="g722">
      <use
         xlink:href="#glyph2-6"
         x="361.03799"
         y="283.397"
         id="use720"
         width="100%"
         height="100%" />
    </g>
    <g
       style="fill:#000000;fill-opacity:1"
       id="g726">
      <use
         xlink:href="#glyph2-1"
         x="216.976"
         y="123.589"
         id="use724"
         width="100%"
         height="100%" />
    </g>
    <g
       style="fill:#000000;fill-opacity:1"
       id="g730">
      <use
         xlink:href="#glyph2-2"
         x="216.976"
         y="141.123"
         id="use728"
         width="100%"
         height="100%" />
    </g>
    <g
       style="fill:#000000;fill-opacity:1"
       id="g734">
      <use
         xlink:href="#glyph2-3"
         x="216.976"
         y="147.5"
         id="use732"
         width="100%"
         height="100%" />
    </g>
    <g
       style="fill:#000000;fill-opacity:1"
       id="g738">
      <use
         xlink:href="#glyph2-4"
         x="361.03799"
         y="123.589"
         id="use736"
         width="100%"
         height="100%" />
    </g>
    <g
       style="fill:#000000;fill-opacity:1"
       id="g742">
      <use
         xlink:href="#glyph2-5"
         x="361.03799"
         y="141.123"
         id="use740"
         width="100%"
         height="100%" />
    </g>
    <g
       style="fill:#000000;fill-opacity:1"
       id="g746">
      <use
         xlink:href="#glyph2-6"
         x="361.03799"
         y="147.5"
         id="use744"
         width="100%"
         height="100%" />
    </g>
    <g
       style="fill:#000000;fill-opacity:1"
       id="g750">
      <use
         xlink:href="#glyph2-1"
         x="216.976"
         y="168.89301"
         id="use748"
         width="100%"
         height="100%" />
    </g>
    <g
       style="fill:#000000;fill-opacity:1"
       id="g754">
      <use
         xlink:href="#glyph2-2"
         x="216.976"
         y="186.427"
         id="use752"
         width="100%"
         height="100%" />
    </g>
    <g
       style="fill:#000000;fill-opacity:1"
       id="g758">
      <use
         xlink:href="#glyph2-3"
         x="216.976"
         y="192.804"
         id="use756"
         width="100%"
         height="100%" />
    </g>
    <g
       style="fill:#000000;fill-opacity:1"
       id="g762">
      <use
         xlink:href="#glyph2-4"
         x="361.03799"
         y="168.89301"
         id="use760"
         width="100%"
         height="100%" />
    </g>
    <g
       style="fill:#000000;fill-opacity:1"
       id="g766">
      <use
         xlink:href="#glyph2-5"
         x="361.03799"
         y="186.427"
         id="use764"
         width="100%"
         height="100%" />
    </g>
    <g
       style="fill:#000000;fill-opacity:1"
       id="g770">
      <use
         xlink:href="#glyph2-6"
         x="361.03799"
         y="192.804"
         id="use768"
         width="100%"
         height="100%" />
    </g>
    <g
       style="fill:#000000;fill-opacity:1"
       id="g774">
      <use
         xlink:href="#glyph2-1"
         x="216.976"
         y="214.131"
         id="use772"
         width="100%"
         height="100%" />
    </g>
    <g
       style="fill:#000000;fill-opacity:1"
       id="g778">
      <use
         xlink:href="#glyph2-2"
         x="216.976"
         y="231.66499"
         id="use776"
         width="100%"
         height="100%" />
    </g>
    <g
       style="fill:#000000;fill-opacity:1"
       id="g782">
      <use
         xlink:href="#glyph2-3"
         x="216.976"
         y="238.04201"
         id="use780"
         width="100%"
         height="100%" />
    </g>
    <g
       style="fill:#000000;fill-opacity:1"
       id="g786">
      <use
         xlink:href="#glyph2-4"
         x="361.03799"
         y="214.131"
         id="use784"
         width="100%"
         height="100%" />
    </g>
    <g
       style="fill:#000000;fill-opacity:1"
       id="g790">
      <use
         xlink:href="#glyph2-5"
         x="361.03799"
         y="231.66499"
         id="use788"
         width="100%"
         height="100%" />
    </g>
    <g
       style="fill:#000000;fill-opacity:1"
       id="g794">
      <use
         xlink:href="#glyph2-6"
         x="361.03799"
         y="238.04201"
         id="use792"
         width="100%"
         height="100%" />
    </g>
    <g
       style="fill:#000000;fill-opacity:1"
       id="g798">
      <use
         xlink:href="#glyph2-1"
         x="216.976"
         y="259.48599"
         id="use796"
         width="100%"
         height="100%" />
    </g>
    <g
       style="fill:#000000;fill-opacity:1"
       id="g802">
      <use
         xlink:href="#glyph2-2"
         x="216.976"
         y="277.01999"
         id="use800"
         width="100%"
         height="100%" />
    </g>
    <g
       style="fill:#000000;fill-opacity:1"
       id="g806">
      <use
         xlink:href="#glyph2-3"
         x="216.976"
         y="283.397"
         id="use804"
         width="100%"
         height="100%" />
    </g>
    <g
       style="fill:#000000;fill-opacity:1"
       id="g810">
      <use
         xlink:href="#glyph2-4"
         x="361.03799"
         y="259.48599"
         id="use808"
         width="100%"
         height="100%" />
    </g>
    <g
       style="fill:#000000;fill-opacity:1"
       id="g814">
      <use
         xlink:href="#glyph2-5"
         x="361.03799"
         y="277.01999"
         id="use812"
         width="100%"
         height="100%" />
    </g>
    <g
       style="fill:#000000;fill-opacity:1"
       id="g818">
      <use
         xlink:href="#glyph2-6"
         x="361.03799"
         y="283.397"
         id="use816"
         width="100%"
         height="100%" />
    </g>
    <g
       style="fill:#000000;fill-opacity:1"
       id="g822">
      <use
         xlink:href="#glyph2-1"
         x="216.976"
         y="123.589"
         id="use820"
         width="100%"
         height="100%" />
    </g>
    <g
       style="fill:#000000;fill-opacity:1"
       id="g826">
      <use
         xlink:href="#glyph2-2"
         x="216.976"
         y="141.123"
         id="use824"
         width="100%"
         height="100%" />
    </g>
    <g
       style="fill:#000000;fill-opacity:1"
       id="g830">
      <use
         xlink:href="#glyph2-3"
         x="216.976"
         y="147.5"
         id="use828"
         width="100%"
         height="100%" />
    </g>
    <g
       style="fill:#000000;fill-opacity:1"
       id="g834">
      <use
         xlink:href="#glyph2-4"
         x="361.03799"
         y="123.589"
         id="use832"
         width="100%"
         height="100%" />
    </g>
    <g
       style="fill:#000000;fill-opacity:1"
       id="g838">
      <use
         xlink:href="#glyph2-5"
         x="361.03799"
         y="141.123"
         id="use836"
         width="100%"
         height="100%" />
    </g>
    <g
       style="fill:#000000;fill-opacity:1"
       id="g842">
      <use
         xlink:href="#glyph2-6"
         x="361.03799"
         y="147.5"
         id="use840"
         width="100%"
         height="100%" />
    </g>
    <g
       style="fill:#000000;fill-opacity:1"
       id="g846">
      <use
         xlink:href="#glyph2-1"
         x="216.976"
         y="168.89301"
         id="use844"
         width="100%"
         height="100%" />
    </g>
    <g
       style="fill:#000000;fill-opacity:1"
       id="g850">
      <use
         xlink:href="#glyph2-2"
         x="216.976"
         y="186.427"
         id="use848"
         width="100%"
         height="100%" />
    </g>
    <g
       style="fill:#000000;fill-opacity:1"
       id="g854">
      <use
         xlink:href="#glyph2-3"
         x="216.976"
         y="192.804"
         id="use852"
         width="100%"
         height="100%" />
    </g>
    <g
       style="fill:#000000;fill-opacity:1"
       id="g858">
      <use
         xlink:href="#glyph2-4"
         x="361.03799"
         y="168.89301"
         id="use856"
         width="100%"
         height="100%" />
    </g>
    <g
       style="fill:#000000;fill-opacity:1"
       id="g862">
      <use
         xlink:href="#glyph2-5"
         x="361.03799"
         y="186.427"
         id="use860"
         width="100%"
         height="100%" />
    </g>
    <g
       style="fill:#000000;fill-opacity:1"
       id="g866">
      <use
         xlink:href="#glyph2-6"
         x="361.03799"
         y="192.804"
         id="use864"
         width="100%"
         height="100%" />
    </g>
    <g
       style="fill:#000000;fill-opacity:1"
       id="g870">
      <use
         xlink:href="#glyph2-1"
         x="216.976"
         y="214.131"
         id="use868"
         width="100%"
         height="100%" />
    </g>
    <g
       style="fill:#000000;fill-opacity:1"
       id="g874">
      <use
         xlink:href="#glyph2-2"
         x="216.976"
         y="231.66499"
         id="use872"
         width="100%"
         height="100%" />
    </g>
    <g
       style="fill:#000000;fill-opacity:1"
       id="g878">
      <use
         xlink:href="#glyph2-3"
         x="216.976"
         y="238.04201"
         id="use876"
         width="100%"
         height="100%" />
    </g>
    <g
       style="fill:#000000;fill-opacity:1"
       id="g882">
      <use
         xlink:href="#glyph2-4"
         x="361.03799"
         y="214.131"
         id="use880"
         width="100%"
         height="100%" />
    </g>
    <g
       style="fill:#000000;fill-opacity:1"
       id="g886">
      <use
         xlink:href="#glyph2-5"
         x="361.03799"
         y="231.66499"
         id="use884"
         width="100%"
         height="100%" />
    </g>
    <g
       style="fill:#000000;fill-opacity:1"
       id="g890">
      <use
         xlink:href="#glyph2-6"
         x="361.03799"
         y="238.04201"
         id="use888"
         width="100%"
         height="100%" />
    </g>
    <g
       style="fill:#000000;fill-opacity:1"
       id="g894">
      <use
         xlink:href="#glyph2-1"
         x="216.976"
         y="259.48599"
         id="use892"
         width="100%"
         height="100%" />
    </g>
    <g
       style="fill:#000000;fill-opacity:1"
       id="g898">
      <use
         xlink:href="#glyph2-2"
         x="216.976"
         y="277.01999"
         id="use896"
         width="100%"
         height="100%" />
    </g>
    <g
       style="fill:#000000;fill-opacity:1"
       id="g902">
      <use
         xlink:href="#glyph2-3"
         x="216.976"
         y="283.397"
         id="use900"
         width="100%"
         height="100%" />
    </g>
    <g
       style="fill:#000000;fill-opacity:1"
       id="g906">
      <use
         xlink:href="#glyph2-4"
         x="361.03799"
         y="259.48599"
         id="use904"
         width="100%"
         height="100%" />
    </g>
    <g
       style="fill:#000000;fill-opacity:1"
       id="g910">
      <use
         xlink:href="#glyph2-5"
         x="361.03799"
         y="277.01999"
         id="use908"
         width="100%"
         height="100%" />
    </g>
    <g
       style="fill:#000000;fill-opacity:1"
       id="g914">
      <use
         xlink:href="#glyph2-6"
         x="361.03799"
         y="283.397"
         id="use912"
         width="100%"
         height="100%" />
    </g>
    <path
       style="fill:none;stroke:#ff0000;stroke-width:0.3985;stroke-linecap:butt;stroke-linejoin:miter;stroke-miterlimit:10;stroke-opacity:1"
       d="m -147.82412,74.09825 h 12.02343 v 19.4375 h -12.02343 z m 0,0"
       transform="matrix(1,0,0,-1,382.121,214.817)"
       id="path916" />
    <path
       style="fill:none;stroke:#0000ff;stroke-width:0.3985;stroke-linecap:butt;stroke-linejoin:miter;stroke-miterlimit:10;stroke-opacity:1"
       d="m -147.82412,29.207625 h 12.02343 v 19.4375 h -12.02343 z m 0,0"
       transform="matrix(1,0,0,-1,382.121,214.817)"
       id="path918" />
    <path
       style="fill:none;stroke:#ff0000;stroke-width:0.3985;stroke-linecap:butt;stroke-linejoin:miter;stroke-miterlimit:10;stroke-opacity:1"
       d="m -125.12881,16.211531 h 12.01953 v 19.4375 h -12.01953 z m 0,0"
       transform="matrix(1,0,0,-1,382.121,214.817)"
       id="path920" />
    <path
       style="fill:none;stroke:#0000ff;stroke-width:0.3985;stroke-linecap:butt;stroke-linejoin:miter;stroke-miterlimit:10;stroke-opacity:1"
       d="m -147.82412,-15.913469 h 12.02343 v 19.4375 h -12.02343 z m 0,0"
       transform="matrix(1,0,0,-1,382.121,214.817)"
       id="path922" />
    <path
       style="fill:none;stroke:#0000ff;stroke-width:0.3985;stroke-linecap:butt;stroke-linejoin:miter;stroke-miterlimit:10;stroke-opacity:1"
       d="m -125.12881,-29.140031 h 12.01953 v 19.4375 h -12.01953 z m 0,0"
       transform="matrix(1,0,0,-1,382.121,214.817)"
       id="path924" />
    <path
       style="fill:none;stroke:#ff0000;stroke-width:0.3985;stroke-linecap:butt;stroke-linejoin:miter;stroke-miterlimit:10;stroke-opacity:1"
       d="m -102.43741,-42.3705 h 12.019535 v 19.4375 h -12.019535 z m 0,0"
       transform="matrix(1,0,0,-1,382.121,214.817)"
       id="path926" />
    <path
       style="fill:none;stroke:#0000ff;stroke-width:0.3985;stroke-linecap:butt;stroke-linejoin:miter;stroke-miterlimit:10;stroke-opacity:1"
       d="m -147.82412,-61.268937 h 12.02343 v 19.4375 h -12.02343 z m 0,0"
       transform="matrix(1,0,0,-1,382.121,214.817)"
       id="path928" />
    <path
       style="fill:none;stroke:#0000ff;stroke-width:0.3985;stroke-linecap:butt;stroke-linejoin:miter;stroke-miterlimit:10;stroke-opacity:1"
       d="m -125.12881,-74.4955 h 12.01953 v 19.4375 h -12.01953 z m 0,0"
       transform="matrix(1,0,0,-1,382.121,214.817)"
       id="path930" />
    <path
       style="fill:none;stroke:#ff0000;stroke-width:0.3985;stroke-linecap:butt;stroke-linejoin:miter;stroke-miterlimit:10;stroke-opacity:1"
       d="m -102.43741,-87.725969 h 12.019535 v 19.4375 h -12.019535 z m 0,0"
       transform="matrix(1,0,0,-1,382.121,214.817)"
       id="path932" />
  </g>
</svg>
