<?xml version="1.0" encoding="UTF-8" standalone="no"?>
<svg
   xmlns:dc="http://purl.org/dc/elements/1.1/"
   xmlns:cc="http://creativecommons.org/ns#"
   xmlns:rdf="http://www.w3.org/1999/02/22-rdf-syntax-ns#"
   xmlns:svg="http://www.w3.org/2000/svg"
   xmlns="http://www.w3.org/2000/svg"
   xmlns:xlink="http://www.w3.org/1999/xlink"
   id="svg341"
   version="1.1"
   viewBox="0 0 237.60126 80.229988"
   height="80.229988pt"
   width="237.60126pt">
  <metadata
     id="metadata345">
    <rdf:RDF>
      <cc:Work
         rdf:about="">
        <dc:format>image/svg+xml</dc:format>
        <dc:type
           rdf:resource="http://purl.org/dc/dcmitype/StillImage" />
      </cc:Work>
    </rdf:RDF>
  </metadata>
  <defs
     id="defs118">
    <g
       id="g116">
      <symbol
         style="overflow:visible"
         id="glyph0-0"
         overflow="visible">
        <path
           id="path2"
           d=""
           style="stroke:none" />
      </symbol>
      <symbol
         style="overflow:visible"
         id="glyph0-1"
         overflow="visible">
        <path
           id="path5"
           d="M 3.734375,17.640625 C 3.953125,17.640625 4,17.640625 4,17.5 4.03125,10.515625 4.828125,4.71875 8.328125,-0.15625 c 0.0625,-0.09375 0.0625,-0.109375 0.0625,-0.140625 0,-0.09375 -0.0625,-0.09375 -0.21875,-0.09375 -0.171875,0 -0.1875,0 -0.203125,0.015625 -0.046875,0.03125 -1.3125,1.484375 -2.3125,3.5 -1.3125,2.625 -2.140625,5.640625 -2.515625,9.28125 -0.03125,0.296875 -0.234375,2.375 -0.234375,4.734375 v 0.390625 c 0,0.109375 0.0625,0.109375 0.28125,0.109375 z m 0,0"
           style="stroke:none" />
      </symbol>
      <symbol
         style="overflow:visible"
         id="glyph0-2"
         overflow="visible">
        <path
           id="path8"
           d="M 4,0.171875 C 4,-0.09375 4,-0.09375 3.734375,-0.09375 H 3.1875 c -0.28125,0 -0.28125,0 -0.28125,0.265625 V 5.8125 c 0,0.265625 0,0.265625 0.28125,0.265625 H 3.734375 C 4,6.078125 4,6.078125 4,5.8125 Z m 0,0"
           style="stroke:none" />
      </symbol>
      <symbol
         style="overflow:visible"
         id="glyph0-3"
         overflow="visible">
        <path
           id="path11"
           d="m 3.1875,-0.5 c -0.21875,0 -0.28125,0 -0.28125,0.109375 V 0 c 0,6.09375 1.078125,9.65625 1.390625,10.671875 C 4.96875,12.875 6.078125,15.21875 7.75,17.265625 7.890625,17.453125 7.9375,17.5 7.96875,17.515625 8,17.53125 8,17.53125 8.171875,17.53125 c 0.15625,0 0.21875,0 0.21875,-0.09375 0,-0.01563 0,-0.04687 -0.0625,-0.125 C 5.015625,12.703125 4.015625,7.15625 4,-0.359375 4,-0.5 3.953125,-0.5 3.734375,-0.5 Z m 0,0"
           style="stroke:none" />
      </symbol>
      <symbol
         style="overflow:visible"
         id="glyph0-4"
         overflow="visible">
        <path
           id="path14"
           d="M 5.8125,17.140625 C 5.8125,11.0625 4.71875,7.484375 4.421875,6.484375 3.734375,4.265625 2.625,1.9375 0.96875,-0.125 0.8125,-0.296875 0.78125,-0.34375 0.734375,-0.375 c -0.015625,0 -0.03125,-0.015625 -0.1875,-0.015625 -0.140625,0 -0.234375,0 -0.234375,0.09375 0,0.03125 0,0.046875 0.140625,0.234375 3.46875,4.84375 4.234375,10.8125 4.25,17.5625 0,0.140625 0.0625,0.140625 0.28125,0.140625 H 5.53125 c 0.203125,0 0.265625,0 0.28125,-0.109375 z m 0,0"
           style="stroke:none" />
      </symbol>
      <symbol
         style="overflow:visible"
         id="glyph0-5"
         overflow="visible">
        <path
           id="path17"
           d="M 5.8125,0.171875 C 5.8125,-0.09375 5.796875,-0.09375 5.53125,-0.09375 H 4.984375 c -0.265625,0 -0.28125,0 -0.28125,0.265625 V 5.8125 c 0,0.265625 0.015625,0.265625 0.28125,0.265625 H 5.53125 c 0.265625,0 0.28125,0 0.28125,-0.265625 z m 0,0"
           style="stroke:none" />
      </symbol>
      <symbol
         style="overflow:visible"
         id="glyph0-6"
         overflow="visible">
        <path
           id="path20"
           d="M 5.8125,-0.390625 C 5.796875,-0.5 5.734375,-0.5 5.53125,-0.5 H 4.984375 c -0.21875,0 -0.28125,0 -0.28125,0.140625 0,1.03125 -0.015625,3.40625 -0.265625,5.875 C 3.890625,10.671875 2.578125,14.25 0.390625,17.3125 0.3125,17.390625 0.3125,17.421875 0.3125,17.4375 c 0,0.09375 0.09375,0.09375 0.234375,0.09375 0.15625,0 0.1875,0 0.203125,-0.01563 C 0.78125,17.484375 2.046875,16.03125 3.0625,14.03125 4.375,11.390625 5.203125,8.375 5.578125,4.75 5.609375,4.4375 5.8125,2.359375 5.8125,0 Z m 0,0"
           style="stroke:none" />
      </symbol>
      <symbol
         style="overflow:visible"
         id="glyph1-0"
         overflow="visible">
        <path
           id="path23"
           d=""
           style="stroke:none" />
      </symbol>
      <symbol
         style="overflow:visible"
         id="glyph1-1"
         overflow="visible">
        <path
           id="path26"
           d="m 3.53125,-6.203125 c 0,-0.234375 0,-0.328125 -0.265625,-0.328125 -0.109375,0 -0.125,0 -0.21875,0.078125 -0.765625,0.5625 -1.796875,0.5625 -2,0.5625 H 0.84375 v 0.46875 H 1.046875 C 1.203125,-5.421875 1.75,-5.4375 2.34375,-5.625 v 5.15625 H 0.953125 V 0 c 0.4375,-0.03125 1.5,-0.03125 1.984375,-0.03125 0.484375,0 1.546875,0 1.984375,0.03125 V -0.46875 H 3.53125 Z m 0,0"
           style="stroke:none" />
      </symbol>
      <symbol
         style="overflow:visible"
         id="glyph1-2"
         overflow="visible">
        <path
           id="path29"
           d="M 4.4375,-1.5625 H 5.40625 V -2.03125 H 4.4375 v -4.1875 c 0,-0.265625 -0.015625,-0.328125 -0.296875,-0.328125 -0.21875,0 -0.21875,0.015625 -0.34375,0.171875 L 0.3125,-2.03125 v 0.46875 h 2.875 v 1.09375 H 2.078125 V 0 c 0.375,-0.03125 1.28125,-0.03125 1.703125,-0.03125 0.40625,0 1.265625,0 1.625,0.03125 V -0.46875 H 4.4375 Z M 3.296875,-2.03125 H 0.84375 l 2.453125,-3.078125 z m 0,0"
           style="stroke:none" />
      </symbol>
      <symbol
         style="overflow:visible"
         id="glyph2-0"
         overflow="visible">
        <path
           id="path32"
           d=""
           style="stroke:none" />
      </symbol>
      <symbol
         style="overflow:visible"
         id="glyph2-1"
         overflow="visible">
        <path
           id="path35"
           d="m 2.9375,-6.375 c 0,-0.25 0,-0.265625 -0.234375,-0.265625 C 2.078125,-6 1.203125,-6 0.890625,-6 v 0.3125 c 0.203125,0 0.78125,0 1.296875,-0.265625 v 5.171875 c 0,0.359375 -0.03125,0.46875 -0.921875,0.46875 h -0.3125 V 0 c 0.34375,-0.03125 1.203125,-0.03125 1.609375,-0.03125 0.390625,0 1.265625,0 1.609375,0.03125 v -0.3125 h -0.3125 c -0.90625,0 -0.921875,-0.109375 -0.921875,-0.46875 z m 0,0"
           style="stroke:none" />
      </symbol>
      <symbol
         style="overflow:visible"
         id="glyph2-2"
         overflow="visible">
        <path
           id="path38"
           d="m 1.265625,-0.765625 1.0625,-1.03125 c 1.546875,-1.375 2.140625,-1.90625 2.140625,-2.90625 0,-1.140625 -0.890625,-1.9375 -2.109375,-1.9375 -1.125,0 -1.859375,0.921875 -1.859375,1.8125 0,0.546875 0.5,0.546875 0.53125,0.546875 0.171875,0 0.515625,-0.109375 0.515625,-0.53125 0,-0.25 -0.1875,-0.515625 -0.53125,-0.515625 -0.078125,0 -0.09375,0 -0.125,0.015625 0.21875,-0.65625 0.765625,-1.015625 1.34375,-1.015625 0.90625,0 1.328125,0.8125 1.328125,1.625 C 3.5625,-3.90625 3.078125,-3.125 2.515625,-2.5 l -1.90625,2.125 C 0.5,-0.265625 0.5,-0.234375 0.5,0 H 4.203125 L 4.46875,-1.734375 H 4.234375 C 4.171875,-1.4375 4.109375,-1 4,-0.84375 3.9375,-0.765625 3.28125,-0.765625 3.0625,-0.765625 Z m 0,0"
           style="stroke:none" />
      </symbol>
      <symbol
         style="overflow:visible"
         id="glyph2-3"
         overflow="visible">
        <path
           id="path41"
           d="m 4.578125,-3.1875 c 0,-0.796875 -0.046875,-1.59375 -0.390625,-2.328125 -0.453125,-0.96875 -1.28125,-1.125 -1.6875,-1.125 -0.609375,0 -1.328125,0.265625 -1.75,1.1875 -0.3125,0.6875 -0.359375,1.46875 -0.359375,2.265625 0,0.75 0.03125,1.640625 0.453125,2.40625 0.421875,0.796875 1.15625,1 1.640625,1 0.53125,0 1.296875,-0.203125 1.734375,-1.15625 0.3125,-0.6875 0.359375,-1.46875 0.359375,-2.25 z M 2.484375,0 C 2.09375,0 1.5,-0.25 1.328125,-1.203125 1.21875,-1.796875 1.21875,-2.71875 1.21875,-3.3125 c 0,-0.640625 0,-1.296875 0.078125,-1.828125 0.1875,-1.1875 0.9375,-1.28125 1.1875,-1.28125 0.328125,0 0.984375,0.1875 1.171875,1.171875 0.109375,0.5625 0.109375,1.3125 0.109375,1.9375 0,0.75 0,1.421875 -0.109375,2.0625 C 3.5,-0.296875 2.9375,0 2.484375,0 Z m 0,0"
           style="stroke:none" />
      </symbol>
      <symbol
         style="overflow:visible"
         id="glyph2-4"
         overflow="visible">
        <path
           id="path44"
           d="m 2.9375,-1.640625 v 0.859375 c 0,0.359375 -0.03125,0.46875 -0.765625,0.46875 H 1.96875 V 0 C 2.375,-0.03125 2.890625,-0.03125 3.3125,-0.03125 c 0.421875,0 0.9375,0 1.359375,0.03125 v -0.3125 h -0.21875 c -0.734375,0 -0.75,-0.109375 -0.75,-0.46875 V -1.640625 H 4.6875 v -0.3125 H 3.703125 v -4.53125 c 0,-0.203125 0,-0.265625 -0.171875,-0.265625 -0.078125,0 -0.109375,0 -0.1875,0.125 l -3.0625,4.671875 v 0.3125 z m 0.046875,-0.3125 H 0.5625 l 2.421875,-3.71875 z m 0,0"
           style="stroke:none" />
      </symbol>
      <symbol
         style="overflow:visible"
         id="glyph2-5"
         overflow="visible">
        <path
           id="path47"
           d="m 1.3125,-3.265625 v -0.25 c 0,-2.515625 1.234375,-2.875 1.75,-2.875 0.234375,0 0.65625,0.0625 0.875,0.40625 -0.15625,0 -0.546875,0 -0.546875,0.4375 0,0.3125 0.234375,0.46875 0.453125,0.46875 0.15625,0 0.46875,-0.09375 0.46875,-0.484375 0,-0.59375 -0.4375,-1.078125 -1.265625,-1.078125 -1.28125,0 -2.625,1.28125 -2.625,3.484375 0,2.671875 1.15625,3.375 2.078125,3.375 1.109375,0 2.0625,-0.9375 2.0625,-2.25 0,-1.265625 -0.890625,-2.21875 -2,-2.21875 -0.671875,0 -1.046875,0.5 -1.25,0.984375 z M 2.5,-0.0625 c -0.625,0 -0.921875,-0.59375 -0.984375,-0.75 -0.1875,-0.46875 -0.1875,-1.265625 -0.1875,-1.4375 0,-0.78125 0.328125,-1.78125 1.21875,-1.78125 0.171875,0 0.625,0 0.9375,0.625 0.171875,0.359375 0.171875,0.875 0.171875,1.359375 0,0.484375 0,0.984375 -0.171875,1.34375 C 3.1875,-0.109375 2.734375,-0.0625 2.5,-0.0625 Z m 0,0"
           style="stroke:none" />
      </symbol>
      <symbol
         style="overflow:visible"
         id="glyph2-6"
         overflow="visible">
        <path
           id="path50"
           d="m 6.84375,-3.265625 c 0.15625,0 0.34375,0 0.34375,-0.1875 C 7.1875,-3.65625 7,-3.65625 6.859375,-3.65625 h -5.96875 c -0.140625,0 -0.328125,0 -0.328125,0.203125 0,0.1875 0.1875,0.1875 0.328125,0.1875 z m 0.015625,1.9375 c 0.140625,0 0.328125,0 0.328125,-0.203125 0,-0.1875 -0.1875,-0.1875 -0.34375,-0.1875 H 0.890625 c -0.140625,0 -0.328125,0 -0.328125,0.1875 0,0.203125 0.1875,0.203125 0.328125,0.203125 z m 0,0"
           style="stroke:none" />
      </symbol>
      <symbol
         style="overflow:visible"
         id="glyph3-0"
         overflow="visible">
        <path
           id="path53"
           d=""
           style="stroke:none" />
      </symbol>
      <symbol
         style="overflow:visible"
         id="glyph3-1"
         overflow="visible">
        <path
           id="path56"
           d="m 6.5625,-2.296875 c 0.171875,0 0.359375,0 0.359375,-0.203125 0,-0.1875 -0.1875,-0.1875 -0.359375,-0.1875 H 1.171875 c -0.171875,0 -0.34375,0 -0.34375,0.1875 0,0.203125 0.171875,0.203125 0.34375,0.203125 z m 0,0"
           style="stroke:none" />
      </symbol>
      <symbol
         style="overflow:visible"
         id="glyph4-0"
         overflow="visible">
        <path
           id="path59"
           d=""
           style="stroke:none" />
      </symbol>
      <symbol
         style="overflow:visible"
         id="glyph4-1"
         overflow="visible">
        <path
           id="path62"
           d="m 5.1875,-2.15625 c 0,-1.265625 -0.96875,-2.25 -2.109375,-2.25 -0.78125,0 -1.203125,0.46875 -1.359375,0.640625 v -3.15625 L 0.28125,-6.8125 V -6.5 c 0.703125,0 0.78125,0.0625 0.78125,0.5625 V 0 h 0.25 l 0.359375,-0.625 c 0.140625,0.234375 0.5625,0.734375 1.296875,0.734375 1.1875,0 2.21875,-0.984375 2.21875,-2.265625 z m -0.828125,0 c 0,0.359375 -0.015625,0.953125 -0.296875,1.40625 -0.21875,0.3125 -0.59375,0.640625 -1.125,0.640625 -0.453125,0 -0.8125,-0.234375 -1.046875,-0.609375 C 1.75,-0.921875 1.75,-0.953125 1.75,-1.140625 V -3.1875 c 0,-0.1875 0,-0.203125 0.109375,-0.359375 C 2.25,-4.109375 2.796875,-4.1875 3.03125,-4.1875 c 0.453125,0 0.8125,0.265625 1.046875,0.640625 0.265625,0.40625 0.28125,0.96875 0.28125,1.390625 z m 0,0"
           style="stroke:none" />
      </symbol>
      <symbol
         style="overflow:visible"
         id="glyph4-2"
         overflow="visible">
        <path
           id="path65"
           d="m 4.8125,-0.890625 v -0.5625 h -0.25 v 0.5625 C 4.5625,-0.3125 4.3125,-0.25 4.203125,-0.25 3.875,-0.25 3.84375,-0.703125 3.84375,-0.75 v -1.984375 c 0,-0.421875 0,-0.8125 -0.359375,-1.1875 C 3.09375,-4.3125 2.59375,-4.46875 2.109375,-4.46875 c -0.8125,0 -1.5,0.46875 -1.5,1.125 0,0.296875 0.203125,0.46875 0.453125,0.46875 0.28125,0 0.46875,-0.203125 0.46875,-0.453125 0,-0.125 -0.0625,-0.453125 -0.515625,-0.453125 C 1.28125,-4.140625 1.78125,-4.25 2.09375,-4.25 c 0.484375,0 1.0625,0.390625 1.0625,1.28125 v 0.359375 C 2.640625,-2.578125 1.9375,-2.546875 1.3125,-2.25 c -0.75,0.34375 -1,0.859375 -1,1.296875 0,0.8125 0.96875,1.0625 1.59375,1.0625 0.671875,0 1.125,-0.40625 1.3125,-0.859375 0.046875,0.390625 0.3125,0.8125 0.78125,0.8125 0.203125,0 0.8125,-0.140625 0.8125,-0.953125 z m -1.65625,-0.5 c 0,0.9375 -0.71875,1.28125 -1.171875,1.28125 -0.484375,0 -0.890625,-0.34375 -0.890625,-0.84375 0,-0.546875 0.40625,-1.375 2.0625,-1.4375 z m 0,0"
           style="stroke:none" />
      </symbol>
      <symbol
         style="overflow:visible"
         id="glyph4-3"
         overflow="visible">
        <path
           id="path68"
           d="m 3.59375,-1.28125 c 0,-0.515625 -0.296875,-0.828125 -0.421875,-0.9375 C 2.84375,-2.546875 2.453125,-2.625 2.03125,-2.703125 1.46875,-2.8125 0.8125,-2.9375 0.8125,-3.515625 c 0,-0.359375 0.25,-0.765625 1.109375,-0.765625 1.09375,0 1.15625,0.90625 1.171875,1.203125 0,0.09375 0.109375,0.09375 0.109375,0.09375 0.140625,0 0.140625,-0.046875 0.140625,-0.234375 v -1.015625 c 0,-0.15625 0,-0.234375 -0.109375,-0.234375 -0.046875,0 -0.078125,0 -0.203125,0.125 -0.03125,0.03125 -0.125,0.125 -0.171875,0.15625 -0.375,-0.28125 -0.78125,-0.28125 -0.9375,-0.28125 -1.21875,0 -1.59375,0.671875 -1.59375,1.234375 0,0.34375 0.15625,0.625 0.421875,0.84375 0.328125,0.25 0.609375,0.3125 1.328125,0.453125 0.21875,0.046875 1.03125,0.203125 1.03125,0.921875 0,0.5 -0.34375,0.90625 -1.125,0.90625 -0.84375,0 -1.203125,-0.5625 -1.390625,-1.421875 C 0.5625,-1.65625 0.5625,-1.6875 0.453125,-1.6875 c -0.125,0 -0.125,0.0625 -0.125,0.234375 V -0.125 c 0,0.171875 0,0.234375 0.109375,0.234375 0.046875,0 0.0625,-0.015625 0.25,-0.203125 0.015625,-0.015625 0.015625,-0.03125 0.203125,-0.21875 0.4375,0.40625 0.890625,0.421875 1.09375,0.421875 1.140625,0 1.609375,-0.671875 1.609375,-1.390625 z m 0,0"
           style="stroke:none" />
      </symbol>
      <symbol
         style="overflow:visible"
         id="glyph4-4"
         overflow="visible">
        <path
           id="path71"
           d="m 2.46875,0 v -0.3125 c -0.671875,0 -0.703125,-0.046875 -0.703125,-0.4375 V -4.40625 L 0.375,-4.296875 v 0.3125 c 0.640625,0 0.734375,0.0625 0.734375,0.546875 V -0.75 c 0,0.4375 -0.109375,0.4375 -0.78125,0.4375 V 0 l 1.09375,-0.03125 C 1.78125,-0.03125 2.125,-0.015625 2.46875,0 Z m -0.5625,-6.015625 c 0,-0.28125 -0.21875,-0.53125 -0.515625,-0.53125 -0.34375,0 -0.546875,0.28125 -0.546875,0.53125 C 0.84375,-5.75 1.078125,-5.5 1.375,-5.5 c 0.34375,0 0.53125,-0.265625 0.53125,-0.515625 z m 0,0"
           style="stroke:none" />
      </symbol>
      <symbol
         style="overflow:visible"
         id="glyph4-5"
         overflow="visible">
        <path
           id="path74"
           d="M 4.140625,-1.1875 C 4.140625,-1.28125 4.03125,-1.28125 4,-1.28125 c -0.078125,0 -0.109375,0.03125 -0.125,0.09375 -0.28125,0.921875 -0.9375,1.046875 -1.296875,1.046875 -0.53125,0 -1.40625,-0.421875 -1.40625,-2.03125 0,-1.625 0.8125,-2.046875 1.34375,-2.046875 0.09375,0 0.71875,0.015625 1.0625,0.375 -0.40625,0.03125 -0.46875,0.328125 -0.46875,0.453125 0,0.265625 0.1875,0.453125 0.453125,0.453125 0.265625,0 0.46875,-0.15625 0.46875,-0.46875 0,-0.671875 -0.765625,-1.0625 -1.53125,-1.0625 -1.25,0 -2.15625,1.078125 -2.15625,2.3125 0,1.28125 0.984375,2.265625 2.140625,2.265625 1.328125,0 1.65625,-1.203125 1.65625,-1.296875 z m 0,0"
           style="stroke:none" />
      </symbol>
      <symbol
         style="overflow:visible"
         id="glyph4-6"
         overflow="visible">
        <path
           id="path77"
           d="m 3.5625,-6.328125 c 0,-0.375 -0.375,-0.703125 -0.90625,-0.703125 -0.6875,0 -1.546875,0.53125 -1.546875,1.59375 v 1.140625 h -0.78125 v 0.3125 h 0.78125 V -0.75 C 1.109375,-0.3125 1,-0.3125 0.34375,-0.3125 V 0 l 1.125,-0.03125 c 0.40625,0 0.875,0 1.265625,0.03125 V -0.3125 H 2.53125 c -0.734375,0 -0.75,-0.109375 -0.75,-0.46875 v -3.203125 h 1.125 v -0.3125 H 1.75 v -1.15625 c 0,-0.875 0.46875,-1.359375 0.90625,-1.359375 0.03125,0 0.1875,0 0.328125,0.078125 C 2.875,-6.703125 2.6875,-6.5625 2.6875,-6.3125 c 0,0.21875 0.15625,0.421875 0.4375,0.421875 0.28125,0 0.4375,-0.203125 0.4375,-0.4375 z m 0,0"
           style="stroke:none" />
      </symbol>
      <symbol
         style="overflow:visible"
         id="glyph4-7"
         overflow="visible">
        <path
           id="path80"
           d="m 3.625,-3.796875 c 0,-0.3125 -0.3125,-0.609375 -0.734375,-0.609375 -0.734375,0 -1.09375,0.671875 -1.21875,1.09375 V -4.40625 L 0.28125,-4.296875 v 0.3125 c 0.703125,0 0.78125,0.0625 0.78125,0.5625 V -0.75 c 0,0.4375 -0.109375,0.4375 -0.78125,0.4375 V 0 l 1.140625,-0.03125 c 0.390625,0 0.859375,0 1.265625,0.03125 V -0.3125 H 2.46875 c -0.734375,0 -0.75,-0.109375 -0.75,-0.46875 V -2.3125 c 0,-0.984375 0.421875,-1.875 1.171875,-1.875 0.0625,0 0.09375,0 0.109375,0.015625 -0.03125,0 -0.234375,0.125 -0.234375,0.390625 0,0.265625 0.21875,0.421875 0.4375,0.421875 0.171875,0 0.421875,-0.125 0.421875,-0.4375 z m 0,0"
           style="stroke:none" />
      </symbol>
      <symbol
         style="overflow:visible"
         id="glyph4-8"
         overflow="visible">
        <path
           id="path83"
           d="m 4.140625,-1.1875 c 0,-0.09375 -0.078125,-0.125 -0.140625,-0.125 -0.078125,0 -0.109375,0.0625 -0.125,0.140625 -0.34375,1.03125 -1.25,1.03125 -1.34375,1.03125 -0.5,0 -0.890625,-0.296875 -1.125,-0.671875 -0.296875,-0.46875 -0.296875,-1.125 -0.296875,-1.484375 h 2.78125 c 0.21875,0 0.25,0 0.25,-0.21875 0,-0.984375 -0.546875,-1.953125 -1.78125,-1.953125 -1.15625,0 -2.078125,1.03125 -2.078125,2.28125 0,1.328125 1.046875,2.296875 2.1875,2.296875 C 3.6875,0.109375 4.140625,-1 4.140625,-1.1875 Z m -0.65625,-1.328125 h -2.375 C 1.171875,-4 2.015625,-4.25 2.359375,-4.25 c 1.015625,0 1.125,1.34375 1.125,1.734375 z m 0,0"
           style="stroke:none" />
      </symbol>
      <symbol
         style="overflow:visible"
         id="glyph5-0"
         overflow="visible">
        <path
           id="path86"
           d=""
           style="stroke:none" />
      </symbol>
      <symbol
         style="overflow:visible"
         id="glyph5-1"
         overflow="visible">
        <path
           id="path89"
           d="M 3.328125,-3.015625 C 3.390625,-3.265625 3.625,-4.1875 4.3125,-4.1875 c 0.046875,0 0.296875,0 0.5,0.125 C 4.53125,-4 4.34375,-3.765625 4.34375,-3.515625 c 0,0.15625 0.109375,0.34375 0.375,0.34375 0.21875,0 0.53125,-0.171875 0.53125,-0.578125 0,-0.515625 -0.578125,-0.65625 -0.921875,-0.65625 -0.578125,0 -0.921875,0.53125 -1.046875,0.75 -0.25,-0.65625 -0.78125,-0.75 -1.078125,-0.75 -1.03125,0 -1.609375,1.28125 -1.609375,1.53125 0,0.109375 0.109375,0.109375 0.125,0.109375 0.078125,0 0.109375,-0.03125 0.125,-0.109375 0.34375,-1.0625 1,-1.3125 1.34375,-1.3125 0.1875,0 0.53125,0.09375 0.53125,0.671875 0,0.3125 -0.171875,0.96875 -0.53125,2.375 -0.15625,0.609375 -0.515625,1.03125 -0.953125,1.03125 -0.0625,0 -0.28125,0 -0.5,-0.125 0.25,-0.0625 0.46875,-0.265625 0.46875,-0.546875 0,-0.265625 -0.21875,-0.34375 -0.359375,-0.34375 -0.3125,0 -0.546875,0.25 -0.546875,0.578125 0,0.453125 0.484375,0.65625 0.921875,0.65625 0.671875,0 1.03125,-0.703125 1.046875,-0.75 0.125,0.359375 0.484375,0.75 1.078125,0.75 1.03125,0 1.59375,-1.28125 1.59375,-1.53125 0,-0.109375 -0.078125,-0.109375 -0.109375,-0.109375 -0.09375,0 -0.109375,0.046875 -0.140625,0.109375 -0.328125,1.078125 -1,1.3125 -1.3125,1.3125 -0.390625,0 -0.546875,-0.3125 -0.546875,-0.65625 0,-0.21875 0.046875,-0.4375 0.15625,-0.875 z m 0,0"
           style="stroke:none" />
      </symbol>
      <symbol
         style="overflow:visible"
         id="glyph5-2"
         overflow="visible">
        <path
           id="path92"
           d="m 4.75,-2.359375 c 0,-1.5625 -0.921875,-2.046875 -1.65625,-2.046875 -1.375,0 -2.6875,1.421875 -2.6875,2.828125 0,0.9375 0.59375,1.6875 1.625,1.6875 0.625,0 1.34375,-0.234375 2.09375,-0.84375 0.125,0.53125 0.453125,0.84375 0.90625,0.84375 0.53125,0 0.84375,-0.546875 0.84375,-0.703125 0,-0.078125 -0.0625,-0.109375 -0.125,-0.109375 -0.0625,0 -0.09375,0.03125 -0.125,0.109375 -0.1875,0.484375 -0.546875,0.484375 -0.5625,0.484375 -0.3125,0 -0.3125,-0.78125 -0.3125,-1.015625 0,-0.203125 0,-0.234375 0.109375,-0.34375 C 5.796875,-2.65625 6,-3.8125 6,-3.8125 6,-3.84375 5.984375,-3.921875 5.875,-3.921875 c -0.09375,0 -0.09375,0.03125 -0.140625,0.21875 -0.1875,0.625 -0.515625,1.375 -0.984375,1.96875 z m -0.65625,1.375 c -0.890625,0.765625 -1.65625,0.875 -2.046875,0.875 -0.59375,0 -0.90625,-0.453125 -0.90625,-1.09375 0,-0.484375 0.265625,-1.5625 0.578125,-2.0625 C 2.1875,-4 2.734375,-4.1875 3.078125,-4.1875 c 0.984375,0 0.984375,1.3125 0.984375,2.078125 0,0.375 0,0.953125 0.03125,1.125 z m 0,0"
           style="stroke:none" />
      </symbol>
      <symbol
         style="overflow:visible"
         id="glyph5-3"
         overflow="visible">
        <path
           id="path95"
           d="m 5.734375,-5.671875 c 0,-0.75 -0.546875,-1.359375 -1.359375,-1.359375 -0.578125,0 -0.859375,0.15625 -1.203125,0.40625 C 2.625,-6.21875 2.078125,-5.25 1.890625,-4.5 L 0.296875,1.828125 C 0.296875,1.875 0.34375,1.9375 0.421875,1.9375 0.5,1.9375 0.53125,1.90625 0.53125,1.890625 L 1.234375,-0.875 c 0.1875,0.609375 0.625,0.96875 1.359375,0.96875 C 3.3125,0.09375 4.0625,-0.25 4.515625,-0.6875 5,-1.140625 5.3125,-1.78125 5.3125,-2.515625 c 0,-0.71875 -0.375,-1.25 -0.734375,-1.484375 0.578125,-0.34375 1.15625,-0.953125 1.15625,-1.671875 z M 3.9375,-4.015625 c -0.125,0.046875 -0.234375,0.0625 -0.484375,0.0625 -0.140625,0 -0.328125,0.015625 -0.4375,-0.03125 0.03125,-0.109375 0.390625,-0.078125 0.5,-0.078125 0.203125,0 0.296875,0 0.421875,0.046875 z M 5.171875,-5.90625 c 0,0.703125 -0.375,1.421875 -0.890625,1.734375 C 4,-4.28125 3.8125,-4.296875 3.515625,-4.296875 c -0.21875,0 -0.78125,-0.015625 -0.78125,0.3125 0,0.28125 0.515625,0.25 0.6875,0.25 0.375,0 0.53125,0 0.828125,-0.125 0.375,0.359375 0.421875,0.671875 0.4375,1.125 0.015625,0.578125 -0.21875,1.328125 -0.5,1.71875 C 3.796875,-0.484375 3.125,-0.125 2.5625,-0.125 c -0.765625,0 -1.140625,-0.578125 -1.140625,-1.28125 0,-0.09375 0,-0.25 0.046875,-0.4375 L 2.109375,-4.359375 C 2.328125,-5.21875 3.046875,-6.8125 4.25,-6.8125 c 0.578125,0 0.921875,0.3125 0.921875,0.90625 z m 0,0"
           style="stroke:none" />
      </symbol>
      <symbol
         style="overflow:visible"
         id="glyph6-0"
         overflow="visible">
        <path
           id="path98"
           d=""
           style="stroke:none" />
      </symbol>
      <symbol
         style="overflow:visible"
         id="glyph6-1"
         overflow="visible">
        <path
           id="path101"
           d="m 2.328125,-4.4375 c 0,-0.1875 0,-0.1875 -0.203125,-0.1875 -0.453125,0.4375 -1.078125,0.4375 -1.359375,0.4375 v 0.25 c 0.15625,0 0.625,0 1,-0.1875 v 3.546875 c 0,0.234375 0,0.328125 -0.6875,0.328125 H 0.8125 V 0 c 0.125,0 0.984375,-0.03125 1.234375,-0.03125 0.21875,0 1.09375,0.03125 1.25,0.03125 V -0.25 H 3.03125 c -0.703125,0 -0.703125,-0.09375 -0.703125,-0.328125 z m 0,0"
           style="stroke:none" />
      </symbol>
      <symbol
         style="overflow:visible"
         id="glyph6-2"
         overflow="visible">
        <path
           id="path104"
           d="M 3.515625,-1.265625 H 3.28125 c -0.015625,0.15625 -0.09375,0.5625 -0.1875,0.625 C 3.046875,-0.59375 2.515625,-0.59375 2.40625,-0.59375 H 1.125 c 0.734375,-0.640625 0.984375,-0.84375 1.390625,-1.171875 0.515625,-0.40625 1,-0.84375 1,-1.5 0,-0.84375 -0.734375,-1.359375 -1.625,-1.359375 -0.859375,0 -1.453125,0.609375 -1.453125,1.25 0,0.34375 0.296875,0.390625 0.375,0.390625 0.15625,0 0.359375,-0.125 0.359375,-0.375 0,-0.125 -0.046875,-0.375 -0.40625,-0.375 C 0.984375,-4.21875 1.453125,-4.375 1.78125,-4.375 c 0.703125,0 1.0625,0.546875 1.0625,1.109375 0,0.609375 -0.4375,1.078125 -0.65625,1.328125 L 0.515625,-0.265625 C 0.4375,-0.203125 0.4375,-0.1875 0.4375,0 h 2.875 z m 0,0"
           style="stroke:none" />
      </symbol>
      <symbol
         style="overflow:visible"
         id="glyph6-3"
         overflow="visible">
        <path
           id="path107"
           d="m 1.90625,-2.328125 c 0.546875,0 0.9375,0.375 0.9375,1.125 0,0.859375 -0.515625,1.125 -0.90625,1.125 -0.28125,0 -0.90625,-0.078125 -1.1875,-0.5 0.328125,0 0.40625,-0.234375 0.40625,-0.390625 0,-0.21875 -0.171875,-0.375 -0.390625,-0.375 -0.1875,0 -0.390625,0.125 -0.390625,0.40625 0,0.65625 0.71875,1.078125 1.5625,1.078125 0.96875,0 1.640625,-0.65625 1.640625,-1.34375 0,-0.546875 -0.4375,-1.09375 -1.203125,-1.25 0.71875,-0.265625 0.984375,-0.78125 0.984375,-1.21875 0,-0.546875 -0.625,-0.953125 -1.40625,-0.953125 -0.765625,0 -1.359375,0.375 -1.359375,0.9375 0,0.234375 0.15625,0.359375 0.359375,0.359375 0.21875,0 0.359375,-0.15625 0.359375,-0.34375 0,-0.203125 -0.140625,-0.359375 -0.359375,-0.375 0.25,-0.296875 0.71875,-0.375 0.984375,-0.375 0.3125,0 0.75,0.15625 0.75,0.75 0,0.296875 -0.09375,0.625 -0.28125,0.828125 -0.21875,0.265625 -0.421875,0.28125 -0.765625,0.3125 -0.171875,0.015625 -0.1875,0.015625 -0.21875,0.015625 -0.015625,0 -0.078125,0.015625 -0.078125,0.09375 0,0.09375 0.0625,0.09375 0.1875,0.09375 z m 0,0"
           style="stroke:none" />
      </symbol>
      <symbol
         style="overflow:visible"
         id="glyph6-4"
         overflow="visible">
        <path
           id="path110"
           d="m 3.6875,-1.140625 v -0.25 H 2.90625 V -4.5 c 0,-0.140625 0,-0.203125 -0.140625,-0.203125 -0.09375,0 -0.125,0 -0.1875,0.109375 l -2.3125,3.203125 v 0.25 h 2.0625 v 0.5625 c 0,0.25 0,0.328125 -0.578125,0.328125 H 1.5625 V 0 C 1.921875,-0.015625 2.359375,-0.03125 2.609375,-0.03125 2.875,-0.03125 3.3125,-0.015625 3.671875,0 v -0.25 h -0.1875 C 2.90625,-0.25 2.90625,-0.328125 2.90625,-0.578125 v -0.5625 z M 2.375,-3.9375 v 2.546875 H 0.53125 Z m 0,0"
           style="stroke:none" />
      </symbol>
      <symbol
         style="overflow:visible"
         id="glyph6-5"
         overflow="visible">
        <path
           id="path113"
           d="m 1.078125,-3.890625 c 0.359375,0.09375 0.5625,0.09375 0.671875,0.09375 0.921875,0 1.46875,-0.625 1.46875,-0.734375 0,-0.078125 -0.046875,-0.09375 -0.078125,-0.09375 -0.015625,0 -0.03125,0 -0.0625,0.015625 -0.171875,0.0625 -0.53125,0.203125 -1.046875,0.203125 -0.203125,0 -0.5625,-0.015625 -1.015625,-0.1875 C 0.9375,-4.625 0.921875,-4.625 0.921875,-4.625 c -0.09375,0 -0.09375,0.078125 -0.09375,0.1875 v 2.046875 c 0,0.125 0,0.203125 0.109375,0.203125 0.0625,0 0.078125,0 0.140625,-0.09375 0.296875,-0.375 0.734375,-0.4375 0.96875,-0.4375 0.421875,0 0.609375,0.328125 0.640625,0.390625 0.125,0.234375 0.171875,0.5 0.171875,0.90625 0,0.203125 0,0.609375 -0.21875,0.921875 -0.171875,0.25 -0.46875,0.421875 -0.8125,0.421875 -0.453125,0 -0.921875,-0.25 -1.09375,-0.71875 0.265625,0.015625 0.40625,-0.15625 0.40625,-0.34375 0,-0.296875 -0.265625,-0.34375 -0.359375,-0.34375 0,0 -0.34375,0 -0.34375,0.375 0,0.625 0.578125,1.25 1.40625,1.25 0.890625,0 1.671875,-0.65625 1.671875,-1.546875 0,-0.78125 -0.59375,-1.5 -1.453125,-1.5 -0.3125,0 -0.671875,0.0625 -0.984375,0.328125 z m 0,0"
           style="stroke:none" />
      </symbol>
    </g>
  </defs>
  <g
     transform="translate(-153.97424,-124.38239)"
     id="surface1">
    <path
       id="path120"
       transform="matrix(1,0,0,-1,148.712,151.203)"
       d="M 34.143469,26.601438 V 14.644406 H 64.233313 V 2.691281 H 144.10441 V -9.26575 h 97.73046"
       style="fill:none;stroke:#ff0000;stroke-width:0.3985;stroke-linecap:butt;stroke-linejoin:miter;stroke-miterlimit:10;stroke-opacity:1" />
    <g
       id="g124"
       style="fill:#000000;fill-opacity:1">
      <use
         height="100%"
         width="100%"
         id="use122"
         y="125.2"
         x="175.33299"
         xlink:href="#glyph0-1" />
    </g>
    <g
       id="g128"
       style="fill:#000000;fill-opacity:1">
      <use
         height="100%"
         width="100%"
         id="use126"
         y="142.735"
         x="175.33299"
         xlink:href="#glyph0-2" />
    </g>
    <g
       id="g132"
       style="fill:#000000;fill-opacity:1">
      <use
         height="100%"
         width="100%"
         id="use130"
         y="148.713"
         x="175.33299"
         xlink:href="#glyph0-2" />
    </g>
    <g
       id="g136"
       style="fill:#000000;fill-opacity:1">
      <use
         height="100%"
         width="100%"
         id="use134"
         y="155.089"
         x="175.33299"
         xlink:href="#glyph0-3" />
    </g>
    <g
       id="g140"
       style="fill:#ff0000;fill-opacity:1">
      <use
         height="100%"
         width="100%"
         id="use138"
         y="132.772"
         x="202.433"
         xlink:href="#glyph1-1" />
    </g>
    <g
       id="g144"
       style="fill:#000000;fill-opacity:1">
      <use
         height="100%"
         width="100%"
         id="use142"
         y="132.772"
         x="233.26801"
         xlink:href="#glyph2-1" />
    </g>
    <g
       id="g148"
       style="fill:#000000;fill-opacity:1">
      <use
         height="100%"
         width="100%"
         id="use146"
         y="132.772"
         x="275.30099"
         xlink:href="#glyph3-1" />
    </g>
    <g
       id="g152"
       style="fill:#000000;fill-opacity:1">
      <use
         height="100%"
         width="100%"
         id="use150"
         y="132.772"
         x="283.04999"
         xlink:href="#glyph2-1" />
    </g>
    <g
       id="g156"
       style="fill:#000000;fill-opacity:1">
      <use
         height="100%"
         width="100%"
         id="use154"
         y="132.772"
         x="313.138"
         xlink:href="#glyph2-2" />
    </g>
    <g
       id="g160"
       style="fill:#000000;fill-opacity:1">
      <use
         height="100%"
         width="100%"
         id="use158"
         y="132.772"
         x="362.67099"
         xlink:href="#glyph2-3" />
    </g>
    <g
       id="g164"
       style="fill:#000000;fill-opacity:1">
      <use
         height="100%"
         width="100%"
         id="use162"
         y="132.772"
         x="380.78201"
         xlink:href="#glyph2-2" />
    </g>
    <g
       id="g168"
       style="fill:#000000;fill-opacity:1">
      <use
         height="100%"
         width="100%"
         id="use166"
         y="144.72701"
         x="203.179"
         xlink:href="#glyph2-3" />
    </g>
    <g
       id="g172"
       style="fill:#ff0000;fill-opacity:1">
      <use
         height="100%"
         width="100%"
         id="use170"
         y="144.72701"
         x="232.521"
         xlink:href="#glyph1-1" />
    </g>
    <g
       id="g176"
       style="fill:#000000;fill-opacity:1">
      <use
         height="100%"
         width="100%"
         id="use174"
         y="144.72701"
         x="283.04999"
         xlink:href="#glyph2-1" />
    </g>
    <g
       id="g180"
       style="fill:#000000;fill-opacity:1">
      <use
         height="100%"
         width="100%"
         id="use178"
         y="144.72701"
         x="313.138"
         xlink:href="#glyph2-1" />
    </g>
    <g
       id="g184"
       style="fill:#000000;fill-opacity:1">
      <use
         height="100%"
         width="100%"
         id="use182"
         y="144.72701"
         x="362.67099"
         xlink:href="#glyph2-1" />
    </g>
    <g
       id="g188"
       style="fill:#000000;fill-opacity:1">
      <use
         height="100%"
         width="100%"
         id="use186"
         y="144.72701"
         x="380.78201"
         xlink:href="#glyph2-4" />
    </g>
    <g
       id="g192"
       style="fill:#000000;fill-opacity:1">
      <use
         height="100%"
         width="100%"
         id="use190"
         y="156.683"
         x="203.179"
         xlink:href="#glyph2-3" />
    </g>
    <g
       id="g196"
       style="fill:#000000;fill-opacity:1">
      <use
         height="100%"
         width="100%"
         id="use194"
         y="156.683"
         x="233.26801"
         xlink:href="#glyph2-3" />
    </g>
    <g
       id="g200"
       style="fill:#000000;fill-opacity:1">
      <use
         height="100%"
         width="100%"
         id="use198"
         y="156.683"
         x="283.04999"
         xlink:href="#glyph2-3" />
    </g>
    <g
       id="g204"
       style="fill:#ff0000;fill-opacity:1">
      <use
         height="100%"
         width="100%"
         id="use202"
         y="156.683"
         x="312.392"
         xlink:href="#glyph1-2" />
    </g>
    <g
       id="g208"
       style="fill:#000000;fill-opacity:1">
      <use
         height="100%"
         width="100%"
         id="use206"
         y="156.683"
         x="362.67099"
         xlink:href="#glyph2-1" />
    </g>
    <g
       id="g212"
       style="fill:#000000;fill-opacity:1">
      <use
         height="100%"
         width="100%"
         id="use210"
         y="156.683"
         x="380.78201"
         xlink:href="#glyph2-5" />
    </g>
    <g
       id="g216"
       style="fill:#000000;fill-opacity:1">
      <use
         height="100%"
         width="100%"
         id="use214"
         y="168.638"
         x="203.179"
         xlink:href="#glyph2-3" />
    </g>
    <g
       id="g220"
       style="fill:#000000;fill-opacity:1">
      <use
         height="100%"
         width="100%"
         id="use218"
         y="168.638"
         x="233.26801"
         xlink:href="#glyph2-3" />
    </g>
    <g
       id="g224"
       style="fill:#000000;fill-opacity:1">
      <use
         height="100%"
         width="100%"
         id="use222"
         y="168.638"
         x="283.04999"
         xlink:href="#glyph2-3" />
    </g>
    <g
       id="g228"
       style="fill:#000000;fill-opacity:1">
      <use
         height="100%"
         width="100%"
         id="use226"
         y="168.638"
         x="313.138"
         xlink:href="#glyph2-3" />
    </g>
    <g
       id="g232"
       style="fill:#000000;fill-opacity:1">
      <use
         height="100%"
         width="100%"
         id="use230"
         y="168.638"
         x="362.67099"
         xlink:href="#glyph2-3" />
    </g>
    <g
       id="g236"
       style="fill:#000000;fill-opacity:1">
      <use
         height="100%"
         width="100%"
         id="use234"
         y="168.638"
         x="380.78201"
         xlink:href="#glyph2-3" />
    </g>
    <g
       id="g248"
       style="fill:#0000ff;fill-opacity:1">
      <use
         height="100%"
         width="100%"
         id="use238"
         y="192.548"
         x="153.69299"
         xlink:href="#glyph4-1" />
      <use
         height="100%"
         width="100%"
         id="use240"
         y="192.548"
         x="159.23221"
         xlink:href="#glyph4-2" />
      <use
         height="100%"
         width="100%"
         id="use242"
         y="192.548"
         x="164.2135"
         xlink:href="#glyph4-3" />
      <use
         height="100%"
         width="100%"
         id="use244"
         y="192.548"
         x="168.13876"
         xlink:href="#glyph4-4" />
      <use
         height="100%"
         width="100%"
         id="use246"
         y="192.548"
         x="170.90837"
         xlink:href="#glyph4-5" />
    </g>
    <g
       id="g258"
       style="fill:#0000ff;fill-opacity:1">
      <use
         height="100%"
         width="100%"
         id="use250"
         y="204.50301"
         x="156.612"
         xlink:href="#glyph4-6" />
      <use
         height="100%"
         width="100%"
         id="use252"
         y="204.50301"
         x="159.66055"
         xlink:href="#glyph4-7" />
      <use
         height="100%"
         width="100%"
         id="use254"
         y="204.50301"
         x="163.56589"
         xlink:href="#glyph4-8" />
      <use
         height="100%"
         width="100%"
         id="use256"
         y="204.50301"
         x="167.98929"
         xlink:href="#glyph4-8" />
    </g>
    <g
       id="g262"
       style="fill:#0000ff;fill-opacity:1">
      <use
         height="100%"
         width="100%"
         id="use260"
         y="192.548"
         x="193.01601"
         xlink:href="#glyph5-1" />
    </g>
    <g
       id="g266"
       style="fill:#0000ff;fill-opacity:1">
      <use
         height="100%"
         width="100%"
         id="use264"
         y="194.043"
         x="198.71001"
         xlink:href="#glyph6-1" />
    </g>
    <g
       id="g270"
       style="fill:#0000ff;fill-opacity:1">
      <use
         height="100%"
         width="100%"
         id="use268"
         y="192.548"
         x="223.105"
         xlink:href="#glyph5-1" />
    </g>
    <g
       id="g274"
       style="fill:#0000ff;fill-opacity:1">
      <use
         height="100%"
         width="100%"
         id="use272"
         y="194.043"
         x="228.799"
         xlink:href="#glyph6-2" />
    </g>
    <g
       id="g278"
       style="fill:#0000ff;fill-opacity:1">
      <use
         height="100%"
         width="100%"
         id="use276"
         y="198.526"
         x="253.19299"
         xlink:href="#glyph5-1" />
    </g>
    <g
       id="g282"
       style="fill:#0000ff;fill-opacity:1">
      <use
         height="100%"
         width="100%"
         id="use280"
         y="200.02"
         x="258.88699"
         xlink:href="#glyph6-3" />
    </g>
    <g
       id="g286"
       style="fill:#0000ff;fill-opacity:1">
      <use
         height="100%"
         width="100%"
         id="use284"
         y="198.526"
         x="266.12399"
         xlink:href="#glyph2-6" />
    </g>
    <g
       id="g290"
       style="fill:#0000ff;fill-opacity:1">
      <use
         height="100%"
         width="100%"
         id="use288"
         y="198.526"
         x="276.64001"
         xlink:href="#glyph5-2" />
    </g>
    <g
       id="g294"
       style="fill:#0000ff;fill-opacity:1">
      <use
         height="100%"
         width="100%"
         id="use292"
         y="192.548"
         x="302.97501"
         xlink:href="#glyph5-1" />
    </g>
    <g
       id="g298"
       style="fill:#0000ff;fill-opacity:1">
      <use
         height="100%"
         width="100%"
         id="use296"
         y="194.043"
         x="308.66901"
         xlink:href="#glyph6-4" />
    </g>
    <g
       id="g302"
       style="fill:#0000ff;fill-opacity:1">
      <use
         height="100%"
         width="100%"
         id="use300"
         y="198.526"
         x="333.064"
         xlink:href="#glyph5-1" />
    </g>
    <g
       id="g306"
       style="fill:#0000ff;fill-opacity:1">
      <use
         height="100%"
         width="100%"
         id="use304"
         y="200.02"
         x="338.758"
         xlink:href="#glyph6-5" />
    </g>
    <g
       id="g310"
       style="fill:#0000ff;fill-opacity:1">
      <use
         height="100%"
         width="100%"
         id="use308"
         y="198.526"
         x="345.995"
         xlink:href="#glyph2-6" />
    </g>
    <g
       id="g314"
       style="fill:#0000ff;fill-opacity:1">
      <use
         height="100%"
         width="100%"
         id="use312"
         y="198.526"
         x="356.51099"
         xlink:href="#glyph5-3" />
    </g>
    <g
       id="g318"
       style="fill:#000000;fill-opacity:1">
      <use
         height="100%"
         width="100%"
         id="use316"
         y="125.2"
         x="385.763"
         xlink:href="#glyph0-4" />
    </g>
    <g
       id="g322"
       style="fill:#000000;fill-opacity:1">
      <use
         height="100%"
         width="100%"
         id="use320"
         y="142.735"
         x="385.763"
         xlink:href="#glyph0-5" />
    </g>
    <g
       id="g326"
       style="fill:#000000;fill-opacity:1">
      <use
         height="100%"
         width="100%"
         id="use324"
         y="148.713"
         x="385.763"
         xlink:href="#glyph0-5" />
    </g>
    <g
       id="g330"
       style="fill:#000000;fill-opacity:1">
      <use
         height="100%"
         width="100%"
         id="use328"
         y="155.089"
         x="385.763"
         xlink:href="#glyph0-6" />
    </g>
    <path
       id="path332"
       transform="matrix(1,0,0,-1,394.48,151.203)"
       d="M -21.647969,26.601438 V 14.644406"
       style="fill:none;stroke:#000000;stroke-width:0.43834001;stroke-linecap:square;stroke-linejoin:miter;stroke-miterlimit:10;stroke-opacity:1" />
    <path
       id="path334"
       transform="matrix(1,0,0,-1,394.48,151.203)"
       d="M -21.647969,14.644406 V 2.691281"
       style="fill:none;stroke:#000000;stroke-width:0.43834001;stroke-linecap:square;stroke-linejoin:miter;stroke-miterlimit:10;stroke-opacity:1" />
    <path
       id="path336"
       transform="matrix(1,0,0,-1,394.48,151.203)"
       d="M -21.647969,2.691281 V -9.26575"
       style="fill:none;stroke:#000000;stroke-width:0.43834001;stroke-linecap:square;stroke-linejoin:miter;stroke-miterlimit:10;stroke-opacity:1" />
    <path
       id="path338"
       transform="matrix(1,0,0,-1,394.48,151.203)"
       d="M -21.647969,-9.26575 V -21.218875"
       style="fill:none;stroke:#000000;stroke-width:0.43834001;stroke-linecap:square;stroke-linejoin:miter;stroke-miterlimit:10;stroke-opacity:1" />
  </g>
</svg>
