<?xml version="1.0" encoding="UTF-8" standalone="no"?>
<svg
   xmlns:dc="http://purl.org/dc/elements/1.1/"
   xmlns:cc="http://creativecommons.org/ns#"
   xmlns:rdf="http://www.w3.org/1999/02/22-rdf-syntax-ns#"
   xmlns:svg="http://www.w3.org/2000/svg"
   xmlns="http://www.w3.org/2000/svg"
   xmlns:xlink="http://www.w3.org/1999/xlink"
   id="svg260"
   version="1.1"
   viewBox="0 0 121.64386 53.83725"
   height="53.83725pt"
   width="121.64386pt">
  <metadata
     id="metadata264">
    <rdf:RDF>
      <cc:Work
         rdf:about="">
        <dc:format>image/svg+xml</dc:format>
        <dc:type
           rdf:resource="http://purl.org/dc/dcmitype/StillImage" />
      </cc:Work>
    </rdf:RDF>
  </metadata>
  <defs
     id="defs67">
    <g
       id="g65">
      <symbol
         style="overflow:visible"
         id="glyph0-0"
         overflow="visible">
        <path
           id="path2"
           d=""
           style="stroke:none" />
      </symbol>
      <symbol
         style="overflow:visible"
         id="glyph0-1"
         overflow="visible">
        <path
           id="path5"
           d="M 5.03125,4.515625 C 5.03125,3.703125 5.25,1.796875 7.015625,0.53125 7.140625,0.4375 7.15625,0.421875 7.15625,0.25 7.15625,0.015625 7.140625,0.015625 6.890625,0.015625 h -0.15625 c -2.140625,1.15625 -2.90625,3.03125 -2.90625,4.5 v 4.28125 c 0,0.265625 0.015625,0.28125 0.28125,0.28125 H 4.75 c 0.265625,0 0.28125,-0.015625 0.28125,-0.28125 z m 0,0"
           style="stroke:none" />
      </symbol>
      <symbol
         style="overflow:visible"
         id="glyph0-2"
         overflow="visible">
        <path
           id="path8"
           d="M 5.03125,0.171875 C 5.03125,-0.09375 5.015625,-0.09375 4.75,-0.09375 H 4.109375 c -0.265625,0 -0.28125,0 -0.28125,0.265625 v 2.65625 c 0,0.25 0.015625,0.265625 0.28125,0.265625 H 4.75 c 0.265625,0 0.28125,-0.015625 0.28125,-0.265625 z m 0,0"
           style="stroke:none" />
      </symbol>
      <symbol
         style="overflow:visible"
         id="glyph0-3"
         overflow="visible">
        <path
           id="path11"
           d="m 3.828125,17.78125 c 0,0.25 0.015625,0.265625 0.28125,0.265625 H 4.75 c 0.265625,0 0.28125,-0.01563 0.28125,-0.265625 V 13.5625 c 0,-1.203125 -0.515625,-3.234375 -2.75,-4.59375 2.25,-1.359375 2.75,-3.421875 2.75,-4.59375 V 0.171875 C 5.03125,-0.09375 5.015625,-0.09375 4.75,-0.09375 H 4.109375 c -0.265625,0 -0.28125,0 -0.28125,0.265625 v 4.21875 c 0,0.828125 -0.171875,2.90625 -2.015625,4.296875 -0.109375,0.09375 -0.125,0.109375 -0.125,0.28125 0,0.1875 0.015625,0.1875 0.125,0.28125 0.265625,0.203125 0.953125,0.734375 1.421875,1.734375 0.390625,0.796875 0.59375,1.6875 0.59375,2.578125 z m 0,0"
           style="stroke:none" />
      </symbol>
      <symbol
         style="overflow:visible"
         id="glyph0-4"
         overflow="visible">
        <path
           id="path14"
           d="m 6.890625,8.96875 c 0.25,0 0.265625,-0.015625 0.265625,-0.25 C 7.15625,8.546875 7.140625,8.53125 7.109375,8.5 6.796875,8.28125 6.078125,7.765625 5.609375,6.84375 5.21875,6.09375 5.03125,5.328125 5.03125,4.453125 V 0.171875 C 5.03125,-0.09375 5.015625,-0.09375 4.75,-0.09375 H 4.109375 c -0.265625,0 -0.28125,0 -0.28125,0.265625 v 4.28125 c 0,1.484375 0.765625,3.359375 2.90625,4.515625 z m 0,0"
           style="stroke:none" />
      </symbol>
      <symbol
         style="overflow:visible"
         id="glyph1-0"
         overflow="visible">
        <path
           id="path17"
           d=""
           style="stroke:none" />
      </symbol>
      <symbol
         style="overflow:visible"
         id="glyph1-1"
         overflow="visible">
        <path
           id="path20"
           d="m 4.84375,-3.796875 c 0.046875,-0.140625 0.046875,-0.15625 0.046875,-0.234375 0,-0.171875 -0.140625,-0.265625 -0.296875,-0.265625 -0.09375,0 -0.25,0.0625 -0.34375,0.203125 -0.015625,0.0625 -0.109375,0.359375 -0.140625,0.546875 -0.078125,0.25 -0.140625,0.53125 -0.203125,0.796875 l -0.453125,1.796875 c -0.03125,0.140625 -0.46875,0.84375 -1.125,0.84375 -0.5,0 -0.609375,-0.4375 -0.609375,-0.8125 C 1.71875,-1.375 1.890625,-2 2.21875,-2.875 2.375,-3.28125 2.421875,-3.390625 2.421875,-3.59375 c 0,-0.4375 -0.3125,-0.8125 -0.8125,-0.8125 -0.953125,0 -1.3125,1.453125 -1.3125,1.53125 0,0.109375 0.09375,0.109375 0.109375,0.109375 0.109375,0 0.109375,-0.03125 0.15625,-0.1875 0.28125,-0.9375 0.671875,-1.234375 1.015625,-1.234375 0.078125,0 0.25,0 0.25,0.3125 0,0.25 -0.109375,0.515625 -0.171875,0.703125 -0.40625,1.0625 -0.578125,1.625 -0.578125,2.09375 0,0.890625 0.625,1.1875 1.21875,1.1875 0.390625,0 0.71875,-0.171875 1,-0.453125 -0.125,0.515625 -0.25,1.015625 -0.640625,1.546875 -0.265625,0.328125 -0.640625,0.625 -1.09375,0.625 -0.140625,0 -0.59375,-0.03125 -0.765625,-0.421875 0.15625,0 0.296875,0 0.421875,-0.125 C 1.328125,1.203125 1.421875,1.0625 1.421875,0.875 1.421875,0.5625 1.15625,0.53125 1.0625,0.53125 0.828125,0.53125 0.5,0.6875 0.5,1.171875 c 0,0.5 0.4375,0.875 1.0625,0.875 1.015625,0 2.046875,-0.90625 2.328125,-2.03125 z m 0,0"
           style="stroke:none" />
      </symbol>
      <symbol
         style="overflow:visible"
         id="glyph2-0"
         overflow="visible">
        <path
           id="path23"
           d=""
           style="stroke:none" />
      </symbol>
      <symbol
         style="overflow:visible"
         id="glyph2-1"
         overflow="visible">
        <path
           id="path26"
           d="m 2.328125,-4.4375 c 0,-0.1875 0,-0.1875 -0.203125,-0.1875 -0.453125,0.4375 -1.078125,0.4375 -1.359375,0.4375 v 0.25 c 0.15625,0 0.625,0 1,-0.1875 v 3.546875 c 0,0.234375 0,0.328125 -0.6875,0.328125 H 0.8125 V 0 c 0.125,0 0.984375,-0.03125 1.234375,-0.03125 0.21875,0 1.09375,0.03125 1.25,0.03125 V -0.25 H 3.03125 c -0.703125,0 -0.703125,-0.09375 -0.703125,-0.328125 z m 0,0"
           style="stroke:none" />
      </symbol>
      <symbol
         style="overflow:visible"
         id="glyph2-2"
         overflow="visible">
        <path
           id="path29"
           d="M 3.515625,-1.265625 H 3.28125 c -0.015625,0.15625 -0.09375,0.5625 -0.1875,0.625 C 3.046875,-0.59375 2.515625,-0.59375 2.40625,-0.59375 H 1.125 c 0.734375,-0.640625 0.984375,-0.84375 1.390625,-1.171875 0.515625,-0.40625 1,-0.84375 1,-1.5 0,-0.84375 -0.734375,-1.359375 -1.625,-1.359375 -0.859375,0 -1.453125,0.609375 -1.453125,1.25 0,0.34375 0.296875,0.390625 0.375,0.390625 0.15625,0 0.359375,-0.125 0.359375,-0.375 0,-0.125 -0.046875,-0.375 -0.40625,-0.375 C 0.984375,-4.21875 1.453125,-4.375 1.78125,-4.375 c 0.703125,0 1.0625,0.546875 1.0625,1.109375 0,0.609375 -0.4375,1.078125 -0.65625,1.328125 L 0.515625,-0.265625 C 0.4375,-0.203125 0.4375,-0.1875 0.4375,0 h 2.875 z m 0,0"
           style="stroke:none" />
      </symbol>
      <symbol
         style="overflow:visible"
         id="glyph2-3"
         overflow="visible">
        <path
           id="path32"
           d="m 1.90625,-2.328125 c 0.546875,0 0.9375,0.375 0.9375,1.125 0,0.859375 -0.515625,1.125 -0.90625,1.125 -0.28125,0 -0.90625,-0.078125 -1.1875,-0.5 0.328125,0 0.40625,-0.234375 0.40625,-0.390625 0,-0.21875 -0.171875,-0.375 -0.390625,-0.375 -0.1875,0 -0.390625,0.125 -0.390625,0.40625 0,0.65625 0.71875,1.078125 1.5625,1.078125 0.96875,0 1.640625,-0.65625 1.640625,-1.34375 0,-0.546875 -0.4375,-1.09375 -1.203125,-1.25 0.71875,-0.265625 0.984375,-0.78125 0.984375,-1.21875 0,-0.546875 -0.625,-0.953125 -1.40625,-0.953125 -0.765625,0 -1.359375,0.375 -1.359375,0.9375 0,0.234375 0.15625,0.359375 0.359375,0.359375 0.21875,0 0.359375,-0.15625 0.359375,-0.34375 0,-0.203125 -0.140625,-0.359375 -0.359375,-0.375 0.25,-0.296875 0.71875,-0.375 0.984375,-0.375 0.3125,0 0.75,0.15625 0.75,0.75 0,0.296875 -0.09375,0.625 -0.28125,0.828125 -0.21875,0.265625 -0.421875,0.28125 -0.765625,0.3125 -0.171875,0.015625 -0.1875,0.015625 -0.21875,0.015625 -0.015625,0 -0.078125,0.015625 -0.078125,0.09375 0,0.09375 0.0625,0.09375 0.1875,0.09375 z m 0,0"
           style="stroke:none" />
      </symbol>
      <symbol
         style="overflow:visible"
         id="glyph2-4"
         overflow="visible">
        <path
           id="path35"
           d="m 3.6875,-1.140625 v -0.25 H 2.90625 V -4.5 c 0,-0.140625 0,-0.203125 -0.140625,-0.203125 -0.09375,0 -0.125,0 -0.1875,0.109375 l -2.3125,3.203125 v 0.25 h 2.0625 v 0.5625 c 0,0.25 0,0.328125 -0.578125,0.328125 H 1.5625 V 0 C 1.921875,-0.015625 2.359375,-0.03125 2.609375,-0.03125 2.875,-0.03125 3.3125,-0.015625 3.671875,0 v -0.25 h -0.1875 C 2.90625,-0.25 2.90625,-0.328125 2.90625,-0.578125 v -0.5625 z M 2.375,-3.9375 v 2.546875 H 0.53125 Z m 0,0"
           style="stroke:none" />
      </symbol>
      <symbol
         style="overflow:visible"
         id="glyph3-0"
         overflow="visible">
        <path
           id="path38"
           d=""
           style="stroke:none" />
      </symbol>
      <symbol
         style="overflow:visible"
         id="glyph3-1"
         overflow="visible">
        <path
           id="path41"
           d="m 6.84375,-3.265625 c 0.15625,0 0.34375,0 0.34375,-0.1875 C 7.1875,-3.65625 7,-3.65625 6.859375,-3.65625 h -5.96875 c -0.140625,0 -0.328125,0 -0.328125,0.203125 0,0.1875 0.1875,0.1875 0.328125,0.1875 z m 0.015625,1.9375 c 0.140625,0 0.328125,0 0.328125,-0.203125 0,-0.1875 -0.1875,-0.1875 -0.34375,-0.1875 H 0.890625 c -0.140625,0 -0.328125,0 -0.328125,0.1875 0,0.203125 0.1875,0.203125 0.328125,0.203125 z m 0,0"
           style="stroke:none" />
      </symbol>
      <symbol
         style="overflow:visible"
         id="glyph3-2"
         overflow="visible">
        <path
           id="path44"
           d="m 1.265625,-0.765625 1.0625,-1.03125 c 1.546875,-1.375 2.140625,-1.90625 2.140625,-2.90625 0,-1.140625 -0.890625,-1.9375 -2.109375,-1.9375 -1.125,0 -1.859375,0.921875 -1.859375,1.8125 0,0.546875 0.5,0.546875 0.53125,0.546875 0.171875,0 0.515625,-0.109375 0.515625,-0.53125 0,-0.25 -0.1875,-0.515625 -0.53125,-0.515625 -0.078125,0 -0.09375,0 -0.125,0.015625 0.21875,-0.65625 0.765625,-1.015625 1.34375,-1.015625 0.90625,0 1.328125,0.8125 1.328125,1.625 C 3.5625,-3.90625 3.078125,-3.125 2.515625,-2.5 l -1.90625,2.125 C 0.5,-0.265625 0.5,-0.234375 0.5,0 H 4.203125 L 4.46875,-1.734375 H 4.234375 C 4.171875,-1.4375 4.109375,-1 4,-0.84375 3.9375,-0.765625 3.28125,-0.765625 3.0625,-0.765625 Z m 0,0"
           style="stroke:none" />
      </symbol>
      <symbol
         style="overflow:visible"
         id="glyph3-3"
         overflow="visible">
        <path
           id="path47"
           d="m 4.078125,-2.296875 h 2.78125 C 7,-2.296875 7.1875,-2.296875 7.1875,-2.5 7.1875,-2.6875 7,-2.6875 6.859375,-2.6875 h -2.78125 v -2.796875 c 0,-0.140625 0,-0.328125 -0.203125,-0.328125 -0.203125,0 -0.203125,0.1875 -0.203125,0.328125 V -2.6875 h -2.78125 c -0.140625,0 -0.328125,0 -0.328125,0.1875 0,0.203125 0.1875,0.203125 0.328125,0.203125 h 2.78125 V 0.5 c 0,0.140625 0,0.328125 0.203125,0.328125 0.203125,0 0.203125,-0.1875 0.203125,-0.328125 z m 0,0"
           style="stroke:none" />
      </symbol>
      <symbol
         style="overflow:visible"
         id="glyph3-4"
         overflow="visible">
        <path
           id="path50"
           d="m 1.3125,-3.265625 v -0.25 c 0,-2.515625 1.234375,-2.875 1.75,-2.875 0.234375,0 0.65625,0.0625 0.875,0.40625 -0.15625,0 -0.546875,0 -0.546875,0.4375 0,0.3125 0.234375,0.46875 0.453125,0.46875 0.15625,0 0.46875,-0.09375 0.46875,-0.484375 0,-0.59375 -0.4375,-1.078125 -1.265625,-1.078125 -1.28125,0 -2.625,1.28125 -2.625,3.484375 0,2.671875 1.15625,3.375 2.078125,3.375 1.109375,0 2.0625,-0.9375 2.0625,-2.25 0,-1.265625 -0.890625,-2.21875 -2,-2.21875 -0.671875,0 -1.046875,0.5 -1.25,0.984375 z M 2.5,-0.0625 c -0.625,0 -0.921875,-0.59375 -0.984375,-0.75 -0.1875,-0.46875 -0.1875,-1.265625 -0.1875,-1.4375 0,-0.78125 0.328125,-1.78125 1.21875,-1.78125 0.171875,0 0.625,0 0.9375,0.625 0.171875,0.359375 0.171875,0.875 0.171875,1.359375 0,0.484375 0,0.984375 -0.171875,1.34375 C 3.1875,-0.109375 2.734375,-0.0625 2.5,-0.0625 Z m 0,0"
           style="stroke:none" />
      </symbol>
      <symbol
         style="overflow:visible"
         id="glyph3-5"
         overflow="visible">
        <path
           id="path53"
           d="m 1.625,-4.5625 c -0.453125,-0.296875 -0.5,-0.625 -0.5,-0.796875 0,-0.609375 0.65625,-1.03125 1.359375,-1.03125 0.71875,0 1.359375,0.515625 1.359375,1.234375 0,0.578125 -0.390625,1.046875 -0.984375,1.390625 z m 1.453125,0.953125 C 3.796875,-3.984375 4.28125,-4.5 4.28125,-5.15625 c 0,-0.921875 -0.875,-1.484375 -1.78125,-1.484375 -1,0 -1.8125,0.734375 -1.8125,1.671875 0,0.171875 0.015625,0.625 0.4375,1.09375 0.109375,0.109375 0.484375,0.359375 0.734375,0.53125 C 1.28125,-3.046875 0.421875,-2.5 0.421875,-1.5 c 0,1.046875 1.015625,1.71875 2.0625,1.71875 1.125,0 2.078125,-0.828125 2.078125,-1.890625 0,-0.359375 -0.109375,-0.8125 -0.5,-1.234375 C 3.875,-3.109375 3.71875,-3.203125 3.078125,-3.609375 Z m -1,0.421875 1.234375,0.78125 c 0.28125,0.1875 0.75,0.484375 0.75,1.09375 0,0.734375 -0.75,1.25 -1.5625,1.25 -0.859375,0 -1.578125,-0.609375 -1.578125,-1.4375 0,-0.578125 0.3125,-1.21875 1.15625,-1.6875 z m 0,0"
           style="stroke:none" />
      </symbol>
      <symbol
         style="overflow:visible"
         id="glyph3-6"
         overflow="visible">
        <path
           id="path56"
           d="m 2.9375,-6.375 c 0,-0.25 0,-0.265625 -0.234375,-0.265625 C 2.078125,-6 1.203125,-6 0.890625,-6 v 0.3125 c 0.203125,0 0.78125,0 1.296875,-0.265625 v 5.171875 c 0,0.359375 -0.03125,0.46875 -0.921875,0.46875 h -0.3125 V 0 c 0.34375,-0.03125 1.203125,-0.03125 1.609375,-0.03125 0.390625,0 1.265625,0 1.609375,0.03125 v -0.3125 h -0.3125 c -0.90625,0 -0.921875,-0.109375 -0.921875,-0.46875 z m 0,0"
           style="stroke:none" />
      </symbol>
      <symbol
         style="overflow:visible"
         id="glyph4-0"
         overflow="visible">
        <path
           id="path59"
           d=""
           style="stroke:none" />
      </symbol>
      <symbol
         style="overflow:visible"
         id="glyph4-1"
         overflow="visible">
        <path
           id="path62"
           d="m 6.5625,-2.296875 c 0.171875,0 0.359375,0 0.359375,-0.203125 0,-0.1875 -0.1875,-0.1875 -0.359375,-0.1875 H 1.171875 c -0.171875,0 -0.34375,0 -0.34375,0.1875 0,0.203125 0.171875,0.203125 0.34375,0.203125 z m 0,0"
           style="stroke:none" />
      </symbol>
    </g>
  </defs>
  <g
     transform="translate(-244.8345,-147.73163)"
     id="surface1">
    <g
       id="g71"
       style="fill:#000000;fill-opacity:1">
      <use
         height="100%"
         width="100%"
         id="use69"
         y="147.716"
         x="243.147"
         xlink:href="#glyph0-1" />
    </g>
    <g
       id="g75"
       style="fill:#000000;fill-opacity:1">
      <use
         height="100%"
         width="100%"
         id="use73"
         y="156.68201"
         x="243.147"
         xlink:href="#glyph0-2" />
    </g>
    <g
       id="g79"
       style="fill:#000000;fill-opacity:1">
      <use
         height="100%"
         width="100%"
         id="use77"
         y="159.67101"
         x="243.147"
         xlink:href="#glyph0-2" />
    </g>
    <g
       id="g83"
       style="fill:#000000;fill-opacity:1">
      <use
         height="100%"
         width="100%"
         id="use81"
         y="162.66"
         x="243.147"
         xlink:href="#glyph0-2" />
    </g>
    <g
       id="g87"
       style="fill:#000000;fill-opacity:1">
      <use
         height="100%"
         width="100%"
         id="use85"
         y="165.649"
         x="243.147"
         xlink:href="#glyph0-3" />
    </g>
    <g
       id="g91"
       style="fill:#000000;fill-opacity:1">
      <use
         height="100%"
         width="100%"
         id="use89"
         y="183.582"
         x="243.147"
         xlink:href="#glyph0-2" />
    </g>
    <g
       id="g95"
       style="fill:#000000;fill-opacity:1">
      <use
         height="100%"
         width="100%"
         id="use93"
         y="186.57001"
         x="243.147"
         xlink:href="#glyph0-2" />
    </g>
    <g
       id="g99"
       style="fill:#000000;fill-opacity:1">
      <use
         height="100%"
         width="100%"
         id="use97"
         y="189.55901"
         x="243.147"
         xlink:href="#glyph0-2" />
    </g>
    <g
       id="g103"
       style="fill:#000000;fill-opacity:1">
      <use
         height="100%"
         width="100%"
         id="use101"
         y="192.548"
         x="243.147"
         xlink:href="#glyph0-4" />
    </g>
    <g
       id="g107"
       style="fill:#000000;fill-opacity:1">
      <use
         height="100%"
         width="100%"
         id="use105"
         y="154.69"
         x="252.00301"
         xlink:href="#glyph1-1" />
    </g>
    <g
       id="g111"
       style="fill:#000000;fill-opacity:1">
      <use
         height="100%"
         width="100%"
         id="use109"
         y="156.18401"
         x="256.88699"
         xlink:href="#glyph2-1" />
    </g>
    <g
       id="g115"
       style="fill:#000000;fill-opacity:1">
      <use
         height="100%"
         width="100%"
         id="use113"
         y="154.69"
         x="346.42599"
         xlink:href="#glyph3-1" />
    </g>
    <g
       id="g119"
       style="fill:#000000;fill-opacity:1">
      <use
         height="100%"
         width="100%"
         id="use117"
         y="154.69"
         x="361.91586"
         xlink:href="#glyph3-2" />
    </g>
    <g
       id="g123"
       style="fill:#000000;fill-opacity:1">
      <use
         height="100%"
         width="100%"
         id="use121"
         y="169.634"
         x="252.00301"
         xlink:href="#glyph1-1" />
    </g>
    <g
       id="g127"
       style="fill:#000000;fill-opacity:1">
      <use
         height="100%"
         width="100%"
         id="use125"
         y="171.12801"
         x="256.88699"
         xlink:href="#glyph2-1" />
    </g>
    <g
       id="g131"
       style="fill:#000000;fill-opacity:1">
      <use
         height="100%"
         width="100%"
         id="use129"
         y="169.634"
         x="276.30099"
         xlink:href="#glyph3-3" />
    </g>
    <g
       id="g135"
       style="fill:#000000;fill-opacity:1">
      <use
         height="100%"
         width="100%"
         id="use133"
         y="169.634"
         x="286.263"
         xlink:href="#glyph1-1" />
    </g>
    <g
       id="g139"
       style="fill:#000000;fill-opacity:1">
      <use
         height="100%"
         width="100%"
         id="use137"
         y="171.12801"
         x="291.14801"
         xlink:href="#glyph2-2" />
    </g>
    <g
       id="g143"
       style="fill:#000000;fill-opacity:1">
      <use
         height="100%"
         width="100%"
         id="use141"
         y="169.634"
         x="346.42599"
         xlink:href="#glyph3-1" />
    </g>
    <g
       id="g147"
       style="fill:#000000;fill-opacity:1">
      <use
         height="100%"
         width="100%"
         id="use145"
         y="169.634"
         x="361.91586"
         xlink:href="#glyph3-4" />
    </g>
    <g
       id="g151"
       style="fill:#000000;fill-opacity:1">
      <use
         height="100%"
         width="100%"
         id="use149"
         y="184.578"
         x="252.00301"
         xlink:href="#glyph4-1" />
    </g>
    <g
       id="g155"
       style="fill:#000000;fill-opacity:1">
      <use
         height="100%"
         width="100%"
         id="use153"
         y="184.578"
         x="259.75201"
         xlink:href="#glyph1-1" />
    </g>
    <g
       id="g159"
       style="fill:#000000;fill-opacity:1">
      <use
         height="100%"
         width="100%"
         id="use157"
         y="186.07201"
         x="264.63599"
         xlink:href="#glyph2-1" />
    </g>
    <g
       id="g163"
       style="fill:#000000;fill-opacity:1">
      <use
         height="100%"
         width="100%"
         id="use161"
         y="184.578"
         x="276.30099"
         xlink:href="#glyph3-3" />
    </g>
    <g
       id="g167"
       style="fill:#000000;fill-opacity:1">
      <use
         height="100%"
         width="100%"
         id="use165"
         y="184.578"
         x="286.263"
         xlink:href="#glyph1-1" />
    </g>
    <g
       id="g171"
       style="fill:#000000;fill-opacity:1">
      <use
         height="100%"
         width="100%"
         id="use169"
         y="186.07201"
         x="291.14801"
         xlink:href="#glyph2-2" />
    </g>
    <g
       id="g175"
       style="fill:#000000;fill-opacity:1">
      <use
         height="100%"
         width="100%"
         id="use173"
         y="184.578"
         x="297.83099"
         xlink:href="#glyph3-3" />
    </g>
    <g
       id="g179"
       style="fill:#000000;fill-opacity:1">
      <use
         height="100%"
         width="100%"
         id="use177"
         y="184.578"
         x="307.79401"
         xlink:href="#glyph1-1" />
    </g>
    <g
       id="g183"
       style="fill:#000000;fill-opacity:1">
      <use
         height="100%"
         width="100%"
         id="use181"
         y="186.07201"
         x="312.67801"
         xlink:href="#glyph2-3" />
    </g>
    <g
       id="g187"
       style="fill:#000000;fill-opacity:1">
      <use
         height="100%"
         width="100%"
         id="use185"
         y="184.578"
         x="346.42599"
         xlink:href="#glyph3-1" />
    </g>
    <g
       id="g191"
       style="fill:#000000;fill-opacity:1">
      <use
         height="100%"
         width="100%"
         id="use189"
         y="184.578"
         x="361.91586"
         xlink:href="#glyph3-5" />
    </g>
    <g
       id="g195"
       style="fill:#000000;fill-opacity:1">
      <use
         height="100%"
         width="100%"
         id="use193"
         y="199.522"
         x="252.00301"
         xlink:href="#glyph4-1" />
    </g>
    <g
       id="g199"
       style="fill:#000000;fill-opacity:1">
      <use
         height="100%"
         width="100%"
         id="use197"
         y="199.522"
         x="259.75201"
         xlink:href="#glyph3-2" />
    </g>
    <g
       id="g203"
       style="fill:#000000;fill-opacity:1">
      <use
         height="100%"
         width="100%"
         id="use201"
         y="199.522"
         x="264.733"
         xlink:href="#glyph1-1" />
    </g>
    <g
       id="g207"
       style="fill:#000000;fill-opacity:1">
      <use
         height="100%"
         width="100%"
         id="use205"
         y="201.01601"
         x="269.617"
         xlink:href="#glyph2-1" />
    </g>
    <g
       id="g211"
       style="fill:#000000;fill-opacity:1">
      <use
         height="100%"
         width="100%"
         id="use209"
         y="199.522"
         x="276.30099"
         xlink:href="#glyph3-3" />
    </g>
    <g
       id="g215"
       style="fill:#000000;fill-opacity:1">
      <use
         height="100%"
         width="100%"
         id="use213"
         y="199.522"
         x="286.263"
         xlink:href="#glyph1-1" />
    </g>
    <g
       id="g219"
       style="fill:#000000;fill-opacity:1">
      <use
         height="100%"
         width="100%"
         id="use217"
         y="201.01601"
         x="291.14801"
         xlink:href="#glyph2-2" />
    </g>
    <g
       id="g223"
       style="fill:#000000;fill-opacity:1">
      <use
         height="100%"
         width="100%"
         id="use221"
         y="199.522"
         x="297.83099"
         xlink:href="#glyph3-3" />
    </g>
    <g
       id="g227"
       style="fill:#000000;fill-opacity:1">
      <use
         height="100%"
         width="100%"
         id="use225"
         y="199.522"
         x="307.7916"
         xlink:href="#glyph3-2" />
    </g>
    <g
       id="g231"
       style="fill:#000000;fill-opacity:1">
      <use
         height="100%"
         width="100%"
         id="use229"
         y="199.522"
         x="312.77499"
         xlink:href="#glyph1-1" />
    </g>
    <g
       id="g235"
       style="fill:#000000;fill-opacity:1">
      <use
         height="100%"
         width="100%"
         id="use233"
         y="201.01601"
         x="317.659"
         xlink:href="#glyph2-3" />
    </g>
    <g
       id="g239"
       style="fill:#000000;fill-opacity:1">
      <use
         height="100%"
         width="100%"
         id="use237"
         y="199.522"
         x="324.34299"
         xlink:href="#glyph3-3" />
    </g>
    <g
       id="g243"
       style="fill:#000000;fill-opacity:1">
      <use
         height="100%"
         width="100%"
         id="use241"
         y="199.522"
         x="334.30499"
         xlink:href="#glyph1-1" />
    </g>
    <g
       id="g247"
       style="fill:#000000;fill-opacity:1">
      <use
         height="100%"
         width="100%"
         id="use245"
         y="201.01601"
         x="339.19"
         xlink:href="#glyph2-4" />
    </g>
    <g
       id="g251"
       style="fill:#000000;fill-opacity:1">
      <use
         height="100%"
         width="100%"
         id="use249"
         y="199.522"
         x="346.42599"
         xlink:href="#glyph3-1" />
    </g>
    <g
       id="g257"
       style="fill:#000000;fill-opacity:1">
      <use
         height="100%"
         width="100%"
         id="use253"
         y="199.522"
         x="356.93454"
         xlink:href="#glyph3-6" />
      <use
         height="100%"
         width="100%"
         id="use255"
         y="199.522"
         x="361.91586"
         xlink:href="#glyph3-2" />
    </g>
  </g>
</svg>
