<?xml version="1.0" encoding="UTF-8" standalone="no"?>
<svg
   xmlns:dc="http://purl.org/dc/elements/1.1/"
   xmlns:cc="http://creativecommons.org/ns#"
   xmlns:rdf="http://www.w3.org/1999/02/22-rdf-syntax-ns#"
   xmlns:svg="http://www.w3.org/2000/svg"
   xmlns="http://www.w3.org/2000/svg"
   xmlns:xlink="http://www.w3.org/1999/xlink"
   id="svg562"
   version="1.1"
   viewBox="0 0 398.4534 61.793991"
   height="61.793991pt"
   width="398.4534pt">
  <metadata
     id="metadata566">
    <rdf:RDF>
      <cc:Work
         rdf:about="">
        <dc:format>image/svg+xml</dc:format>
        <dc:type
           rdf:resource="http://purl.org/dc/dcmitype/StillImage" />
      </cc:Work>
    </rdf:RDF>
  </metadata>
  <defs
     id="defs103">
    <g
       id="g101">
      <symbol
         style="overflow:visible"
         id="glyph0-0"
         overflow="visible">
        <path
           id="path2"
           d=""
           style="stroke:none" />
      </symbol>
      <symbol
         style="overflow:visible"
         id="glyph0-1"
         overflow="visible">
        <path
           id="path5"
           d="M 3.328125,-3.015625 C 3.390625,-3.265625 3.625,-4.1875 4.3125,-4.1875 c 0.046875,0 0.296875,0 0.5,0.125 C 4.53125,-4 4.34375,-3.765625 4.34375,-3.515625 c 0,0.15625 0.109375,0.34375 0.375,0.34375 0.21875,0 0.53125,-0.171875 0.53125,-0.578125 0,-0.515625 -0.578125,-0.65625 -0.921875,-0.65625 -0.578125,0 -0.921875,0.53125 -1.046875,0.75 -0.25,-0.65625 -0.78125,-0.75 -1.078125,-0.75 -1.03125,0 -1.609375,1.28125 -1.609375,1.53125 0,0.109375 0.109375,0.109375 0.125,0.109375 0.078125,0 0.109375,-0.03125 0.125,-0.109375 0.34375,-1.0625 1,-1.3125 1.34375,-1.3125 0.1875,0 0.53125,0.09375 0.53125,0.671875 0,0.3125 -0.171875,0.96875 -0.53125,2.375 -0.15625,0.609375 -0.515625,1.03125 -0.953125,1.03125 -0.0625,0 -0.28125,0 -0.5,-0.125 0.25,-0.0625 0.46875,-0.265625 0.46875,-0.546875 0,-0.265625 -0.21875,-0.34375 -0.359375,-0.34375 -0.3125,0 -0.546875,0.25 -0.546875,0.578125 0,0.453125 0.484375,0.65625 0.921875,0.65625 0.671875,0 1.03125,-0.703125 1.046875,-0.75 0.125,0.359375 0.484375,0.75 1.078125,0.75 1.03125,0 1.59375,-1.28125 1.59375,-1.53125 0,-0.109375 -0.078125,-0.109375 -0.109375,-0.109375 -0.09375,0 -0.109375,0.046875 -0.140625,0.109375 -0.328125,1.078125 -1,1.3125 -1.3125,1.3125 -0.390625,0 -0.546875,-0.3125 -0.546875,-0.65625 0,-0.21875 0.046875,-0.4375 0.15625,-0.875 z m 0,0"
           style="stroke:none" />
      </symbol>
      <symbol
         style="overflow:visible"
         id="glyph0-2"
         overflow="visible">
        <path
           id="path8"
           d="m 4.75,-2.359375 c 0,-1.5625 -0.921875,-2.046875 -1.65625,-2.046875 -1.375,0 -2.6875,1.421875 -2.6875,2.828125 0,0.9375 0.59375,1.6875 1.625,1.6875 0.625,0 1.34375,-0.234375 2.09375,-0.84375 0.125,0.53125 0.453125,0.84375 0.90625,0.84375 0.53125,0 0.84375,-0.546875 0.84375,-0.703125 0,-0.078125 -0.0625,-0.109375 -0.125,-0.109375 -0.0625,0 -0.09375,0.03125 -0.125,0.109375 -0.1875,0.484375 -0.546875,0.484375 -0.5625,0.484375 -0.3125,0 -0.3125,-0.78125 -0.3125,-1.015625 0,-0.203125 0,-0.234375 0.109375,-0.34375 C 5.796875,-2.65625 6,-3.8125 6,-3.8125 6,-3.84375 5.984375,-3.921875 5.875,-3.921875 c -0.09375,0 -0.09375,0.03125 -0.140625,0.21875 -0.1875,0.625 -0.515625,1.375 -0.984375,1.96875 z m -0.65625,1.375 c -0.890625,0.765625 -1.65625,0.875 -2.046875,0.875 -0.59375,0 -0.90625,-0.453125 -0.90625,-1.09375 0,-0.484375 0.265625,-1.5625 0.578125,-2.0625 C 2.1875,-4 2.734375,-4.1875 3.078125,-4.1875 c 0.984375,0 0.984375,1.3125 0.984375,2.078125 0,0.375 0,0.953125 0.03125,1.125 z m 0,0"
           style="stroke:none" />
      </symbol>
      <symbol
         style="overflow:visible"
         id="glyph0-3"
         overflow="visible">
        <path
           id="path11"
           d="m 2.03125,-0.015625 c 0,-0.65625 -0.25,-1.046875 -0.640625,-1.046875 -0.328125,0 -0.53125,0.25 -0.53125,0.53125 C 0.859375,-0.265625 1.0625,0 1.390625,0 1.5,0 1.640625,-0.046875 1.734375,-0.125 1.765625,-0.15625 1.78125,-0.15625 1.78125,-0.15625 c 0.015625,0 0.015625,0 0.015625,0.140625 0,0.75 -0.34375,1.34375 -0.671875,1.671875 -0.109375,0.109375 -0.109375,0.125 -0.109375,0.15625 0,0.078125 0.046875,0.109375 0.09375,0.109375 0.109375,0 0.921875,-0.765625 0.921875,-1.9375 z m 0,0"
           style="stroke:none" />
      </symbol>
      <symbol
         style="overflow:visible"
         id="glyph0-4"
         overflow="visible">
        <path
           id="path14"
           d="m 5.734375,-5.671875 c 0,-0.75 -0.546875,-1.359375 -1.359375,-1.359375 -0.578125,0 -0.859375,0.15625 -1.203125,0.40625 C 2.625,-6.21875 2.078125,-5.25 1.890625,-4.5 L 0.296875,1.828125 C 0.296875,1.875 0.34375,1.9375 0.421875,1.9375 0.5,1.9375 0.53125,1.90625 0.53125,1.890625 L 1.234375,-0.875 c 0.1875,0.609375 0.625,0.96875 1.359375,0.96875 C 3.3125,0.09375 4.0625,-0.25 4.515625,-0.6875 5,-1.140625 5.3125,-1.78125 5.3125,-2.515625 c 0,-0.71875 -0.375,-1.25 -0.734375,-1.484375 0.578125,-0.34375 1.15625,-0.953125 1.15625,-1.671875 z M 3.9375,-4.015625 c -0.125,0.046875 -0.234375,0.0625 -0.484375,0.0625 -0.140625,0 -0.328125,0.015625 -0.4375,-0.03125 0.03125,-0.109375 0.390625,-0.078125 0.5,-0.078125 0.203125,0 0.296875,0 0.421875,0.046875 z M 5.171875,-5.90625 c 0,0.703125 -0.375,1.421875 -0.890625,1.734375 C 4,-4.28125 3.8125,-4.296875 3.515625,-4.296875 c -0.21875,0 -0.78125,-0.015625 -0.78125,0.3125 0,0.28125 0.515625,0.25 0.6875,0.25 0.375,0 0.53125,0 0.828125,-0.125 0.375,0.359375 0.421875,0.671875 0.4375,1.125 0.015625,0.578125 -0.21875,1.328125 -0.5,1.71875 C 3.796875,-0.484375 3.125,-0.125 2.5625,-0.125 c -0.765625,0 -1.140625,-0.578125 -1.140625,-1.28125 0,-0.09375 0,-0.25 0.046875,-0.4375 L 2.109375,-4.359375 C 2.328125,-5.21875 3.046875,-6.8125 4.25,-6.8125 c 0.578125,0 0.921875,0.3125 0.921875,0.90625 z m 0,0"
           style="stroke:none" />
      </symbol>
      <symbol
         style="overflow:visible"
         id="glyph0-5"
         overflow="visible">
        <path
           id="path17"
           d="m 1.90625,-0.53125 c 0,-0.28125 -0.234375,-0.53125 -0.515625,-0.53125 -0.296875,0 -0.53125,0.25 -0.53125,0.53125 C 0.859375,-0.234375 1.09375,0 1.390625,0 1.671875,0 1.90625,-0.234375 1.90625,-0.53125 Z m 0,0"
           style="stroke:none" />
      </symbol>
      <symbol
         style="overflow:visible"
         id="glyph1-0"
         overflow="visible">
        <path
           id="path20"
           d=""
           style="stroke:none" />
      </symbol>
      <symbol
         style="overflow:visible"
         id="glyph1-1"
         overflow="visible">
        <path
           id="path23"
           d="m 1.90625,-2.328125 c 0.546875,0 0.9375,0.375 0.9375,1.125 0,0.859375 -0.515625,1.125 -0.90625,1.125 -0.28125,0 -0.90625,-0.078125 -1.1875,-0.5 0.328125,0 0.40625,-0.234375 0.40625,-0.390625 0,-0.21875 -0.171875,-0.375 -0.390625,-0.375 -0.1875,0 -0.390625,0.125 -0.390625,0.40625 0,0.65625 0.71875,1.078125 1.5625,1.078125 0.96875,0 1.640625,-0.65625 1.640625,-1.34375 0,-0.546875 -0.4375,-1.09375 -1.203125,-1.25 0.71875,-0.265625 0.984375,-0.78125 0.984375,-1.21875 0,-0.546875 -0.625,-0.953125 -1.40625,-0.953125 -0.765625,0 -1.359375,0.375 -1.359375,0.9375 0,0.234375 0.15625,0.359375 0.359375,0.359375 0.21875,0 0.359375,-0.15625 0.359375,-0.34375 0,-0.203125 -0.140625,-0.359375 -0.359375,-0.375 0.25,-0.296875 0.71875,-0.375 0.984375,-0.375 0.3125,0 0.75,0.15625 0.75,0.75 0,0.296875 -0.09375,0.625 -0.28125,0.828125 -0.21875,0.265625 -0.421875,0.28125 -0.765625,0.3125 -0.171875,0.015625 -0.1875,0.015625 -0.21875,0.015625 -0.015625,0 -0.078125,0.015625 -0.078125,0.09375 0,0.09375 0.0625,0.09375 0.1875,0.09375 z m 0,0"
           style="stroke:none" />
      </symbol>
      <symbol
         style="overflow:visible"
         id="glyph1-2"
         overflow="visible">
        <path
           id="path26"
           d="m 1.078125,-3.890625 c 0.359375,0.09375 0.5625,0.09375 0.671875,0.09375 0.921875,0 1.46875,-0.625 1.46875,-0.734375 0,-0.078125 -0.046875,-0.09375 -0.078125,-0.09375 -0.015625,0 -0.03125,0 -0.0625,0.015625 -0.171875,0.0625 -0.53125,0.203125 -1.046875,0.203125 -0.203125,0 -0.5625,-0.015625 -1.015625,-0.1875 C 0.9375,-4.625 0.921875,-4.625 0.921875,-4.625 c -0.09375,0 -0.09375,0.078125 -0.09375,0.1875 v 2.046875 c 0,0.125 0,0.203125 0.109375,0.203125 0.0625,0 0.078125,0 0.140625,-0.09375 0.296875,-0.375 0.734375,-0.4375 0.96875,-0.4375 0.421875,0 0.609375,0.328125 0.640625,0.390625 0.125,0.234375 0.171875,0.5 0.171875,0.90625 0,0.203125 0,0.609375 -0.21875,0.921875 -0.171875,0.25 -0.46875,0.421875 -0.8125,0.421875 -0.453125,0 -0.921875,-0.25 -1.09375,-0.71875 0.265625,0.015625 0.40625,-0.15625 0.40625,-0.34375 0,-0.296875 -0.265625,-0.34375 -0.359375,-0.34375 0,0 -0.34375,0 -0.34375,0.375 0,0.625 0.578125,1.25 1.40625,1.25 0.890625,0 1.671875,-0.65625 1.671875,-1.546875 0,-0.78125 -0.59375,-1.5 -1.453125,-1.5 -0.3125,0 -0.671875,0.0625 -0.984375,0.328125 z m 0,0"
           style="stroke:none" />
      </symbol>
      <symbol
         style="overflow:visible"
         id="glyph1-3"
         overflow="visible">
        <path
           id="path29"
           d="m 3.6875,-1.140625 v -0.25 H 2.90625 V -4.5 c 0,-0.140625 0,-0.203125 -0.140625,-0.203125 -0.09375,0 -0.125,0 -0.1875,0.109375 l -2.3125,3.203125 v 0.25 h 2.0625 v 0.5625 c 0,0.25 0,0.328125 -0.578125,0.328125 H 1.5625 V 0 C 1.921875,-0.015625 2.359375,-0.03125 2.609375,-0.03125 2.875,-0.03125 3.3125,-0.015625 3.671875,0 v -0.25 h -0.1875 C 2.90625,-0.25 2.90625,-0.328125 2.90625,-0.578125 v -0.5625 z M 2.375,-3.9375 v 2.546875 H 0.53125 Z m 0,0"
           style="stroke:none" />
      </symbol>
      <symbol
         style="overflow:visible"
         id="glyph1-4"
         overflow="visible">
        <path
           id="path32"
           d="m 2.328125,-4.4375 c 0,-0.1875 0,-0.1875 -0.203125,-0.1875 -0.453125,0.4375 -1.078125,0.4375 -1.359375,0.4375 v 0.25 c 0.15625,0 0.625,0 1,-0.1875 v 3.546875 c 0,0.234375 0,0.328125 -0.6875,0.328125 H 0.8125 V 0 c 0.125,0 0.984375,-0.03125 1.234375,-0.03125 0.21875,0 1.09375,0.03125 1.25,0.03125 V -0.25 H 3.03125 c -0.703125,0 -0.703125,-0.09375 -0.703125,-0.328125 z m 0,0"
           style="stroke:none" />
      </symbol>
      <symbol
         style="overflow:visible"
         id="glyph1-5"
         overflow="visible">
        <path
           id="path35"
           d="M 3.515625,-1.265625 H 3.28125 c -0.015625,0.15625 -0.09375,0.5625 -0.1875,0.625 C 3.046875,-0.59375 2.515625,-0.59375 2.40625,-0.59375 H 1.125 c 0.734375,-0.640625 0.984375,-0.84375 1.390625,-1.171875 0.515625,-0.40625 1,-0.84375 1,-1.5 0,-0.84375 -0.734375,-1.359375 -1.625,-1.359375 -0.859375,0 -1.453125,0.609375 -1.453125,1.25 0,0.34375 0.296875,0.390625 0.375,0.390625 0.15625,0 0.359375,-0.125 0.359375,-0.375 0,-0.125 -0.046875,-0.375 -0.40625,-0.375 C 0.984375,-4.21875 1.453125,-4.375 1.78125,-4.375 c 0.703125,0 1.0625,0.546875 1.0625,1.109375 0,0.609375 -0.4375,1.078125 -0.65625,1.328125 L 0.515625,-0.265625 C 0.4375,-0.203125 0.4375,-0.1875 0.4375,0 h 2.875 z m 0,0"
           style="stroke:none" />
      </symbol>
      <symbol
         style="overflow:visible"
         id="glyph2-0"
         overflow="visible">
        <path
           id="path38"
           d=""
           style="stroke:none" />
      </symbol>
      <symbol
         style="overflow:visible"
         id="glyph2-1"
         overflow="visible">
        <path
           id="path41"
           d="m 6.84375,-3.265625 c 0.15625,0 0.34375,0 0.34375,-0.1875 C 7.1875,-3.65625 7,-3.65625 6.859375,-3.65625 h -5.96875 c -0.140625,0 -0.328125,0 -0.328125,0.203125 0,0.1875 0.1875,0.1875 0.328125,0.1875 z m 0.015625,1.9375 c 0.140625,0 0.328125,0 0.328125,-0.203125 0,-0.1875 -0.1875,-0.1875 -0.34375,-0.1875 H 0.890625 c -0.140625,0 -0.328125,0 -0.328125,0.1875 0,0.203125 0.1875,0.203125 0.328125,0.203125 z m 0,0"
           style="stroke:none" />
      </symbol>
      <symbol
         style="overflow:visible"
         id="glyph2-2"
         overflow="visible">
        <path
           id="path44"
           d="m 3.296875,2.390625 c 0,-0.03125 0,-0.046875 -0.171875,-0.21875 C 1.890625,0.921875 1.5625,-0.96875 1.5625,-2.5 c 0,-1.734375 0.375,-3.46875 1.609375,-4.703125 0.125,-0.125 0.125,-0.140625 0.125,-0.171875 0,-0.078125 -0.03125,-0.109375 -0.09375,-0.109375 -0.109375,0 -1,0.6875 -1.59375,1.953125 -0.5,1.09375 -0.625,2.203125 -0.625,3.03125 0,0.78125 0.109375,1.984375 0.65625,3.125 C 2.25,1.84375 3.09375,2.5 3.203125,2.5 c 0.0625,0 0.09375,-0.03125 0.09375,-0.109375 z m 0,0"
           style="stroke:none" />
      </symbol>
      <symbol
         style="overflow:visible"
         id="glyph2-3"
         overflow="visible">
        <path
           id="path47"
           d="m 1.3125,-3.265625 v -0.25 c 0,-2.515625 1.234375,-2.875 1.75,-2.875 0.234375,0 0.65625,0.0625 0.875,0.40625 -0.15625,0 -0.546875,0 -0.546875,0.4375 0,0.3125 0.234375,0.46875 0.453125,0.46875 0.15625,0 0.46875,-0.09375 0.46875,-0.484375 0,-0.59375 -0.4375,-1.078125 -1.265625,-1.078125 -1.28125,0 -2.625,1.28125 -2.625,3.484375 0,2.671875 1.15625,3.375 2.078125,3.375 1.109375,0 2.0625,-0.9375 2.0625,-2.25 0,-1.265625 -0.890625,-2.21875 -2,-2.21875 -0.671875,0 -1.046875,0.5 -1.25,0.984375 z M 2.5,-0.0625 c -0.625,0 -0.921875,-0.59375 -0.984375,-0.75 -0.1875,-0.46875 -0.1875,-1.265625 -0.1875,-1.4375 0,-0.78125 0.328125,-1.78125 1.21875,-1.78125 0.171875,0 0.625,0 0.9375,0.625 0.171875,0.359375 0.171875,0.875 0.171875,1.359375 0,0.484375 0,0.984375 -0.171875,1.34375 C 3.1875,-0.109375 2.734375,-0.0625 2.5,-0.0625 Z m 0,0"
           style="stroke:none" />
      </symbol>
      <symbol
         style="overflow:visible"
         id="glyph2-4"
         overflow="visible">
        <path
           id="path50"
           d="m 2.875,-2.5 c 0,-0.765625 -0.109375,-1.96875 -0.65625,-3.109375 -0.59375,-1.21875 -1.453125,-1.875 -1.546875,-1.875 -0.0625,0 -0.109375,0.046875 -0.109375,0.109375 0,0.03125 0,0.046875 0.1875,0.234375 0.984375,0.984375 1.546875,2.5625 1.546875,4.640625 0,1.71875 -0.359375,3.46875 -1.59375,4.71875 C 0.5625,2.34375 0.5625,2.359375 0.5625,2.390625 0.5625,2.453125 0.609375,2.5 0.671875,2.5 0.765625,2.5 1.671875,1.8125 2.25,0.546875 2.765625,-0.546875 2.875,-1.65625 2.875,-2.5 Z m 0,0"
           style="stroke:none" />
      </symbol>
      <symbol
         style="overflow:visible"
         id="glyph2-5"
         overflow="visible">
        <path
           id="path53"
           d="m 2.890625,-3.515625 c 0.8125,-0.265625 1.390625,-0.953125 1.390625,-1.75 0,-0.8125 -0.875,-1.375 -1.828125,-1.375 -1,0 -1.765625,0.59375 -1.765625,1.359375 0,0.328125 0.21875,0.515625 0.515625,0.515625 0.296875,0 0.5,-0.21875 0.5,-0.515625 0,-0.484375 -0.46875,-0.484375 -0.609375,-0.484375 0.296875,-0.5 0.953125,-0.625 1.3125,-0.625 0.421875,0 0.96875,0.21875 0.96875,1.109375 0,0.125 -0.03125,0.703125 -0.28125,1.140625 C 2.796875,-3.65625 2.453125,-3.625 2.203125,-3.625 2.125,-3.609375 1.890625,-3.59375 1.8125,-3.59375 c -0.078125,0.015625 -0.140625,0.03125 -0.140625,0.125 0,0.109375 0.0625,0.109375 0.234375,0.109375 h 0.4375 c 0.8125,0 1.1875,0.671875 1.1875,1.65625 0,1.359375 -0.6875,1.640625 -1.125,1.640625 -0.4375,0 -1.1875,-0.171875 -1.53125,-0.75 0.34375,0.046875 0.65625,-0.171875 0.65625,-0.546875 0,-0.359375 -0.265625,-0.5625 -0.546875,-0.5625 -0.25,0 -0.5625,0.140625 -0.5625,0.578125 0,0.90625 0.921875,1.5625 2.015625,1.5625 1.21875,0 2.125,-0.90625 2.125,-1.921875 0,-0.8125 -0.640625,-1.59375 -1.671875,-1.8125 z m 0,0"
           style="stroke:none" />
      </symbol>
      <symbol
         style="overflow:visible"
         id="glyph2-6"
         overflow="visible">
        <path
           id="path56"
           d="m 1.265625,-0.765625 1.0625,-1.03125 c 1.546875,-1.375 2.140625,-1.90625 2.140625,-2.90625 0,-1.140625 -0.890625,-1.9375 -2.109375,-1.9375 -1.125,0 -1.859375,0.921875 -1.859375,1.8125 0,0.546875 0.5,0.546875 0.53125,0.546875 0.171875,0 0.515625,-0.109375 0.515625,-0.53125 0,-0.25 -0.1875,-0.515625 -0.53125,-0.515625 -0.078125,0 -0.09375,0 -0.125,0.015625 0.21875,-0.65625 0.765625,-1.015625 1.34375,-1.015625 0.90625,0 1.328125,0.8125 1.328125,1.625 C 3.5625,-3.90625 3.078125,-3.125 2.515625,-2.5 l -1.90625,2.125 C 0.5,-0.265625 0.5,-0.234375 0.5,0 H 4.203125 L 4.46875,-1.734375 H 4.234375 C 4.171875,-1.4375 4.109375,-1 4,-0.84375 3.9375,-0.765625 3.28125,-0.765625 3.0625,-0.765625 Z m 0,0"
           style="stroke:none" />
      </symbol>
      <symbol
         style="overflow:visible"
         id="glyph2-7"
         overflow="visible">
        <path
           id="path59"
           d="m 2.9375,-6.375 c 0,-0.25 0,-0.265625 -0.234375,-0.265625 C 2.078125,-6 1.203125,-6 0.890625,-6 v 0.3125 c 0.203125,0 0.78125,0 1.296875,-0.265625 v 5.171875 c 0,0.359375 -0.03125,0.46875 -0.921875,0.46875 h -0.3125 V 0 c 0.34375,-0.03125 1.203125,-0.03125 1.609375,-0.03125 0.390625,0 1.265625,0 1.609375,0.03125 v -0.3125 h -0.3125 c -0.90625,0 -0.921875,-0.109375 -0.921875,-0.46875 z m 0,0"
           style="stroke:none" />
      </symbol>
      <symbol
         style="overflow:visible"
         id="glyph2-8"
         overflow="visible">
        <path
           id="path62"
           d="m 2.9375,-1.640625 v 0.859375 c 0,0.359375 -0.03125,0.46875 -0.765625,0.46875 H 1.96875 V 0 C 2.375,-0.03125 2.890625,-0.03125 3.3125,-0.03125 c 0.421875,0 0.9375,0 1.359375,0.03125 v -0.3125 h -0.21875 c -0.734375,0 -0.75,-0.109375 -0.75,-0.46875 V -1.640625 H 4.6875 v -0.3125 H 3.703125 v -4.53125 c 0,-0.203125 0,-0.265625 -0.171875,-0.265625 -0.078125,0 -0.109375,0 -0.1875,0.125 l -3.0625,4.671875 v 0.3125 z m 0.046875,-0.3125 H 0.5625 l 2.421875,-3.71875 z m 0,0"
           style="stroke:none" />
      </symbol>
      <symbol
         style="overflow:visible"
         id="glyph2-9"
         overflow="visible">
        <path
           id="path65"
           d="m 4.46875,-2 c 0,-1.1875 -0.8125,-2.1875 -1.890625,-2.1875 -0.46875,0 -0.90625,0.15625 -1.265625,0.515625 V -5.625 c 0.203125,0.0625 0.53125,0.125 0.84375,0.125 1.234375,0 1.9375,-0.90625 1.9375,-1.03125 0,-0.0625 -0.03125,-0.109375 -0.109375,-0.109375 0,0 -0.03125,0 -0.078125,0.03125 C 3.703125,-6.515625 3.21875,-6.3125 2.546875,-6.3125 2.15625,-6.3125 1.6875,-6.390625 1.21875,-6.59375 1.140625,-6.625 1.125,-6.625 1.109375,-6.625 1,-6.625 1,-6.546875 1,-6.390625 V -3.4375 c 0,0.171875 0,0.25 0.140625,0.25 0.078125,0 0.09375,-0.015625 0.140625,-0.078125 C 1.390625,-3.421875 1.75,-3.96875 2.5625,-3.96875 c 0.515625,0 0.765625,0.453125 0.84375,0.640625 0.15625,0.375 0.1875,0.75 0.1875,1.25 0,0.359375 0,0.953125 -0.25,1.375 C 3.109375,-0.3125 2.734375,-0.0625 2.28125,-0.0625 c -0.71875,0 -1.296875,-0.53125 -1.46875,-1.109375 0.03125,0 0.0625,0.015625 0.171875,0.015625 0.328125,0 0.5,-0.25 0.5,-0.484375 0,-0.25 -0.171875,-0.5 -0.5,-0.5 C 0.84375,-2.140625 0.5,-2.0625 0.5,-1.609375 0.5,-0.75 1.1875,0.21875 2.296875,0.21875 3.453125,0.21875 4.46875,-0.734375 4.46875,-2 Z m 0,0"
           style="stroke:none" />
      </symbol>
      <symbol
         style="overflow:visible"
         id="glyph2-10"
         overflow="visible">
        <path
           id="path68"
           d="m 4.078125,-2.296875 h 2.78125 C 7,-2.296875 7.1875,-2.296875 7.1875,-2.5 7.1875,-2.6875 7,-2.6875 6.859375,-2.6875 h -2.78125 v -2.796875 c 0,-0.140625 0,-0.328125 -0.203125,-0.328125 -0.203125,0 -0.203125,0.1875 -0.203125,0.328125 V -2.6875 h -2.78125 c -0.140625,0 -0.328125,0 -0.328125,0.1875 0,0.203125 0.1875,0.203125 0.328125,0.203125 h 2.78125 V 0.5 c 0,0.140625 0,0.328125 0.203125,0.328125 0.203125,0 0.203125,-0.1875 0.203125,-0.328125 z m 0,0"
           style="stroke:none" />
      </symbol>
      <symbol
         style="overflow:visible"
         id="glyph2-11"
         overflow="visible">
        <path
           id="path71"
           d="m 4.75,-6.078125 c 0.078125,-0.109375 0.078125,-0.125 0.078125,-0.34375 H 2.40625 c -1.203125,0 -1.234375,-0.125 -1.265625,-0.3125 h -0.25 L 0.5625,-4.6875 h 0.25 c 0.03125,-0.15625 0.109375,-0.78125 0.25,-0.90625 0.0625,-0.0625 0.84375,-0.0625 0.96875,-0.0625 h 2.0625 C 3.984375,-5.5 3.203125,-4.40625 2.984375,-4.078125 2.078125,-2.734375 1.75,-1.34375 1.75,-0.328125 c 0,0.09375 0,0.546875 0.46875,0.546875 0.453125,0 0.453125,-0.453125 0.453125,-0.546875 V -0.84375 c 0,-0.546875 0.03125,-1.09375 0.109375,-1.625 0.046875,-0.234375 0.171875,-1.09375 0.625,-1.703125 z m 0,0"
           style="stroke:none" />
      </symbol>
      <symbol
         style="overflow:visible"
         id="glyph3-0"
         overflow="visible">
        <path
           id="path74"
           d=""
           style="stroke:none" />
      </symbol>
      <symbol
         style="overflow:visible"
         id="glyph3-1"
         overflow="visible">
        <path
           id="path77"
           d="m 6.5625,-2.296875 c 0.171875,0 0.359375,0 0.359375,-0.203125 0,-0.1875 -0.1875,-0.1875 -0.359375,-0.1875 H 1.171875 c -0.171875,0 -0.34375,0 -0.34375,0.1875 0,0.203125 0.171875,0.203125 0.34375,0.203125 z m 0,0"
           style="stroke:none" />
      </symbol>
      <symbol
         style="overflow:visible"
         id="glyph3-2"
         overflow="visible">
        <path
           id="path80"
           d="M 7.234375,-3.265625 C 7.65625,-2.90625 8.171875,-2.640625 8.5,-2.5 8.140625,-2.328125 7.640625,-2.078125 7.234375,-1.71875 H 0.90625 c -0.171875,0 -0.359375,0 -0.359375,0.1875 0,0.203125 0.1875,0.203125 0.34375,0.203125 H 6.78125 C 6.3125,-0.875 5.796875,0.015625 5.796875,0.140625 5.796875,0.25 5.921875,0.25 5.984375,0.25 6.0625,0.25 6.125,0.25 6.171875,0.171875 6.375,-0.203125 6.65625,-0.734375 7.3125,-1.3125 8,-1.921875 8.65625,-2.1875 9.1875,-2.34375 c 0.15625,-0.0625 0.171875,-0.0625 0.1875,-0.09375 0.03125,0 0.03125,-0.03125 0.03125,-0.0625 0,-0.015625 0,-0.03125 -0.015625,-0.046875 l -0.03125,-0.03125 c -0.015625,0 -0.03125,-0.015625 -0.21875,-0.078125 -1.34375,-0.390625 -2.34375,-1.296875 -2.90625,-2.375 -0.109375,-0.1875 -0.109375,-0.203125 -0.25,-0.203125 -0.0625,0 -0.1875,0 -0.1875,0.109375 0,0.125 0.5,1 0.984375,1.46875 H 0.890625 c -0.15625,0 -0.34375,0 -0.34375,0.203125 0,0.1875 0.1875,0.1875 0.359375,0.1875 z m 0,0"
           style="stroke:none" />
      </symbol>
      <symbol
         style="overflow:visible"
         id="glyph4-0"
         overflow="visible">
        <path
           id="path83"
           d=""
           style="stroke:none" />
      </symbol>
      <symbol
         style="overflow:visible"
         id="glyph4-1"
         overflow="visible">
        <path
           id="path86"
           d="m 3.53125,25.125 c 0,0.8125 0,1 -0.078125,1.375 -0.1875,0.796875 -0.65625,1.765625 -1.921875,2.53125 C 1.453125,29.078125 1.4375,29.09375 1.4375,29.265625 1.4375,29.5 1.453125,29.5 1.671875,29.5 c 0.171875,0 0.1875,0 0.46875,-0.15625 C 4.359375,28.078125 4.5,26.21875 4.5,25.875 v -7.09375 c 0,-0.71875 0,-1.53125 0.515625,-2.4375 0.4375,-0.78125 0.953125,-1.203125 1.421875,-1.515625 0.140625,-0.09375 0.15625,-0.109375 0.15625,-0.28125 0,-0.125 0,-0.1875 -0.046875,-0.21875 C 6.078125,14.03125 4.78125,13.203125 4.53125,11.25 4.5,11.03125 4.5,11 4.5,10.890625 V 3.234375 C 4.5,2.421875 4,0.75 2.078125,-0.265625 1.84375,-0.40625 1.828125,-0.40625 1.671875,-0.40625 c -0.21875,0 -0.234375,0 -0.234375,0.234375 0,0.15625 0,0.1875 0.0625,0.234375 1.90625,1.125 2.03125,2.78125 2.03125,3.171875 v 7.65625 c 0,1.09375 0.75,2.78125 2.484375,3.65625 C 4.9375,15.125 3.65625,16.28125 3.53125,18.15625 Z m 0,0"
           style="stroke:none" />
      </symbol>
      <symbol
         style="overflow:visible"
         id="glyph4-2"
         overflow="visible">
        <path
           id="path89"
           d="m 3.828125,8.796875 c 0,0.265625 0.015625,0.28125 0.28125,0.28125 H 4.75 c 0.265625,0 0.28125,-0.015625 0.28125,-0.28125 v -4.28125 c 0,-1.46875 -0.78125,-3.34375 -2.921875,-4.5 H 1.96875 c -0.265625,0 -0.28125,0 -0.28125,0.234375 0,0.171875 0.015625,0.1875 0.0625,0.21875 0.296875,0.234375 1.015625,0.734375 1.484375,1.65625 0.28125,0.53125 0.59375,1.3125 0.59375,2.390625 z m 0,0"
           style="stroke:none" />
      </symbol>
      <symbol
         style="overflow:visible"
         id="glyph4-3"
         overflow="visible">
        <path
           id="path92"
           d="M 5.03125,0.171875 C 5.03125,-0.09375 5.015625,-0.09375 4.75,-0.09375 H 4.109375 c -0.265625,0 -0.28125,0 -0.28125,0.265625 v 2.65625 c 0,0.25 0.015625,0.265625 0.28125,0.265625 H 4.75 c 0.265625,0 0.28125,-0.015625 0.28125,-0.265625 z m 0,0"
           style="stroke:none" />
      </symbol>
      <symbol
         style="overflow:visible"
         id="glyph4-4"
         overflow="visible">
        <path
           id="path95"
           d="m 5.03125,13.5625 c 0,-0.84375 0.171875,-2.921875 2,-4.3125 0.109375,-0.09375 0.125,-0.09375 0.125,-0.28125 0,-0.171875 -0.015625,-0.1875 -0.125,-0.28125 C 6.78125,8.5 6.09375,7.96875 5.609375,6.953125 5.21875,6.15625 5.03125,5.28125 5.03125,4.390625 V 0.171875 C 5.03125,-0.09375 5.015625,-0.09375 4.75,-0.09375 H 4.109375 c -0.265625,0 -0.28125,0 -0.28125,0.265625 V 4.375 c 0,1.203125 0.515625,3.234375 2.734375,4.59375 -2.25,1.375 -2.734375,3.421875 -2.734375,4.59375 v 4.21875 c 0,0.25 0.015625,0.265625 0.28125,0.265625 H 4.75 c 0.265625,0 0.28125,-0.01563 0.28125,-0.265625 z m 0,0"
           style="stroke:none" />
      </symbol>
      <symbol
         style="overflow:visible"
         id="glyph4-5"
         overflow="visible">
        <path
           id="path98"
           d="m 3.828125,4.453125 c 0,0.875 -0.234375,2.75 -2,3.984375 -0.125,0.09375 -0.140625,0.109375 -0.140625,0.28125 0,0.234375 0.015625,0.25 0.28125,0.25 H 2.109375 C 4.265625,7.8125 5.03125,5.921875 5.03125,4.453125 V 0.171875 C 5.03125,-0.09375 5.015625,-0.09375 4.75,-0.09375 H 4.109375 c -0.265625,0 -0.28125,0 -0.28125,0.265625 z m 0,0"
           style="stroke:none" />
      </symbol>
    </g>
  </defs>
  <g
     transform="translate(-152.29684,-124.81763)"
     id="surface1">
    <g
       id="g107"
       style="fill:#000000;fill-opacity:1">
      <use
         height="100%"
         width="100%"
         id="use105"
         y="135.239"
         x="155.686"
         xlink:href="#glyph0-1" />
    </g>
    <g
       id="g111"
       style="fill:#000000;fill-opacity:1">
      <use
         height="100%"
         width="100%"
         id="use109"
         y="136.733"
         x="161.38"
         xlink:href="#glyph1-1" />
    </g>
    <g
       id="g115"
       style="fill:#000000;fill-opacity:1">
      <use
         height="100%"
         width="100%"
         id="use113"
         y="135.239"
         x="168.617"
         xlink:href="#glyph2-1" />
    </g>
    <g
       id="g119"
       style="fill:#000000;fill-opacity:1">
      <use
         height="100%"
         width="100%"
         id="use117"
         y="135.239"
         x="179.133"
         xlink:href="#glyph0-2" />
    </g>
    <g
       id="g123"
       style="fill:#000000;fill-opacity:1">
      <use
         height="100%"
         width="100%"
         id="use121"
         y="135.239"
         x="185.53596"
         xlink:href="#glyph0-3" />
    </g>
    <g
       id="g127"
       style="fill:#000000;fill-opacity:1">
      <use
         height="100%"
         width="100%"
         id="use125"
         y="135.239"
         x="189.96733"
         xlink:href="#glyph0-1" />
    </g>
    <g
       id="g131"
       style="fill:#000000;fill-opacity:1">
      <use
         height="100%"
         width="100%"
         id="use129"
         y="136.733"
         x="195.66499"
         xlink:href="#glyph1-2" />
    </g>
    <g
       id="g135"
       style="fill:#000000;fill-opacity:1">
      <use
         height="100%"
         width="100%"
         id="use133"
         y="135.239"
         x="202.901"
         xlink:href="#glyph2-1" />
    </g>
    <g
       id="g139"
       style="fill:#000000;fill-opacity:1">
      <use
         height="100%"
         width="100%"
         id="use137"
         y="135.239"
         x="213.41701"
         xlink:href="#glyph0-4" />
    </g>
    <path
       id="path141"
       transform="matrix(1,0,0,-1,72,72)"
       d="M 80.300781,-53.132812 H 150.96484"
       style="fill:none;stroke:#000000;stroke-width:0.3985;stroke-linecap:butt;stroke-linejoin:miter;stroke-miterlimit:10;stroke-opacity:1" />
    <path
       id="path143"
       transform="matrix(1,0,0,-1,72,72)"
       d="m 80.496094,-68.363281 v 15.230469"
       style="fill:none;stroke:#000000;stroke-width:0.3985;stroke-linecap:butt;stroke-linejoin:miter;stroke-miterlimit:10;stroke-opacity:1" />
    <path
       id="path145"
       transform="matrix(1,0,0,-1,72,72)"
       d="m 150.76562,-68.363281 v 15.230469"
       style="fill:none;stroke:#000000;stroke-width:0.3985;stroke-linecap:butt;stroke-linejoin:miter;stroke-miterlimit:10;stroke-opacity:1" />
    <path
       id="path147"
       transform="matrix(1,0,0,-1,72,72)"
       d="M 80.300781,-68.363281 H 150.96484"
       style="fill:none;stroke:#000000;stroke-width:0.3985;stroke-linecap:butt;stroke-linejoin:miter;stroke-miterlimit:10;stroke-opacity:1" />
    <g
       id="g151"
       style="fill:#000000;fill-opacity:1">
      <use
         height="100%"
         width="100%"
         id="use149"
         y="152.965"
         x="160.854"
         xlink:href="#glyph0-1" />
    </g>
    <g
       id="g155"
       style="fill:#000000;fill-opacity:1">
      <use
         height="100%"
         width="100%"
         id="use153"
         y="154.46001"
         x="166.548"
         xlink:href="#glyph1-3" />
    </g>
    <g
       id="g159"
       style="fill:#000000;fill-opacity:1">
      <use
         height="100%"
         width="100%"
         id="use157"
         y="152.965"
         x="173.785"
         xlink:href="#glyph2-1" />
    </g>
    <g
       id="g163"
       style="fill:#000000;fill-opacity:1">
      <use
         height="100%"
         width="100%"
         id="use161"
         y="149.043"
         x="185.496"
         xlink:href="#glyph1-4" />
    </g>
    <path
       id="path165"
       transform="matrix(1,0,0,-1,72,72)"
       d="m 113.49609,-78.476562 h 3.97266"
       style="fill:none;stroke:#000000;stroke-width:0.3985;stroke-linecap:butt;stroke-linejoin:miter;stroke-miterlimit:10;stroke-opacity:1" />
    <g
       id="g169"
       style="fill:#000000;fill-opacity:1">
      <use
         height="100%"
         width="100%"
         id="use167"
         y="156.401"
         x="185.496"
         xlink:href="#glyph1-3" />
    </g>
    <g
       id="g175"
       style="fill:#000000;fill-opacity:1">
      <use
         height="100%"
         width="100%"
         id="use171"
         y="152.965"
         x="190.66299"
         xlink:href="#glyph2-2" />
      <use
         height="100%"
         width="100%"
         id="use173"
         y="152.965"
         x="194.53746"
         xlink:href="#glyph2-3" />
    </g>
    <g
       id="g179"
       style="fill:#000000;fill-opacity:1">
      <use
         height="100%"
         width="100%"
         id="use177"
         y="152.965"
         x="201.733"
         xlink:href="#glyph3-1" />
    </g>
    <g
       id="g183"
       style="fill:#000000;fill-opacity:1">
      <use
         height="100%"
         width="100%"
         id="use181"
         y="152.965"
         x="211.69501"
         xlink:href="#glyph0-1" />
    </g>
    <g
       id="g187"
       style="fill:#000000;fill-opacity:1">
      <use
         height="100%"
         width="100%"
         id="use185"
         y="154.46001"
         x="217.38901"
         xlink:href="#glyph1-2" />
    </g>
    <g
       id="g191"
       style="fill:#000000;fill-opacity:1">
      <use
         height="100%"
         width="100%"
         id="use189"
         y="152.965"
         x="221.85899"
         xlink:href="#glyph2-4" />
    </g>
    <g
       id="g195"
       style="fill:#000000;fill-opacity:1">
      <use
         height="100%"
         width="100%"
         id="use193"
         y="126.197"
         x="225.733"
         xlink:href="#glyph4-1" />
    </g>
    <g
       id="g199"
       style="fill:#000000;fill-opacity:1">
      <use
         height="100%"
         width="100%"
         id="use197"
         y="143.233"
         x="236.526"
         xlink:href="#glyph3-2" />
    </g>
    <g
       id="g203"
       style="fill:#000000;fill-opacity:1">
      <use
         height="100%"
         width="100%"
         id="use201"
         y="143.233"
         x="255.41"
         xlink:href="#glyph0-1" />
    </g>
    <g
       id="g207"
       style="fill:#000000;fill-opacity:1">
      <use
         height="100%"
         width="100%"
         id="use205"
         y="144.728"
         x="261.104"
         xlink:href="#glyph1-3" />
    </g>
    <g
       id="g211"
       style="fill:#000000;fill-opacity:1">
      <use
         height="100%"
         width="100%"
         id="use209"
         y="143.233"
         x="268.341"
         xlink:href="#glyph2-1" />
    </g>
    <g
       id="g215"
       style="fill:#000000;fill-opacity:1">
      <use
         height="100%"
         width="100%"
         id="use213"
         y="136.493"
         x="280.05301"
         xlink:href="#glyph2-5" />
    </g>
    <path
       id="path217"
       transform="matrix(1,0,0,-1,72,72)"
       d="m 208.05469,-68.742188 h 4.98047"
       style="fill:none;stroke:#000000;stroke-width:0.3985;stroke-linecap:butt;stroke-linejoin:miter;stroke-miterlimit:10;stroke-opacity:1" />
    <g
       id="g221"
       style="fill:#000000;fill-opacity:1">
      <use
         height="100%"
         width="100%"
         id="use219"
         y="150.067"
         x="280.05301"
         xlink:href="#glyph2-6" />
    </g>
    <g
       id="g225"
       style="fill:#000000;fill-opacity:1">
      <use
         height="100%"
         width="100%"
         id="use223"
         y="143.233"
         x="288.44299"
         xlink:href="#glyph3-1" />
    </g>
    <g
       id="g229"
       style="fill:#000000;fill-opacity:1">
      <use
         height="100%"
         width="100%"
         id="use227"
         y="136.493"
         x="299.60101"
         xlink:href="#glyph2-7" />
    </g>
    <path
       id="path231"
       transform="matrix(1,0,0,-1,72,72)"
       d="m 227.60156,-68.742188 h 4.98047"
       style="fill:none;stroke:#000000;stroke-width:0.3985;stroke-linecap:butt;stroke-linejoin:miter;stroke-miterlimit:10;stroke-opacity:1" />
    <g
       id="g235"
       style="fill:#000000;fill-opacity:1">
      <use
         height="100%"
         width="100%"
         id="use233"
         y="150.067"
         x="299.60101"
         xlink:href="#glyph2-8" />
    </g>
    <g
       id="g239"
       style="fill:#000000;fill-opacity:1">
      <use
         height="100%"
         width="100%"
         id="use237"
         y="143.233"
         x="305.77802"
         xlink:href="#glyph0-4" />
    </g>
    <path
       id="path241"
       transform="matrix(1,0,0,-1,72,72)"
       d="m 180.02344,-54.886719 h 63.30078"
       style="fill:none;stroke:#000000;stroke-width:0.3985;stroke-linecap:butt;stroke-linejoin:miter;stroke-miterlimit:10;stroke-opacity:1" />
    <path
       id="path243"
       transform="matrix(1,0,0,-1,72,72)"
       d="m 180.22266,-81.253906 v 26.367187"
       style="fill:none;stroke:#000000;stroke-width:0.3985;stroke-linecap:butt;stroke-linejoin:miter;stroke-miterlimit:10;stroke-opacity:1" />
    <path
       id="path245"
       transform="matrix(1,0,0,-1,72,72)"
       d="m 243.12891,-81.253906 v 26.367187"
       style="fill:none;stroke:#000000;stroke-width:0.3985;stroke-linecap:butt;stroke-linejoin:miter;stroke-miterlimit:10;stroke-opacity:1" />
    <path
       id="path247"
       transform="matrix(1,0,0,-1,72,72)"
       d="m 180.02344,-81.253906 h 63.30078"
       style="fill:none;stroke:#000000;stroke-width:0.3985;stroke-linecap:butt;stroke-linejoin:miter;stroke-miterlimit:10;stroke-opacity:1" />
    <g
       id="g251"
       style="fill:#000000;fill-opacity:1">
      <use
         height="100%"
         width="100%"
         id="use249"
         y="168.905"
         x="219.879"
         xlink:href="#glyph0-1" />
    </g>
    <g
       id="g255"
       style="fill:#000000;fill-opacity:1">
      <use
         height="100%"
         width="100%"
         id="use253"
         y="170.39999"
         x="225.573"
         xlink:href="#glyph1-5" />
    </g>
    <g
       id="g259"
       style="fill:#000000;fill-opacity:1">
      <use
         height="100%"
         width="100%"
         id="use257"
         y="168.905"
         x="232.81"
         xlink:href="#glyph2-1" />
    </g>
    <g
       id="g263"
       style="fill:#000000;fill-opacity:1">
      <use
         height="100%"
         width="100%"
         id="use261"
         y="168.905"
         x="243.31854"
         xlink:href="#glyph2-8" />
    </g>
    <g
       id="g267"
       style="fill:#000000;fill-opacity:1">
      <use
         height="100%"
         width="100%"
         id="use265"
         y="168.905"
         x="250.521"
         xlink:href="#glyph3-1" />
    </g>
    <g
       id="g271"
       style="fill:#000000;fill-opacity:1">
      <use
         height="100%"
         width="100%"
         id="use269"
         y="168.905"
         x="260.48401"
         xlink:href="#glyph0-1" />
    </g>
    <g
       id="g275"
       style="fill:#000000;fill-opacity:1">
      <use
         height="100%"
         width="100%"
         id="use273"
         y="170.39999"
         x="266.17801"
         xlink:href="#glyph1-1" />
    </g>
    <g
       id="g279"
       style="fill:#000000;fill-opacity:1">
      <use
         height="100%"
         width="100%"
         id="use277"
         y="168.905"
         x="272.86099"
         xlink:href="#glyph3-1" />
    </g>
    <g
       id="g283"
       style="fill:#000000;fill-opacity:1">
      <use
         height="100%"
         width="100%"
         id="use281"
         y="168.905"
         x="282.823"
         xlink:href="#glyph0-1" />
    </g>
    <g
       id="g287"
       style="fill:#000000;fill-opacity:1">
      <use
         height="100%"
         width="100%"
         id="use285"
         y="170.39999"
         x="288.517"
         xlink:href="#glyph1-3" />
    </g>
    <g
       id="g291"
       style="fill:#000000;fill-opacity:1">
      <use
         height="100%"
         width="100%"
         id="use289"
         y="168.905"
         x="295.20099"
         xlink:href="#glyph3-1" />
    </g>
    <g
       id="g295"
       style="fill:#000000;fill-opacity:1">
      <use
         height="100%"
         width="100%"
         id="use293"
         y="168.905"
         x="305.16299"
         xlink:href="#glyph0-1" />
    </g>
    <g
       id="g299"
       style="fill:#000000;fill-opacity:1">
      <use
         height="100%"
         width="100%"
         id="use297"
         y="170.39999"
         x="310.85699"
         xlink:href="#glyph1-2" />
    </g>
    <g
       id="g303"
       style="fill:#000000;fill-opacity:1">
      <use
         height="100%"
         width="100%"
         id="use301"
         y="124.802"
         x="315.32599"
         xlink:href="#glyph4-2" />
    </g>
    <g
       id="g307"
       style="fill:#000000;fill-opacity:1">
      <use
         height="100%"
         width="100%"
         id="use305"
         y="133.76801"
         x="315.32599"
         xlink:href="#glyph4-3" />
    </g>
    <g
       id="g311"
       style="fill:#000000;fill-opacity:1">
      <use
         height="100%"
         width="100%"
         id="use309"
         y="136.757"
         x="315.32599"
         xlink:href="#glyph4-3" />
    </g>
    <g
       id="g315"
       style="fill:#000000;fill-opacity:1">
      <use
         height="100%"
         width="100%"
         id="use313"
         y="139.746"
         x="315.32599"
         xlink:href="#glyph4-4" />
    </g>
    <g
       id="g319"
       style="fill:#000000;fill-opacity:1">
      <use
         height="100%"
         width="100%"
         id="use317"
         y="157.679"
         x="315.32599"
         xlink:href="#glyph4-3" />
    </g>
    <g
       id="g323"
       style="fill:#000000;fill-opacity:1">
      <use
         height="100%"
         width="100%"
         id="use321"
         y="160.668"
         x="315.32599"
         xlink:href="#glyph4-3" />
    </g>
    <g
       id="g327"
       style="fill:#000000;fill-opacity:1">
      <use
         height="100%"
         width="100%"
         id="use325"
         y="163.657"
         x="315.32599"
         xlink:href="#glyph4-5" />
    </g>
    <g
       id="g331"
       style="fill:#000000;fill-opacity:1">
      <use
         height="100%"
         width="100%"
         id="use329"
         y="151.203"
         x="326.94901"
         xlink:href="#glyph3-2" />
    </g>
    <g
       id="g335"
       style="fill:#000000;fill-opacity:1">
      <use
         height="100%"
         width="100%"
         id="use333"
         y="151.203"
         x="345.83401"
         xlink:href="#glyph0-1" />
    </g>
    <g
       id="g339"
       style="fill:#000000;fill-opacity:1">
      <use
         height="100%"
         width="100%"
         id="use337"
         y="152.698"
         x="351.52802"
         xlink:href="#glyph1-5" />
    </g>
    <g
       id="g343"
       style="fill:#000000;fill-opacity:1">
      <use
         height="100%"
         width="100%"
         id="use341"
         y="151.203"
         x="358.76501"
         xlink:href="#glyph2-1" />
    </g>
    <g
       id="g347"
       style="fill:#000000;fill-opacity:1">
      <use
         height="100%"
         width="100%"
         id="use345"
         y="144.463"
         x="370.47601"
         xlink:href="#glyph2-9" />
    </g>
    <path
       id="path349"
       transform="matrix(1,0,0,-1,72,72)"
       d="m 298.47656,-76.714844 h 4.98047"
       style="fill:none;stroke:#000000;stroke-width:0.3985;stroke-linecap:butt;stroke-linejoin:miter;stroke-miterlimit:10;stroke-opacity:1" />
    <g
       id="g353"
       style="fill:#000000;fill-opacity:1">
      <use
         height="100%"
         width="100%"
         id="use351"
         y="158.037"
         x="370.47601"
         xlink:href="#glyph2-6" />
    </g>
    <g
       id="g357"
       style="fill:#000000;fill-opacity:1">
      <use
         height="100%"
         width="100%"
         id="use355"
         y="151.203"
         x="378.867"
         xlink:href="#glyph3-1" />
    </g>
    <g
       id="g361"
       style="fill:#000000;fill-opacity:1">
      <use
         height="100%"
         width="100%"
         id="use359"
         y="151.203"
         x="388.82999"
         xlink:href="#glyph0-2" />
    </g>
    <g
       id="g365"
       style="fill:#000000;fill-opacity:1">
      <use
         height="100%"
         width="100%"
         id="use363"
         y="151.203"
         x="397.453"
         xlink:href="#glyph3-1" />
    </g>
    <g
       id="g369"
       style="fill:#000000;fill-opacity:1">
      <use
         height="100%"
         width="100%"
         id="use367"
         y="144.463"
         x="408.612"
         xlink:href="#glyph2-5" />
    </g>
    <path
       id="path371"
       transform="matrix(1,0,0,-1,72,72)"
       d="m 336.61328,-76.714844 h 4.98047"
       style="fill:none;stroke:#000000;stroke-width:0.3985;stroke-linecap:butt;stroke-linejoin:miter;stroke-miterlimit:10;stroke-opacity:1" />
    <g
       id="g375"
       style="fill:#000000;fill-opacity:1">
      <use
         height="100%"
         width="100%"
         id="use373"
         y="158.037"
         x="408.612"
         xlink:href="#glyph2-8" />
    </g>
    <g
       id="g379"
       style="fill:#000000;fill-opacity:1">
      <use
         height="100%"
         width="100%"
         id="use377"
         y="151.203"
         x="414.78799"
         xlink:href="#glyph0-4" />
    </g>
    <path
       id="path381"
       transform="matrix(1,0,0,-1,72,72)"
       d="m 270.44531,-62.855469 h 81.89063"
       style="fill:none;stroke:#000000;stroke-width:0.3985;stroke-linecap:butt;stroke-linejoin:miter;stroke-miterlimit:10;stroke-opacity:1" />
    <path
       id="path383"
       transform="matrix(1,0,0,-1,72,72)"
       d="m 270.64453,-89.226562 v 26.371093"
       style="fill:none;stroke:#000000;stroke-width:0.3985;stroke-linecap:butt;stroke-linejoin:miter;stroke-miterlimit:10;stroke-opacity:1" />
    <path
       id="path385"
       transform="matrix(1,0,0,-1,72,72)"
       d="m 352.13672,-89.226562 v 26.371093"
       style="fill:none;stroke:#000000;stroke-width:0.3985;stroke-linecap:butt;stroke-linejoin:miter;stroke-miterlimit:10;stroke-opacity:1" />
    <path
       id="path387"
       transform="matrix(1,0,0,-1,72,72)"
       d="m 270.44531,-89.226562 h 81.89063"
       style="fill:none;stroke:#000000;stroke-width:0.3985;stroke-linecap:butt;stroke-linejoin:miter;stroke-miterlimit:10;stroke-opacity:1" />
    <g
       id="g391"
       style="fill:#000000;fill-opacity:1">
      <use
         height="100%"
         width="100%"
         id="use389"
         y="184.97701"
         x="326.67499"
         xlink:href="#glyph0-1" />
    </g>
    <g
       id="g395"
       style="fill:#000000;fill-opacity:1">
      <use
         height="100%"
         width="100%"
         id="use393"
         y="186.47099"
         x="332.36899"
         xlink:href="#glyph1-4" />
    </g>
    <g
       id="g399"
       style="fill:#000000;fill-opacity:1">
      <use
         height="100%"
         width="100%"
         id="use397"
         y="184.97701"
         x="339.60599"
         xlink:href="#glyph2-1" />
    </g>
    <g
       id="g403"
       style="fill:#000000;fill-opacity:1">
      <use
         height="100%"
         width="100%"
         id="use401"
         y="184.97701"
         x="350.11456"
         xlink:href="#glyph2-6" />
    </g>
    <g
       id="g407"
       style="fill:#000000;fill-opacity:1">
      <use
         height="100%"
         width="100%"
         id="use405"
         y="184.97701"
         x="357.31699"
         xlink:href="#glyph3-1" />
    </g>
    <g
       id="g411"
       style="fill:#000000;fill-opacity:1">
      <use
         height="100%"
         width="100%"
         id="use409"
         y="184.97701"
         x="367.28"
         xlink:href="#glyph0-1" />
    </g>
    <g
       id="g415"
       style="fill:#000000;fill-opacity:1">
      <use
         height="100%"
         width="100%"
         id="use413"
         y="186.47099"
         x="372.974"
         xlink:href="#glyph1-5" />
    </g>
    <g
       id="g419"
       style="fill:#000000;fill-opacity:1">
      <use
         height="100%"
         width="100%"
         id="use417"
         y="184.97701"
         x="379.65701"
         xlink:href="#glyph2-10" />
    </g>
    <g
       id="g423"
       style="fill:#000000;fill-opacity:1">
      <use
         height="100%"
         width="100%"
         id="use421"
         y="184.97701"
         x="389.62"
         xlink:href="#glyph0-1" />
    </g>
    <g
       id="g427"
       style="fill:#000000;fill-opacity:1">
      <use
         height="100%"
         width="100%"
         id="use425"
         y="186.47099"
         x="395.314"
         xlink:href="#glyph1-1" />
    </g>
    <g
       id="g431"
       style="fill:#000000;fill-opacity:1">
      <use
         height="100%"
         width="100%"
         id="use429"
         y="184.97701"
         x="401.99701"
         xlink:href="#glyph3-1" />
    </g>
    <g
       id="g435"
       style="fill:#000000;fill-opacity:1">
      <use
         height="100%"
         width="100%"
         id="use433"
         y="184.97701"
         x="411.95901"
         xlink:href="#glyph2-6" />
    </g>
    <g
       id="g439"
       style="fill:#000000;fill-opacity:1">
      <use
         height="100%"
         width="100%"
         id="use437"
         y="184.97701"
         x="416.94101"
         xlink:href="#glyph0-1" />
    </g>
    <g
       id="g443"
       style="fill:#000000;fill-opacity:1">
      <use
         height="100%"
         width="100%"
         id="use441"
         y="186.47099"
         x="422.63501"
         xlink:href="#glyph1-3" />
    </g>
    <g
       id="g447"
       style="fill:#000000;fill-opacity:1">
      <use
         height="100%"
         width="100%"
         id="use445"
         y="126.794"
         x="427.104"
         xlink:href="#glyph4-2" />
    </g>
    <g
       id="g451"
       style="fill:#000000;fill-opacity:1">
      <use
         height="100%"
         width="100%"
         id="use449"
         y="135.761"
         x="427.104"
         xlink:href="#glyph4-3" />
    </g>
    <g
       id="g455"
       style="fill:#000000;fill-opacity:1">
      <use
         height="100%"
         width="100%"
         id="use453"
         y="138.75"
         x="427.104"
         xlink:href="#glyph4-3" />
    </g>
    <g
       id="g459"
       style="fill:#000000;fill-opacity:1">
      <use
         height="100%"
         width="100%"
         id="use457"
         y="141.739"
         x="427.104"
         xlink:href="#glyph4-3" />
    </g>
    <g
       id="g463"
       style="fill:#000000;fill-opacity:1">
      <use
         height="100%"
         width="100%"
         id="use461"
         y="144.72701"
         x="427.104"
         xlink:href="#glyph4-3" />
    </g>
    <g
       id="g467"
       style="fill:#000000;fill-opacity:1">
      <use
         height="100%"
         width="100%"
         id="use465"
         y="147.716"
         x="427.104"
         xlink:href="#glyph4-4" />
    </g>
    <g
       id="g471"
       style="fill:#000000;fill-opacity:1">
      <use
         height="100%"
         width="100%"
         id="use469"
         y="165.649"
         x="427.104"
         xlink:href="#glyph4-3" />
    </g>
    <g
       id="g475"
       style="fill:#000000;fill-opacity:1">
      <use
         height="100%"
         width="100%"
         id="use473"
         y="168.638"
         x="427.104"
         xlink:href="#glyph4-3" />
    </g>
    <g
       id="g479"
       style="fill:#000000;fill-opacity:1">
      <use
         height="100%"
         width="100%"
         id="use477"
         y="171.627"
         x="427.104"
         xlink:href="#glyph4-3" />
    </g>
    <g
       id="g483"
       style="fill:#000000;fill-opacity:1">
      <use
         height="100%"
         width="100%"
         id="use481"
         y="174.616"
         x="427.104"
         xlink:href="#glyph4-3" />
    </g>
    <g
       id="g487"
       style="fill:#000000;fill-opacity:1">
      <use
         height="100%"
         width="100%"
         id="use485"
         y="177.604"
         x="427.104"
         xlink:href="#glyph4-5" />
    </g>
    <g
       id="g491"
       style="fill:#000000;fill-opacity:1">
      <use
         height="100%"
         width="100%"
         id="use489"
         y="159.173"
         x="438.72699"
         xlink:href="#glyph3-2" />
    </g>
    <g
       id="g495"
       style="fill:#000000;fill-opacity:1">
      <use
         height="100%"
         width="100%"
         id="use493"
         y="159.173"
         x="457.612"
         xlink:href="#glyph0-1" />
    </g>
    <g
       id="g499"
       style="fill:#000000;fill-opacity:1">
      <use
         height="100%"
         width="100%"
         id="use497"
         y="160.668"
         x="463.306"
         xlink:href="#glyph1-4" />
    </g>
    <g
       id="g503"
       style="fill:#000000;fill-opacity:1">
      <use
         height="100%"
         width="100%"
         id="use501"
         y="159.173"
         x="470.54199"
         xlink:href="#glyph2-1" />
    </g>
    <g
       id="g507"
       style="fill:#000000;fill-opacity:1">
      <use
         height="100%"
         width="100%"
         id="use505"
         y="159.173"
         x="481.05801"
         xlink:href="#glyph3-1" />
    </g>
    <g
       id="g511"
       style="fill:#000000;fill-opacity:1">
      <use
         height="100%"
         width="100%"
         id="use509"
         y="152.43401"
         x="490.00299"
         xlink:href="#glyph2-11" />
    </g>
    <path
       id="path513"
       transform="matrix(1,0,0,-1,72,72)"
       d="m 418.00391,-84.683594 h 4.98046"
       style="fill:none;stroke:#000000;stroke-width:0.3985;stroke-linecap:butt;stroke-linejoin:miter;stroke-miterlimit:10;stroke-opacity:1" />
    <g
       id="g517"
       style="fill:#000000;fill-opacity:1">
      <use
         height="100%"
         width="100%"
         id="use515"
         y="166.007"
         x="490.00299"
         xlink:href="#glyph2-6" />
    </g>
    <g
       id="g521"
       style="fill:#000000;fill-opacity:1">
      <use
         height="100%"
         width="100%"
         id="use519"
         y="159.173"
         x="498.39301"
         xlink:href="#glyph2-10" />
    </g>
    <g
       id="g525"
       style="fill:#000000;fill-opacity:1">
      <use
         height="100%"
         width="100%"
         id="use523"
         y="159.173"
         x="508.35361"
         xlink:href="#glyph2-6" />
    </g>
    <g
       id="g529"
       style="fill:#000000;fill-opacity:1">
      <use
         height="100%"
         width="100%"
         id="use527"
         y="159.173"
         x="513.33698"
         xlink:href="#glyph0-2" />
    </g>
    <g
       id="g533"
       style="fill:#000000;fill-opacity:1">
      <use
         height="100%"
         width="100%"
         id="use531"
         y="159.173"
         x="521.961"
         xlink:href="#glyph2-10" />
    </g>
    <g
       id="g537"
       style="fill:#000000;fill-opacity:1">
      <use
         height="100%"
         width="100%"
         id="use535"
         y="152.43401"
         x="533.11902"
         xlink:href="#glyph2-9" />
    </g>
    <path
       id="path539"
       transform="matrix(1,0,0,-1,72,72)"
       d="m 461.11719,-84.683594 h 4.98437"
       style="fill:none;stroke:#000000;stroke-width:0.3985;stroke-linecap:butt;stroke-linejoin:miter;stroke-miterlimit:10;stroke-opacity:1" />
    <g
       id="g543"
       style="fill:#000000;fill-opacity:1">
      <use
         height="100%"
         width="100%"
         id="use541"
         y="166.007"
         x="533.11902"
         xlink:href="#glyph2-8" />
    </g>
    <g
       id="g547"
       style="fill:#000000;fill-opacity:1">
      <use
         height="100%"
         width="100%"
         id="use545"
         y="159.173"
         x="539.29602"
         xlink:href="#glyph0-4" />
    </g>
    <path
       id="path549"
       transform="matrix(1,0,0,-1,72,72)"
       d="m 382.22266,-70.824219 h 94.62109"
       style="fill:none;stroke:#000000;stroke-width:0.3985;stroke-linecap:butt;stroke-linejoin:miter;stroke-miterlimit:10;stroke-opacity:1" />
    <path
       id="path551"
       transform="matrix(1,0,0,-1,72,72)"
       d="m 382.42578,-97.195312 v 26.371093"
       style="fill:none;stroke:#000000;stroke-width:0.3985;stroke-linecap:butt;stroke-linejoin:miter;stroke-miterlimit:10;stroke-opacity:1" />
    <path
       id="path553"
       transform="matrix(1,0,0,-1,72,72)"
       d="m 476.64453,-97.195312 v 26.371093"
       style="fill:none;stroke:#000000;stroke-width:0.3985;stroke-linecap:butt;stroke-linejoin:miter;stroke-miterlimit:10;stroke-opacity:1" />
    <path
       id="path555"
       transform="matrix(1,0,0,-1,72,72)"
       d="m 382.22266,-97.195312 h 94.62109"
       style="fill:none;stroke:#000000;stroke-width:0.3985;stroke-linecap:butt;stroke-linejoin:miter;stroke-miterlimit:10;stroke-opacity:1" />
    <g
       id="g559"
       style="fill:#000000;fill-opacity:1">
      <use
         height="100%"
         width="100%"
         id="use557"
         y="159.173"
         x="548.84399"
         xlink:href="#glyph0-5" />
    </g>
  </g>
</svg>
