<?xml version="1.0" encoding="UTF-8" standalone="no"?>
<svg
   xmlns:dc="http://purl.org/dc/elements/1.1/"
   xmlns:cc="http://creativecommons.org/ns#"
   xmlns:rdf="http://www.w3.org/1999/02/22-rdf-syntax-ns#"
   xmlns:svg="http://www.w3.org/2000/svg"
   xmlns="http://www.w3.org/2000/svg"
   xmlns:xlink="http://www.w3.org/1999/xlink"
   id="svg453"
   version="1.1"
   viewBox="0 0 239.81163 59.765884"
   height="59.765884pt"
   width="239.81163pt">
  <metadata
     id="metadata457">
    <rdf:RDF>
      <cc:Work
         rdf:about="">
        <dc:format>image/svg+xml</dc:format>
        <dc:type
           rdf:resource="http://purl.org/dc/dcmitype/StillImage" />
      </cc:Work>
    </rdf:RDF>
  </metadata>
  <defs
     id="defs94">
    <g
       id="g92">
      <symbol
         style="overflow:visible"
         id="glyph0-0"
         overflow="visible">
        <path
           id="path2"
           d=""
           style="stroke:none" />
      </symbol>
      <symbol
         style="overflow:visible"
         id="glyph0-1"
         overflow="visible">
        <path
           id="path5"
           d="m 3.84375,-4.09375 c 0,-0.296875 -0.234375,-0.53125 -0.53125,-0.53125 -0.28125,0 -0.515625,0.234375 -0.515625,0.53125 0,0.28125 0.234375,0.53125 0.515625,0.53125 0.28125,0 0.53125,-0.234375 0.53125,-0.53125 z m 2.5,4.3125 c 0,-0.28125 -0.25,-0.53125 -0.53125,-0.53125 -0.296875,0 -0.53125,0.25 -0.53125,0.53125 0,0.296875 0.234375,0.53125 0.53125,0.53125 0.28125,0 0.53125,-0.234375 0.53125,-0.53125 z m -4.984375,0 c 0,-0.28125 -0.25,-0.53125 -0.53125,-0.53125 -0.296875,0 -0.53125,0.25 -0.53125,0.53125 0,0.296875 0.234375,0.53125 0.53125,0.53125 0.28125,0 0.53125,-0.234375 0.53125,-0.53125 z m 0,0"
           style="stroke:none" />
      </symbol>
      <symbol
         style="overflow:visible"
         id="glyph1-0"
         overflow="visible">
        <path
           id="path8"
           d=""
           style="stroke:none" />
      </symbol>
      <symbol
         style="overflow:visible"
         id="glyph1-1"
         overflow="visible">
        <path
           id="path11"
           d="M 3.734375,17.640625 C 3.953125,17.640625 4,17.640625 4,17.5 4.03125,10.515625 4.828125,4.71875 8.328125,-0.15625 c 0.0625,-0.09375 0.0625,-0.109375 0.0625,-0.140625 0,-0.09375 -0.0625,-0.09375 -0.21875,-0.09375 -0.171875,0 -0.1875,0 -0.203125,0.015625 -0.046875,0.03125 -1.3125,1.484375 -2.3125,3.5 -1.3125,2.625 -2.140625,5.640625 -2.515625,9.28125 -0.03125,0.296875 -0.234375,2.375 -0.234375,4.734375 v 0.390625 c 0,0.109375 0.0625,0.109375 0.28125,0.109375 z m 0,0"
           style="stroke:none" />
      </symbol>
      <symbol
         style="overflow:visible"
         id="glyph1-2"
         overflow="visible">
        <path
           id="path14"
           d="M 4,0.171875 C 4,-0.09375 4,-0.09375 3.734375,-0.09375 H 3.1875 c -0.28125,0 -0.28125,0 -0.28125,0.265625 V 5.8125 c 0,0.265625 0,0.265625 0.28125,0.265625 H 3.734375 C 4,6.078125 4,6.078125 4,5.8125 Z m 0,0"
           style="stroke:none" />
      </symbol>
      <symbol
         style="overflow:visible"
         id="glyph1-3"
         overflow="visible">
        <path
           id="path17"
           d="m 3.1875,-0.5 c -0.21875,0 -0.28125,0 -0.28125,0.109375 V 0 c 0,6.09375 1.078125,9.65625 1.390625,10.671875 C 4.96875,12.875 6.078125,15.21875 7.75,17.265625 7.890625,17.453125 7.9375,17.5 7.96875,17.515625 8,17.53125 8,17.53125 8.171875,17.53125 c 0.15625,0 0.21875,0 0.21875,-0.09375 0,-0.01563 0,-0.04687 -0.0625,-0.125 C 5.015625,12.703125 4.015625,7.15625 4,-0.359375 4,-0.5 3.953125,-0.5 3.734375,-0.5 Z m 0,0"
           style="stroke:none" />
      </symbol>
      <symbol
         style="overflow:visible"
         id="glyph1-4"
         overflow="visible">
        <path
           id="path20"
           d="M 5.8125,17.140625 C 5.8125,11.0625 4.71875,7.484375 4.421875,6.484375 3.734375,4.265625 2.625,1.9375 0.96875,-0.125 0.8125,-0.296875 0.78125,-0.34375 0.734375,-0.375 c -0.015625,0 -0.03125,-0.015625 -0.1875,-0.015625 -0.140625,0 -0.234375,0 -0.234375,0.09375 0,0.03125 0,0.046875 0.140625,0.234375 3.46875,4.84375 4.234375,10.8125 4.25,17.5625 0,0.140625 0.0625,0.140625 0.28125,0.140625 H 5.53125 c 0.203125,0 0.265625,0 0.28125,-0.109375 z m 0,0"
           style="stroke:none" />
      </symbol>
      <symbol
         style="overflow:visible"
         id="glyph1-5"
         overflow="visible">
        <path
           id="path23"
           d="M 5.8125,0.171875 C 5.8125,-0.09375 5.796875,-0.09375 5.53125,-0.09375 H 4.984375 c -0.265625,0 -0.28125,0 -0.28125,0.265625 V 5.8125 c 0,0.265625 0.015625,0.265625 0.28125,0.265625 H 5.53125 c 0.265625,0 0.28125,0 0.28125,-0.265625 z m 0,0"
           style="stroke:none" />
      </symbol>
      <symbol
         style="overflow:visible"
         id="glyph1-6"
         overflow="visible">
        <path
           id="path26"
           d="M 5.8125,-0.390625 C 5.796875,-0.5 5.734375,-0.5 5.53125,-0.5 H 4.984375 c -0.21875,0 -0.28125,0 -0.28125,0.140625 0,1.03125 -0.015625,3.40625 -0.265625,5.875 C 3.890625,10.671875 2.578125,14.25 0.390625,17.3125 0.3125,17.390625 0.3125,17.421875 0.3125,17.4375 c 0,0.09375 0.09375,0.09375 0.234375,0.09375 0.15625,0 0.1875,0 0.203125,-0.01563 C 0.78125,17.484375 2.046875,16.03125 3.0625,14.03125 4.375,11.390625 5.203125,8.375 5.578125,4.75 5.609375,4.4375 5.8125,2.359375 5.8125,0 Z m 0,0"
           style="stroke:none" />
      </symbol>
      <symbol
         style="overflow:visible"
         id="glyph2-0"
         overflow="visible">
        <path
           id="path29"
           d=""
           style="stroke:none" />
      </symbol>
      <symbol
         style="overflow:visible"
         id="glyph2-1"
         overflow="visible">
        <path
           id="path32"
           d="M 3.328125,-3.015625 C 3.390625,-3.265625 3.625,-4.1875 4.3125,-4.1875 c 0.046875,0 0.296875,0 0.5,0.125 C 4.53125,-4 4.34375,-3.765625 4.34375,-3.515625 c 0,0.15625 0.109375,0.34375 0.375,0.34375 0.21875,0 0.53125,-0.171875 0.53125,-0.578125 0,-0.515625 -0.578125,-0.65625 -0.921875,-0.65625 -0.578125,0 -0.921875,0.53125 -1.046875,0.75 -0.25,-0.65625 -0.78125,-0.75 -1.078125,-0.75 -1.03125,0 -1.609375,1.28125 -1.609375,1.53125 0,0.109375 0.109375,0.109375 0.125,0.109375 0.078125,0 0.109375,-0.03125 0.125,-0.109375 0.34375,-1.0625 1,-1.3125 1.34375,-1.3125 0.1875,0 0.53125,0.09375 0.53125,0.671875 0,0.3125 -0.171875,0.96875 -0.53125,2.375 -0.15625,0.609375 -0.515625,1.03125 -0.953125,1.03125 -0.0625,0 -0.28125,0 -0.5,-0.125 0.25,-0.0625 0.46875,-0.265625 0.46875,-0.546875 0,-0.265625 -0.21875,-0.34375 -0.359375,-0.34375 -0.3125,0 -0.546875,0.25 -0.546875,0.578125 0,0.453125 0.484375,0.65625 0.921875,0.65625 0.671875,0 1.03125,-0.703125 1.046875,-0.75 0.125,0.359375 0.484375,0.75 1.078125,0.75 1.03125,0 1.59375,-1.28125 1.59375,-1.53125 0,-0.109375 -0.078125,-0.109375 -0.109375,-0.109375 -0.09375,0 -0.109375,0.046875 -0.140625,0.109375 -0.328125,1.078125 -1,1.3125 -1.3125,1.3125 -0.390625,0 -0.546875,-0.3125 -0.546875,-0.65625 0,-0.21875 0.046875,-0.4375 0.15625,-0.875 z m 0,0"
           style="stroke:none" />
      </symbol>
      <symbol
         style="overflow:visible"
         id="glyph2-2"
         overflow="visible">
        <path
           id="path35"
           d="m 4.75,-2.359375 c 0,-1.5625 -0.921875,-2.046875 -1.65625,-2.046875 -1.375,0 -2.6875,1.421875 -2.6875,2.828125 0,0.9375 0.59375,1.6875 1.625,1.6875 0.625,0 1.34375,-0.234375 2.09375,-0.84375 0.125,0.53125 0.453125,0.84375 0.90625,0.84375 0.53125,0 0.84375,-0.546875 0.84375,-0.703125 0,-0.078125 -0.0625,-0.109375 -0.125,-0.109375 -0.0625,0 -0.09375,0.03125 -0.125,0.109375 -0.1875,0.484375 -0.546875,0.484375 -0.5625,0.484375 -0.3125,0 -0.3125,-0.78125 -0.3125,-1.015625 0,-0.203125 0,-0.234375 0.109375,-0.34375 C 5.796875,-2.65625 6,-3.8125 6,-3.8125 6,-3.84375 5.984375,-3.921875 5.875,-3.921875 c -0.09375,0 -0.09375,0.03125 -0.140625,0.21875 -0.1875,0.625 -0.515625,1.375 -0.984375,1.96875 z m -0.65625,1.375 c -0.890625,0.765625 -1.65625,0.875 -2.046875,0.875 -0.59375,0 -0.90625,-0.453125 -0.90625,-1.09375 0,-0.484375 0.265625,-1.5625 0.578125,-2.0625 C 2.1875,-4 2.734375,-4.1875 3.078125,-4.1875 c 0.984375,0 0.984375,1.3125 0.984375,2.078125 0,0.375 0,0.953125 0.03125,1.125 z m 0,0"
           style="stroke:none" />
      </symbol>
      <symbol
         style="overflow:visible"
         id="glyph2-3"
         overflow="visible">
        <path
           id="path38"
           d="m 5.734375,-5.671875 c 0,-0.75 -0.546875,-1.359375 -1.359375,-1.359375 -0.578125,0 -0.859375,0.15625 -1.203125,0.40625 C 2.625,-6.21875 2.078125,-5.25 1.890625,-4.5 L 0.296875,1.828125 C 0.296875,1.875 0.34375,1.9375 0.421875,1.9375 0.5,1.9375 0.53125,1.90625 0.53125,1.890625 L 1.234375,-0.875 c 0.1875,0.609375 0.625,0.96875 1.359375,0.96875 C 3.3125,0.09375 4.0625,-0.25 4.515625,-0.6875 5,-1.140625 5.3125,-1.78125 5.3125,-2.515625 c 0,-0.71875 -0.375,-1.25 -0.734375,-1.484375 0.578125,-0.34375 1.15625,-0.953125 1.15625,-1.671875 z M 3.9375,-4.015625 c -0.125,0.046875 -0.234375,0.0625 -0.484375,0.0625 -0.140625,0 -0.328125,0.015625 -0.4375,-0.03125 0.03125,-0.109375 0.390625,-0.078125 0.5,-0.078125 0.203125,0 0.296875,0 0.421875,0.046875 z M 5.171875,-5.90625 c 0,0.703125 -0.375,1.421875 -0.890625,1.734375 C 4,-4.28125 3.8125,-4.296875 3.515625,-4.296875 c -0.21875,0 -0.78125,-0.015625 -0.78125,0.3125 0,0.28125 0.515625,0.25 0.6875,0.25 0.375,0 0.53125,0 0.828125,-0.125 0.375,0.359375 0.421875,0.671875 0.4375,1.125 0.015625,0.578125 -0.21875,1.328125 -0.5,1.71875 C 3.796875,-0.484375 3.125,-0.125 2.5625,-0.125 c -0.765625,0 -1.140625,-0.578125 -1.140625,-1.28125 0,-0.09375 0,-0.25 0.046875,-0.4375 L 2.109375,-4.359375 C 2.328125,-5.21875 3.046875,-6.8125 4.25,-6.8125 c 0.578125,0 0.921875,0.3125 0.921875,0.90625 z m 0,0"
           style="stroke:none" />
      </symbol>
      <symbol
         style="overflow:visible"
         id="glyph3-0"
         overflow="visible">
        <path
           id="path41"
           d=""
           style="stroke:none" />
      </symbol>
      <symbol
         style="overflow:visible"
         id="glyph3-1"
         overflow="visible">
        <path
           id="path44"
           d="m 2.328125,-4.4375 c 0,-0.1875 0,-0.1875 -0.203125,-0.1875 -0.453125,0.4375 -1.078125,0.4375 -1.359375,0.4375 v 0.25 c 0.15625,0 0.625,0 1,-0.1875 v 3.546875 c 0,0.234375 0,0.328125 -0.6875,0.328125 H 0.8125 V 0 c 0.125,0 0.984375,-0.03125 1.234375,-0.03125 0.21875,0 1.09375,0.03125 1.25,0.03125 V -0.25 H 3.03125 c -0.703125,0 -0.703125,-0.09375 -0.703125,-0.328125 z m 0,0"
           style="stroke:none" />
      </symbol>
      <symbol
         style="overflow:visible"
         id="glyph3-2"
         overflow="visible">
        <path
           id="path47"
           d="M 3.515625,-1.265625 H 3.28125 c -0.015625,0.15625 -0.09375,0.5625 -0.1875,0.625 C 3.046875,-0.59375 2.515625,-0.59375 2.40625,-0.59375 H 1.125 c 0.734375,-0.640625 0.984375,-0.84375 1.390625,-1.171875 0.515625,-0.40625 1,-0.84375 1,-1.5 0,-0.84375 -0.734375,-1.359375 -1.625,-1.359375 -0.859375,0 -1.453125,0.609375 -1.453125,1.25 0,0.34375 0.296875,0.390625 0.375,0.390625 0.15625,0 0.359375,-0.125 0.359375,-0.375 0,-0.125 -0.046875,-0.375 -0.40625,-0.375 C 0.984375,-4.21875 1.453125,-4.375 1.78125,-4.375 c 0.703125,0 1.0625,0.546875 1.0625,1.109375 0,0.609375 -0.4375,1.078125 -0.65625,1.328125 L 0.515625,-0.265625 C 0.4375,-0.203125 0.4375,-0.1875 0.4375,0 h 2.875 z m 0,0"
           style="stroke:none" />
      </symbol>
      <symbol
         style="overflow:visible"
         id="glyph3-3"
         overflow="visible">
        <path
           id="path50"
           d="m 1.90625,-2.328125 c 0.546875,0 0.9375,0.375 0.9375,1.125 0,0.859375 -0.515625,1.125 -0.90625,1.125 -0.28125,0 -0.90625,-0.078125 -1.1875,-0.5 0.328125,0 0.40625,-0.234375 0.40625,-0.390625 0,-0.21875 -0.171875,-0.375 -0.390625,-0.375 -0.1875,0 -0.390625,0.125 -0.390625,0.40625 0,0.65625 0.71875,1.078125 1.5625,1.078125 0.96875,0 1.640625,-0.65625 1.640625,-1.34375 0,-0.546875 -0.4375,-1.09375 -1.203125,-1.25 0.71875,-0.265625 0.984375,-0.78125 0.984375,-1.21875 0,-0.546875 -0.625,-0.953125 -1.40625,-0.953125 -0.765625,0 -1.359375,0.375 -1.359375,0.9375 0,0.234375 0.15625,0.359375 0.359375,0.359375 0.21875,0 0.359375,-0.15625 0.359375,-0.34375 0,-0.203125 -0.140625,-0.359375 -0.359375,-0.375 0.25,-0.296875 0.71875,-0.375 0.984375,-0.375 0.3125,0 0.75,0.15625 0.75,0.75 0,0.296875 -0.09375,0.625 -0.28125,0.828125 -0.21875,0.265625 -0.421875,0.28125 -0.765625,0.3125 -0.171875,0.015625 -0.1875,0.015625 -0.21875,0.015625 -0.015625,0 -0.078125,0.015625 -0.078125,0.09375 0,0.09375 0.0625,0.09375 0.1875,0.09375 z m 0,0"
           style="stroke:none" />
      </symbol>
      <symbol
         style="overflow:visible"
         id="glyph3-4"
         overflow="visible">
        <path
           id="path53"
           d="m 3.6875,-1.140625 v -0.25 H 2.90625 V -4.5 c 0,-0.140625 0,-0.203125 -0.140625,-0.203125 -0.09375,0 -0.125,0 -0.1875,0.109375 l -2.3125,3.203125 v 0.25 h 2.0625 v 0.5625 c 0,0.25 0,0.328125 -0.578125,0.328125 H 1.5625 V 0 C 1.921875,-0.015625 2.359375,-0.03125 2.609375,-0.03125 2.875,-0.03125 3.3125,-0.015625 3.671875,0 v -0.25 h -0.1875 C 2.90625,-0.25 2.90625,-0.328125 2.90625,-0.578125 v -0.5625 z M 2.375,-3.9375 v 2.546875 H 0.53125 Z m 0,0"
           style="stroke:none" />
      </symbol>
      <symbol
         style="overflow:visible"
         id="glyph3-5"
         overflow="visible">
        <path
           id="path56"
           d="m 1.078125,-3.890625 c 0.359375,0.09375 0.5625,0.09375 0.671875,0.09375 0.921875,0 1.46875,-0.625 1.46875,-0.734375 0,-0.078125 -0.046875,-0.09375 -0.078125,-0.09375 -0.015625,0 -0.03125,0 -0.0625,0.015625 -0.171875,0.0625 -0.53125,0.203125 -1.046875,0.203125 -0.203125,0 -0.5625,-0.015625 -1.015625,-0.1875 C 0.9375,-4.625 0.921875,-4.625 0.921875,-4.625 c -0.09375,0 -0.09375,0.078125 -0.09375,0.1875 v 2.046875 c 0,0.125 0,0.203125 0.109375,0.203125 0.0625,0 0.078125,0 0.140625,-0.09375 0.296875,-0.375 0.734375,-0.4375 0.96875,-0.4375 0.421875,0 0.609375,0.328125 0.640625,0.390625 0.125,0.234375 0.171875,0.5 0.171875,0.90625 0,0.203125 0,0.609375 -0.21875,0.921875 -0.171875,0.25 -0.46875,0.421875 -0.8125,0.421875 -0.453125,0 -0.921875,-0.25 -1.09375,-0.71875 0.265625,0.015625 0.40625,-0.15625 0.40625,-0.34375 0,-0.296875 -0.265625,-0.34375 -0.359375,-0.34375 0,0 -0.34375,0 -0.34375,0.375 0,0.625 0.578125,1.25 1.40625,1.25 0.890625,0 1.671875,-0.65625 1.671875,-1.546875 0,-0.78125 -0.59375,-1.5 -1.453125,-1.5 -0.3125,0 -0.671875,0.0625 -0.984375,0.328125 z m 0,0"
           style="stroke:none" />
      </symbol>
      <symbol
         style="overflow:visible"
         id="glyph4-0"
         overflow="visible">
        <path
           id="path59"
           d=""
           style="stroke:none" />
      </symbol>
      <symbol
         style="overflow:visible"
         id="glyph4-1"
         overflow="visible">
        <path
           id="path62"
           d="m 6.84375,-3.265625 c 0.15625,0 0.34375,0 0.34375,-0.1875 C 7.1875,-3.65625 7,-3.65625 6.859375,-3.65625 h -5.96875 c -0.140625,0 -0.328125,0 -0.328125,0.203125 0,0.1875 0.1875,0.1875 0.328125,0.1875 z m 0.015625,1.9375 c 0.140625,0 0.328125,0 0.328125,-0.203125 0,-0.1875 -0.1875,-0.1875 -0.34375,-0.1875 H 0.890625 c -0.140625,0 -0.328125,0 -0.328125,0.1875 0,0.203125 0.1875,0.203125 0.328125,0.203125 z m 0,0"
           style="stroke:none" />
      </symbol>
      <symbol
         style="overflow:visible"
         id="glyph4-2"
         overflow="visible">
        <path
           id="path65"
           d="m 2.9375,-6.375 c 0,-0.25 0,-0.265625 -0.234375,-0.265625 C 2.078125,-6 1.203125,-6 0.890625,-6 v 0.3125 c 0.203125,0 0.78125,0 1.296875,-0.265625 v 5.171875 c 0,0.359375 -0.03125,0.46875 -0.921875,0.46875 h -0.3125 V 0 c 0.34375,-0.03125 1.203125,-0.03125 1.609375,-0.03125 0.390625,0 1.265625,0 1.609375,0.03125 v -0.3125 h -0.3125 c -0.90625,0 -0.921875,-0.109375 -0.921875,-0.46875 z m 0,0"
           style="stroke:none" />
      </symbol>
      <symbol
         style="overflow:visible"
         id="glyph4-3"
         overflow="visible">
        <path
           id="path68"
           d="m 2.890625,-3.515625 c 0.8125,-0.265625 1.390625,-0.953125 1.390625,-1.75 0,-0.8125 -0.875,-1.375 -1.828125,-1.375 -1,0 -1.765625,0.59375 -1.765625,1.359375 0,0.328125 0.21875,0.515625 0.515625,0.515625 0.296875,0 0.5,-0.21875 0.5,-0.515625 0,-0.484375 -0.46875,-0.484375 -0.609375,-0.484375 0.296875,-0.5 0.953125,-0.625 1.3125,-0.625 0.421875,0 0.96875,0.21875 0.96875,1.109375 0,0.125 -0.03125,0.703125 -0.28125,1.140625 C 2.796875,-3.65625 2.453125,-3.625 2.203125,-3.625 2.125,-3.609375 1.890625,-3.59375 1.8125,-3.59375 c -0.078125,0.015625 -0.140625,0.03125 -0.140625,0.125 0,0.109375 0.0625,0.109375 0.234375,0.109375 h 0.4375 c 0.8125,0 1.1875,0.671875 1.1875,1.65625 0,1.359375 -0.6875,1.640625 -1.125,1.640625 -0.4375,0 -1.1875,-0.171875 -1.53125,-0.75 0.34375,0.046875 0.65625,-0.171875 0.65625,-0.546875 0,-0.359375 -0.265625,-0.5625 -0.546875,-0.5625 -0.25,0 -0.5625,0.140625 -0.5625,0.578125 0,0.90625 0.921875,1.5625 2.015625,1.5625 1.21875,0 2.125,-0.90625 2.125,-1.921875 0,-0.8125 -0.640625,-1.59375 -1.671875,-1.8125 z m 0,0"
           style="stroke:none" />
      </symbol>
      <symbol
         style="overflow:visible"
         id="glyph4-4"
         overflow="visible">
        <path
           id="path71"
           d="m 4.578125,-3.1875 c 0,-0.796875 -0.046875,-1.59375 -0.390625,-2.328125 -0.453125,-0.96875 -1.28125,-1.125 -1.6875,-1.125 -0.609375,0 -1.328125,0.265625 -1.75,1.1875 -0.3125,0.6875 -0.359375,1.46875 -0.359375,2.265625 0,0.75 0.03125,1.640625 0.453125,2.40625 0.421875,0.796875 1.15625,1 1.640625,1 0.53125,0 1.296875,-0.203125 1.734375,-1.15625 0.3125,-0.6875 0.359375,-1.46875 0.359375,-2.25 z M 2.484375,0 C 2.09375,0 1.5,-0.25 1.328125,-1.203125 1.21875,-1.796875 1.21875,-2.71875 1.21875,-3.3125 c 0,-0.640625 0,-1.296875 0.078125,-1.828125 0.1875,-1.1875 0.9375,-1.28125 1.1875,-1.28125 0.328125,0 0.984375,0.1875 1.171875,1.171875 0.109375,0.5625 0.109375,1.3125 0.109375,1.9375 0,0.75 0,1.421875 -0.109375,2.0625 C 3.5,-0.296875 2.9375,0 2.484375,0 Z m 0,0"
           style="stroke:none" />
      </symbol>
      <symbol
         style="overflow:visible"
         id="glyph4-5"
         overflow="visible">
        <path
           id="path74"
           d="m 4.46875,-2 c 0,-1.1875 -0.8125,-2.1875 -1.890625,-2.1875 -0.46875,0 -0.90625,0.15625 -1.265625,0.515625 V -5.625 c 0.203125,0.0625 0.53125,0.125 0.84375,0.125 1.234375,0 1.9375,-0.90625 1.9375,-1.03125 0,-0.0625 -0.03125,-0.109375 -0.109375,-0.109375 0,0 -0.03125,0 -0.078125,0.03125 C 3.703125,-6.515625 3.21875,-6.3125 2.546875,-6.3125 2.15625,-6.3125 1.6875,-6.390625 1.21875,-6.59375 1.140625,-6.625 1.125,-6.625 1.109375,-6.625 1,-6.625 1,-6.546875 1,-6.390625 V -3.4375 c 0,0.171875 0,0.25 0.140625,0.25 0.078125,0 0.09375,-0.015625 0.140625,-0.078125 C 1.390625,-3.421875 1.75,-3.96875 2.5625,-3.96875 c 0.515625,0 0.765625,0.453125 0.84375,0.640625 0.15625,0.375 0.1875,0.75 0.1875,1.25 0,0.359375 0,0.953125 -0.25,1.375 C 3.109375,-0.3125 2.734375,-0.0625 2.28125,-0.0625 c -0.71875,0 -1.296875,-0.53125 -1.46875,-1.109375 0.03125,0 0.0625,0.015625 0.171875,0.015625 0.328125,0 0.5,-0.25 0.5,-0.484375 0,-0.25 -0.171875,-0.5 -0.5,-0.5 C 0.84375,-2.140625 0.5,-2.0625 0.5,-1.609375 0.5,-0.75 1.1875,0.21875 2.296875,0.21875 3.453125,0.21875 4.46875,-0.734375 4.46875,-2 Z m 0,0"
           style="stroke:none" />
      </symbol>
      <symbol
         style="overflow:visible"
         id="glyph4-6"
         overflow="visible">
        <path
           id="path77"
           d="m 4.078125,-2.296875 h 2.78125 C 7,-2.296875 7.1875,-2.296875 7.1875,-2.5 7.1875,-2.6875 7,-2.6875 6.859375,-2.6875 h -2.78125 v -2.796875 c 0,-0.140625 0,-0.328125 -0.203125,-0.328125 -0.203125,0 -0.203125,0.1875 -0.203125,0.328125 V -2.6875 h -2.78125 c -0.140625,0 -0.328125,0 -0.328125,0.1875 0,0.203125 0.1875,0.203125 0.328125,0.203125 h 2.78125 V 0.5 c 0,0.140625 0,0.328125 0.203125,0.328125 0.203125,0 0.203125,-0.1875 0.203125,-0.328125 z m 0,0"
           style="stroke:none" />
      </symbol>
      <symbol
         style="overflow:visible"
         id="glyph4-7"
         overflow="visible">
        <path
           id="path80"
           d="m 1.265625,-0.765625 1.0625,-1.03125 c 1.546875,-1.375 2.140625,-1.90625 2.140625,-2.90625 0,-1.140625 -0.890625,-1.9375 -2.109375,-1.9375 -1.125,0 -1.859375,0.921875 -1.859375,1.8125 0,0.546875 0.5,0.546875 0.53125,0.546875 0.171875,0 0.515625,-0.109375 0.515625,-0.53125 0,-0.25 -0.1875,-0.515625 -0.53125,-0.515625 -0.078125,0 -0.09375,0 -0.125,0.015625 0.21875,-0.65625 0.765625,-1.015625 1.34375,-1.015625 0.90625,0 1.328125,0.8125 1.328125,1.625 C 3.5625,-3.90625 3.078125,-3.125 2.515625,-2.5 l -1.90625,2.125 C 0.5,-0.265625 0.5,-0.234375 0.5,0 H 4.203125 L 4.46875,-1.734375 H 4.234375 C 4.171875,-1.4375 4.109375,-1 4,-0.84375 3.9375,-0.765625 3.28125,-0.765625 3.0625,-0.765625 Z m 0,0"
           style="stroke:none" />
      </symbol>
      <symbol
         style="overflow:visible"
         id="glyph4-8"
         overflow="visible">
        <path
           id="path83"
           d="m 2.9375,-1.640625 v 0.859375 c 0,0.359375 -0.03125,0.46875 -0.765625,0.46875 H 1.96875 V 0 C 2.375,-0.03125 2.890625,-0.03125 3.3125,-0.03125 c 0.421875,0 0.9375,0 1.359375,0.03125 v -0.3125 h -0.21875 c -0.734375,0 -0.75,-0.109375 -0.75,-0.46875 V -1.640625 H 4.6875 v -0.3125 H 3.703125 v -4.53125 c 0,-0.203125 0,-0.265625 -0.171875,-0.265625 -0.078125,0 -0.109375,0 -0.1875,0.125 l -3.0625,4.671875 v 0.3125 z m 0.046875,-0.3125 H 0.5625 l 2.421875,-3.71875 z m 0,0"
           style="stroke:none" />
      </symbol>
      <symbol
         style="overflow:visible"
         id="glyph5-0"
         overflow="visible">
        <path
           id="path86"
           d=""
           style="stroke:none" />
      </symbol>
      <symbol
         style="overflow:visible"
         id="glyph5-1"
         overflow="visible">
        <path
           id="path89"
           d="m 6.5625,-2.296875 c 0.171875,0 0.359375,0 0.359375,-0.203125 0,-0.1875 -0.1875,-0.1875 -0.359375,-0.1875 H 1.171875 c -0.171875,0 -0.34375,0 -0.34375,0.1875 0,0.203125 0.171875,0.203125 0.34375,0.203125 z m 0,0"
           style="stroke:none" />
      </symbol>
    </g>
  </defs>
  <g
     transform="translate(-151.77687,-124.80937)"
     id="surface1">
    <g
       id="g98"
       style="fill:#000000;fill-opacity:1">
      <use
         height="100%"
         width="100%"
         id="use96"
         y="157.181"
         x="151.48"
         xlink:href="#glyph0-1" />
    </g>
    <g
       id="g102"
       style="fill:#000000;fill-opacity:1">
      <use
         height="100%"
         width="100%"
         id="use100"
         y="125.2"
         x="163.65601"
         xlink:href="#glyph1-1" />
    </g>
    <g
       id="g106"
       style="fill:#000000;fill-opacity:1">
      <use
         height="100%"
         width="100%"
         id="use104"
         y="142.735"
         x="163.65601"
         xlink:href="#glyph1-2" />
    </g>
    <g
       id="g110"
       style="fill:#000000;fill-opacity:1">
      <use
         height="100%"
         width="100%"
         id="use108"
         y="148.713"
         x="163.65601"
         xlink:href="#glyph1-2" />
    </g>
    <g
       id="g114"
       style="fill:#000000;fill-opacity:1">
      <use
         height="100%"
         width="100%"
         id="use112"
         y="154.69"
         x="163.65601"
         xlink:href="#glyph1-2" />
    </g>
    <g
       id="g118"
       style="fill:#000000;fill-opacity:1">
      <use
         height="100%"
         width="100%"
         id="use116"
         y="160.668"
         x="163.65601"
         xlink:href="#glyph1-2" />
    </g>
    <g
       id="g122"
       style="fill:#000000;fill-opacity:1">
      <use
         height="100%"
         width="100%"
         id="use120"
         y="167.04401"
         x="163.65601"
         xlink:href="#glyph1-3" />
    </g>
    <g
       id="g126"
       style="fill:#000000;fill-opacity:1">
      <use
         height="100%"
         width="100%"
         id="use124"
         y="133.17101"
         x="177.355"
         xlink:href="#glyph2-1" />
    </g>
    <g
       id="g130"
       style="fill:#000000;fill-opacity:1">
      <use
         height="100%"
         width="100%"
         id="use128"
         y="134.66499"
         x="183.049"
         xlink:href="#glyph3-1" />
    </g>
    <g
       id="g134"
       style="fill:#000000;fill-opacity:1">
      <use
         height="100%"
         width="100%"
         id="use132"
         y="145.12601"
         x="177.355"
         xlink:href="#glyph2-1" />
    </g>
    <g
       id="g138"
       style="fill:#000000;fill-opacity:1">
      <use
         height="100%"
         width="100%"
         id="use136"
         y="146.62"
         x="183.049"
         xlink:href="#glyph3-2" />
    </g>
    <g
       id="g142"
       style="fill:#000000;fill-opacity:1">
      <use
         height="100%"
         width="100%"
         id="use140"
         y="157.08099"
         x="177.355"
         xlink:href="#glyph2-1" />
    </g>
    <g
       id="g146"
       style="fill:#000000;fill-opacity:1">
      <use
         height="100%"
         width="100%"
         id="use144"
         y="158.576"
         x="183.049"
         xlink:href="#glyph3-3" />
    </g>
    <g
       id="g150"
       style="fill:#000000;fill-opacity:1">
      <use
         height="100%"
         width="100%"
         id="use148"
         y="169.036"
         x="177.355"
         xlink:href="#glyph2-1" />
    </g>
    <g
       id="g154"
       style="fill:#000000;fill-opacity:1">
      <use
         height="100%"
         width="100%"
         id="use152"
         y="170.53101"
         x="183.049"
         xlink:href="#glyph3-4" />
    </g>
    <g
       id="g158"
       style="fill:#000000;fill-opacity:1">
      <use
         height="100%"
         width="100%"
         id="use156"
         y="180.992"
         x="177.355"
         xlink:href="#glyph2-1" />
    </g>
    <g
       id="g162"
       style="fill:#000000;fill-opacity:1">
      <use
         height="100%"
         width="100%"
         id="use160"
         y="182.48599"
         x="183.049"
         xlink:href="#glyph3-5" />
    </g>
    <g
       id="g166"
       style="fill:#000000;fill-opacity:1">
      <use
         height="100%"
         width="100%"
         id="use164"
         y="125.2"
         x="192.49899"
         xlink:href="#glyph1-4" />
    </g>
    <g
       id="g170"
       style="fill:#000000;fill-opacity:1">
      <use
         height="100%"
         width="100%"
         id="use168"
         y="142.735"
         x="192.49899"
         xlink:href="#glyph1-5" />
    </g>
    <g
       id="g174"
       style="fill:#000000;fill-opacity:1">
      <use
         height="100%"
         width="100%"
         id="use172"
         y="148.713"
         x="192.49899"
         xlink:href="#glyph1-5" />
    </g>
    <g
       id="g178"
       style="fill:#000000;fill-opacity:1">
      <use
         height="100%"
         width="100%"
         id="use176"
         y="154.69"
         x="192.49899"
         xlink:href="#glyph1-5" />
    </g>
    <g
       id="g182"
       style="fill:#000000;fill-opacity:1">
      <use
         height="100%"
         width="100%"
         id="use180"
         y="160.668"
         x="192.49899"
         xlink:href="#glyph1-5" />
    </g>
    <g
       id="g186"
       style="fill:#000000;fill-opacity:1">
      <use
         height="100%"
         width="100%"
         id="use184"
         y="167.04401"
         x="192.49899"
         xlink:href="#glyph1-6" />
    </g>
    <g
       id="g190"
       style="fill:#000000;fill-opacity:1">
      <use
         height="100%"
         width="100%"
         id="use188"
         y="157.181"
         x="203.98399"
         xlink:href="#glyph4-1" />
    </g>
    <g
       id="g194"
       style="fill:#000000;fill-opacity:1">
      <use
         height="100%"
         width="100%"
         id="use192"
         y="153.258"
         x="215.696"
         xlink:href="#glyph3-1" />
    </g>
    <path
       id="path196"
       transform="matrix(1,0,0,-1,72,72)"
       d="m 143.69531,-82.691406 h 3.97266"
       style="fill:none;stroke:#000000;stroke-width:0.3985;stroke-linecap:butt;stroke-linejoin:miter;stroke-miterlimit:10;stroke-opacity:1" />
    <g
       id="g200"
       style="fill:#000000;fill-opacity:1">
      <use
         height="100%"
         width="100%"
         id="use198"
         y="160.616"
         x="215.696"
         xlink:href="#glyph3-4" />
    </g>
    <g
       id="g204"
       style="fill:#000000;fill-opacity:1">
      <use
         height="100%"
         width="100%"
         id="use202"
         y="125.2"
         x="222.52299"
         xlink:href="#glyph1-1" />
    </g>
    <g
       id="g208"
       style="fill:#000000;fill-opacity:1">
      <use
         height="100%"
         width="100%"
         id="use206"
         y="142.735"
         x="222.52299"
         xlink:href="#glyph1-2" />
    </g>
    <g
       id="g212"
       style="fill:#000000;fill-opacity:1">
      <use
         height="100%"
         width="100%"
         id="use210"
         y="148.713"
         x="222.52299"
         xlink:href="#glyph1-2" />
    </g>
    <g
       id="g216"
       style="fill:#000000;fill-opacity:1">
      <use
         height="100%"
         width="100%"
         id="use214"
         y="154.69"
         x="222.52299"
         xlink:href="#glyph1-2" />
    </g>
    <g
       id="g220"
       style="fill:#000000;fill-opacity:1">
      <use
         height="100%"
         width="100%"
         id="use218"
         y="160.668"
         x="222.52299"
         xlink:href="#glyph1-2" />
    </g>
    <g
       id="g224"
       style="fill:#000000;fill-opacity:1">
      <use
         height="100%"
         width="100%"
         id="use222"
         y="167.04401"
         x="222.52299"
         xlink:href="#glyph1-3" />
    </g>
    <g
       id="g228"
       style="fill:#000000;fill-opacity:1">
      <use
         height="100%"
         width="100%"
         id="use226"
         y="133.17101"
         x="236.22099"
         xlink:href="#glyph5-1" />
    </g>
    <g
       id="g234"
       style="fill:#000000;fill-opacity:1">
      <use
         height="100%"
         width="100%"
         id="use230"
         y="133.17101"
         x="243.97"
         xlink:href="#glyph4-2" />
      <use
         height="100%"
         width="100%"
         id="use232"
         y="133.17101"
         x="248.95129"
         xlink:href="#glyph4-3" />
    </g>
    <g
       id="g240"
       style="fill:#000000;fill-opacity:1">
      <use
         height="100%"
         width="100%"
         id="use236"
         y="145.12601"
         x="243.97"
         xlink:href="#glyph4-2" />
      <use
         height="100%"
         width="100%"
         id="use238"
         y="145.12601"
         x="248.95129"
         xlink:href="#glyph4-2" />
    </g>
    <g
       id="g244"
       style="fill:#000000;fill-opacity:1">
      <use
         height="100%"
         width="100%"
         id="use242"
         y="157.08099"
         x="248.952"
         xlink:href="#glyph4-4" />
    </g>
    <g
       id="g248"
       style="fill:#000000;fill-opacity:1">
      <use
         height="100%"
         width="100%"
         id="use246"
         y="169.036"
         x="248.951"
         xlink:href="#glyph4-5" />
    </g>
    <g
       id="g252"
       style="fill:#000000;fill-opacity:1">
      <use
         height="100%"
         width="100%"
         id="use250"
         y="180.992"
         x="248.952"
         xlink:href="#glyph4-4" />
    </g>
    <g
       id="g256"
       style="fill:#000000;fill-opacity:1">
      <use
         height="100%"
         width="100%"
         id="use254"
         y="125.2"
         x="258.914"
         xlink:href="#glyph1-4" />
    </g>
    <g
       id="g260"
       style="fill:#000000;fill-opacity:1">
      <use
         height="100%"
         width="100%"
         id="use258"
         y="142.735"
         x="258.914"
         xlink:href="#glyph1-5" />
    </g>
    <g
       id="g264"
       style="fill:#000000;fill-opacity:1">
      <use
         height="100%"
         width="100%"
         id="use262"
         y="148.713"
         x="258.914"
         xlink:href="#glyph1-5" />
    </g>
    <g
       id="g268"
       style="fill:#000000;fill-opacity:1">
      <use
         height="100%"
         width="100%"
         id="use266"
         y="154.69"
         x="258.914"
         xlink:href="#glyph1-5" />
    </g>
    <g
       id="g272"
       style="fill:#000000;fill-opacity:1">
      <use
         height="100%"
         width="100%"
         id="use270"
         y="160.668"
         x="258.914"
         xlink:href="#glyph1-5" />
    </g>
    <g
       id="g276"
       style="fill:#000000;fill-opacity:1">
      <use
         height="100%"
         width="100%"
         id="use274"
         y="167.04401"
         x="258.914"
         xlink:href="#glyph1-6" />
    </g>
    <g
       id="g280"
       style="fill:#000000;fill-opacity:1">
      <use
         height="100%"
         width="100%"
         id="use278"
         y="157.181"
         x="269.845"
         xlink:href="#glyph4-6" />
    </g>
    <g
       id="g284"
       style="fill:#000000;fill-opacity:1">
      <use
         height="100%"
         width="100%"
         id="use282"
         y="157.181"
         x="279.80801"
         xlink:href="#glyph2-2" />
    </g>
    <g
       id="g288"
       style="fill:#000000;fill-opacity:1">
      <use
         height="100%"
         width="100%"
         id="use286"
         y="125.2"
         x="287.87799"
         xlink:href="#glyph1-1" />
    </g>
    <g
       id="g292"
       style="fill:#000000;fill-opacity:1">
      <use
         height="100%"
         width="100%"
         id="use290"
         y="142.735"
         x="287.87799"
         xlink:href="#glyph1-2" />
    </g>
    <g
       id="g296"
       style="fill:#000000;fill-opacity:1">
      <use
         height="100%"
         width="100%"
         id="use294"
         y="148.713"
         x="287.87799"
         xlink:href="#glyph1-2" />
    </g>
    <g
       id="g300"
       style="fill:#000000;fill-opacity:1">
      <use
         height="100%"
         width="100%"
         id="use298"
         y="154.69"
         x="287.87799"
         xlink:href="#glyph1-2" />
    </g>
    <g
       id="g304"
       style="fill:#000000;fill-opacity:1">
      <use
         height="100%"
         width="100%"
         id="use302"
         y="160.668"
         x="287.87799"
         xlink:href="#glyph1-2" />
    </g>
    <g
       id="g308"
       style="fill:#000000;fill-opacity:1">
      <use
         height="100%"
         width="100%"
         id="use306"
         y="167.04401"
         x="287.87799"
         xlink:href="#glyph1-3" />
    </g>
    <g
       id="g312"
       style="fill:#000000;fill-opacity:1">
      <use
         height="100%"
         width="100%"
         id="use310"
         y="133.17101"
         x="309.32599"
         xlink:href="#glyph4-7" />
    </g>
    <g
       id="g316"
       style="fill:#000000;fill-opacity:1">
      <use
         height="100%"
         width="100%"
         id="use314"
         y="145.12601"
         x="301.577"
         xlink:href="#glyph5-1" />
    </g>
    <g
       id="g320"
       style="fill:#000000;fill-opacity:1">
      <use
         height="100%"
         width="100%"
         id="use318"
         y="145.12601"
         x="309.32599"
         xlink:href="#glyph4-2" />
    </g>
    <g
       id="g324"
       style="fill:#000000;fill-opacity:1">
      <use
         height="100%"
         width="100%"
         id="use322"
         y="157.08099"
         x="309.32599"
         xlink:href="#glyph4-2" />
    </g>
    <g
       id="g328"
       style="fill:#000000;fill-opacity:1">
      <use
         height="100%"
         width="100%"
         id="use326"
         y="169.036"
         x="309.32599"
         xlink:href="#glyph4-4" />
    </g>
    <g
       id="g332"
       style="fill:#000000;fill-opacity:1">
      <use
         height="100%"
         width="100%"
         id="use330"
         y="180.992"
         x="309.32599"
         xlink:href="#glyph4-4" />
    </g>
    <g
       id="g336"
       style="fill:#000000;fill-opacity:1">
      <use
         height="100%"
         width="100%"
         id="use334"
         y="125.2"
         x="319.28799"
         xlink:href="#glyph1-4" />
    </g>
    <g
       id="g340"
       style="fill:#000000;fill-opacity:1">
      <use
         height="100%"
         width="100%"
         id="use338"
         y="142.735"
         x="319.28799"
         xlink:href="#glyph1-5" />
    </g>
    <g
       id="g344"
       style="fill:#000000;fill-opacity:1">
      <use
         height="100%"
         width="100%"
         id="use342"
         y="148.713"
         x="319.28799"
         xlink:href="#glyph1-5" />
    </g>
    <g
       id="g348"
       style="fill:#000000;fill-opacity:1">
      <use
         height="100%"
         width="100%"
         id="use346"
         y="154.69"
         x="319.28799"
         xlink:href="#glyph1-5" />
    </g>
    <g
       id="g352"
       style="fill:#000000;fill-opacity:1">
      <use
         height="100%"
         width="100%"
         id="use350"
         y="160.668"
         x="319.28799"
         xlink:href="#glyph1-5" />
    </g>
    <g
       id="g356"
       style="fill:#000000;fill-opacity:1">
      <use
         height="100%"
         width="100%"
         id="use354"
         y="167.04401"
         x="319.28799"
         xlink:href="#glyph1-6" />
    </g>
    <g
       id="g360"
       style="fill:#000000;fill-opacity:1">
      <use
         height="100%"
         width="100%"
         id="use358"
         y="157.181"
         x="330.22"
         xlink:href="#glyph4-6" />
    </g>
    <g
       id="g364"
       style="fill:#000000;fill-opacity:1">
      <use
         height="100%"
         width="100%"
         id="use362"
         y="153.258"
         x="341.37799"
         xlink:href="#glyph3-1" />
    </g>
    <path
       id="path366"
       transform="matrix(1,0,0,-1,72,72)"
       d="m 269.37891,-82.691406 h 3.96875"
       style="fill:none;stroke:#000000;stroke-width:0.3985;stroke-linecap:butt;stroke-linejoin:miter;stroke-miterlimit:10;stroke-opacity:1" />
    <g
       id="g370"
       style="fill:#000000;fill-opacity:1">
      <use
         height="100%"
         width="100%"
         id="use368"
         y="160.616"
         x="341.37799"
         xlink:href="#glyph3-4" />
    </g>
    <g
       id="g374"
       style="fill:#000000;fill-opacity:1">
      <use
         height="100%"
         width="100%"
         id="use372"
         y="157.181"
         x="346.54401"
         xlink:href="#glyph2-3" />
    </g>
    <g
       id="g378"
       style="fill:#000000;fill-opacity:1">
      <use
         height="100%"
         width="100%"
         id="use376"
         y="125.2"
         x="354.366"
         xlink:href="#glyph1-1" />
    </g>
    <g
       id="g382"
       style="fill:#000000;fill-opacity:1">
      <use
         height="100%"
         width="100%"
         id="use380"
         y="142.735"
         x="354.366"
         xlink:href="#glyph1-2" />
    </g>
    <g
       id="g386"
       style="fill:#000000;fill-opacity:1">
      <use
         height="100%"
         width="100%"
         id="use384"
         y="148.713"
         x="354.366"
         xlink:href="#glyph1-2" />
    </g>
    <g
       id="g390"
       style="fill:#000000;fill-opacity:1">
      <use
         height="100%"
         width="100%"
         id="use388"
         y="154.69"
         x="354.366"
         xlink:href="#glyph1-2" />
    </g>
    <g
       id="g394"
       style="fill:#000000;fill-opacity:1">
      <use
         height="100%"
         width="100%"
         id="use392"
         y="160.668"
         x="354.366"
         xlink:href="#glyph1-2" />
    </g>
    <g
       id="g398"
       style="fill:#000000;fill-opacity:1">
      <use
         height="100%"
         width="100%"
         id="use396"
         y="167.04401"
         x="354.366"
         xlink:href="#glyph1-3" />
    </g>
    <g
       id="g402"
       style="fill:#000000;fill-opacity:1">
      <use
         height="100%"
         width="100%"
         id="use400"
         y="133.17101"
         x="375.81299"
         xlink:href="#glyph4-5" />
    </g>
    <g
       id="g406"
       style="fill:#000000;fill-opacity:1">
      <use
         height="100%"
         width="100%"
         id="use404"
         y="145.12601"
         x="368.064"
         xlink:href="#glyph5-1" />
    </g>
    <g
       id="g410"
       style="fill:#000000;fill-opacity:1">
      <use
         height="100%"
         width="100%"
         id="use408"
         y="145.12601"
         x="375.81299"
         xlink:href="#glyph4-3" />
    </g>
    <g
       id="g414"
       style="fill:#000000;fill-opacity:1">
      <use
         height="100%"
         width="100%"
         id="use412"
         y="157.08099"
         x="375.81299"
         xlink:href="#glyph4-4" />
    </g>
    <g
       id="g418"
       style="fill:#000000;fill-opacity:1">
      <use
         height="100%"
         width="100%"
         id="use416"
         y="169.036"
         x="368.064"
         xlink:href="#glyph5-1" />
    </g>
    <g
       id="g422"
       style="fill:#000000;fill-opacity:1">
      <use
         height="100%"
         width="100%"
         id="use420"
         y="169.036"
         x="375.81299"
         xlink:href="#glyph4-2" />
    </g>
    <g
       id="g426"
       style="fill:#000000;fill-opacity:1">
      <use
         height="100%"
         width="100%"
         id="use424"
         y="180.992"
         x="375.81299"
         xlink:href="#glyph4-8" />
    </g>
    <g
       id="g430"
       style="fill:#000000;fill-opacity:1">
      <use
         height="100%"
         width="100%"
         id="use428"
         y="125.2"
         x="385.776"
         xlink:href="#glyph1-4" />
    </g>
    <g
       id="g434"
       style="fill:#000000;fill-opacity:1">
      <use
         height="100%"
         width="100%"
         id="use432"
         y="142.735"
         x="385.776"
         xlink:href="#glyph1-5" />
    </g>
    <g
       id="g438"
       style="fill:#000000;fill-opacity:1">
      <use
         height="100%"
         width="100%"
         id="use436"
         y="148.713"
         x="385.776"
         xlink:href="#glyph1-5" />
    </g>
    <g
       id="g442"
       style="fill:#000000;fill-opacity:1">
      <use
         height="100%"
         width="100%"
         id="use440"
         y="154.69"
         x="385.776"
         xlink:href="#glyph1-5" />
    </g>
    <g
       id="g446"
       style="fill:#000000;fill-opacity:1">
      <use
         height="100%"
         width="100%"
         id="use444"
         y="160.668"
         x="385.776"
         xlink:href="#glyph1-5" />
    </g>
    <g
       id="g450"
       style="fill:#000000;fill-opacity:1">
      <use
         height="100%"
         width="100%"
         id="use448"
         y="167.04401"
         x="385.776"
         xlink:href="#glyph1-6" />
    </g>
  </g>
</svg>
