<?xml version="1.0" encoding="UTF-8" standalone="no"?>
<svg
   width="161.4375pt"
   height="121.39465pt"
   viewBox="0 0 161.4375 121.39465"
   version="1.1"
   id="svg405"
   xmlns:xlink="http://www.w3.org/1999/xlink"
   xmlns="http://www.w3.org/2000/svg"
   xmlns:svg="http://www.w3.org/2000/svg">
  <defs
     id="defs52">
    <g
       id="g50">
      <symbol
         overflow="visible"
         id="glyph0-0">
        <path
           style="stroke:none"
           d=""
           id="path2" />
      </symbol>
      <symbol
         overflow="visible"
         id="glyph0-1">
        <path
           style="stroke:none"
           d="m 6.5625,-2.296875 c 0.171875,0 0.5625,-0.125 0.5625,-0.328125 0,-0.203125 -0.390625,-0.328125 -0.5625,-0.328125 H 1.171875 C 1,-2.953125 0.625,-2.828125 0.625,-2.625 c 0,0.203125 0.375,0.328125 0.546875,0.328125 z m 0,0"
           id="path5" />
      </symbol>
      <symbol
         overflow="visible"
         id="glyph1-0">
        <path
           style="stroke:none"
           d=""
           id="path8" />
      </symbol>
      <symbol
         overflow="visible"
         id="glyph1-1">
        <path
           style="stroke:none"
           d="m 2.890625,-3.515625 c 0.8125,-0.265625 1.5625,-1.125 1.5625,-1.90625 0,-0.8125 -1.046875,-1.546875 -2,-1.546875 -1,0 -1.9375,0.765625 -1.9375,1.53125 0,0.328125 0.390625,0.671875 0.6875,0.671875 0.296875,0 0.671875,-0.375 0.671875,-0.671875 0,-0.5 -0.640625,-0.65625 -0.484375,-0.65625 0.125,-0.21875 0.65625,-0.296875 1.015625,-0.296875 0.421875,0 0.78125,0.0625 0.78125,0.953125 0,0.125 0.03125,0.578125 -0.234375,1.015625 -0.296875,0.484375 -0.5,0.46875 -0.75,0.46875 C 2.125,-3.9375 1.890625,-3.921875 1.8125,-3.921875 1.734375,-3.90625 1.484375,-3.734375 1.484375,-3.625 c 0,0.109375 0.25,0.265625 0.421875,0.265625 h 0.4375 c 0.8125,0 1,0.515625 1,1.5 0,1.34375 -0.5,1.46875 -0.9375,1.46875 -0.4375,0 -1.0625,-0.125 -1.203125,-0.375 0.015625,0 0.5,-0.375 0.5,-0.765625 0,-0.359375 -0.4375,-0.71875 -0.71875,-0.71875 -0.25,0 -0.75,0.3125 -0.75,0.75 0,0.90625 1.109375,1.71875 2.203125,1.71875 1.21875,0 2.28125,-1.0625 2.28125,-2.078125 0,-0.828125 -0.796875,-1.765625 -1.828125,-1.984375 z m 0,0"
           id="path11" />
      </symbol>
      <symbol
         overflow="visible"
         id="glyph1-2">
        <path
           style="stroke:none"
           d="M 2.75,-1.796875 V -0.9375 c 0,0.359375 0.15625,0.296875 -0.578125,0.296875 H 1.78125 v 0.65625 C 2.375,-0.03125 2.890625,-0.03125 3.3125,-0.03125 c 0.421875,0 0.9375,0 1.515625,0.046875 v -0.65625 h -0.375 C 3.71875,-0.640625 3.875,-0.578125 3.875,-0.9375 V -1.640625 H 4.859375 V -2.28125 H 3.875 v -4.375 c 0,-0.1875 -0.171875,-0.421875 -0.34375,-0.421875 -0.078125,0 -0.234375,0.046875 -0.328125,0.171875 l -3.109375,4.75 v 0.515625 H 2.75 Z M 2.984375,-2.28125 H 0.875 L 3.109375,-5.71875 2.8125,-5.828125 v 3.546875 z m 0,0"
           id="path14" />
      </symbol>
      <symbol
         overflow="visible"
         id="glyph1-3">
        <path
           style="stroke:none"
           d="m 3.484375,-3.328125 v 0.3125 c 0,2.34375 -0.859375,2.625 -1.4375,2.625 -0.171875,0 -0.59375,0.03125 -0.625,-0.03125 C 1.5,-0.421875 1.75,-0.875 1.75,-1.03125 c 0,-0.3125 -0.40625,-0.640625 -0.625,-0.640625 -0.15625,0 -0.640625,0.265625 -0.640625,0.65625 0,0.671875 0.71875,1.234375 1.5625,1.234375 1.296875,0 2.671875,-1.515625 2.671875,-3.65625 0,-2.6875 -1.3125,-3.53125 -2.203125,-3.53125 -0.546875,0 -1.15625,0.234375 -1.59375,0.671875 -0.40625,0.453125 -0.6875,1 -0.6875,1.734375 0,1.25 1.0625,2.390625 2.171875,2.390625 0.609375,0 1.1875,-0.578125 1.421875,-1.15625 z m -1.0625,0.59375 c -0.15625,0 -0.453125,0.171875 -0.75,-0.453125 -0.1875,-0.375 -0.1875,-0.875 -0.1875,-1.359375 0,-0.53125 -0.046875,-0.890625 0.15625,-1.265625 0.265625,-0.5 0.53125,-0.578125 0.875,-0.578125 0.46875,0 0.609375,0.1875 0.78125,0.625 0.125,0.328125 0.15625,0.953125 0.15625,1.40625 0,0.828125 -0.15625,1.625 -1.03125,1.625 z m 0,0"
           id="path17" />
      </symbol>
      <symbol
         overflow="visible"
         id="glyph1-4">
        <path
           style="stroke:none"
           d="m 1.484375,-3.421875 v -0.25 c 0,-2.515625 1.0625,-2.71875 1.578125,-2.71875 0.234375,0 0.53125,0.015625 0.5625,0.078125 0.15625,0 -0.421875,0.15625 -0.421875,0.609375 0,0.3125 0.421875,0.625 0.640625,0.625 0.15625,0 0.625,-0.25 0.625,-0.640625 0,-0.59375 -0.59375,-1.25 -1.421875,-1.25 -1.28125,0 -2.8125,1.453125 -2.8125,3.65625 0,2.671875 1.34375,3.53125 2.265625,3.53125 1.109375,0 2.21875,-1.09375 2.21875,-2.40625 0,-1.265625 -1.046875,-2.390625 -2.15625,-2.390625 -0.671875,0 -1.234375,0.671875 -1.421875,1.15625 z M 2.5,-0.390625 C 1.875,-0.390625 1.75,-0.8125 1.6875,-0.96875 1.5,-1.4375 1.5,-2.234375 1.5,-2.40625 c 0,-0.78125 0.15625,-1.625 1.046875,-1.625 0.171875,0 0.5,-0.046875 0.796875,0.578125 L 3.296875,-3.5625 c 0.1875,0.359375 0.1875,0.875 0.1875,1.359375 0,0.484375 0,0.984375 -0.078125,1.109375 C 3.0625,-0.390625 2.734375,-0.390625 2.5,-0.390625 Z m 0,0"
           id="path20" />
      </symbol>
      <symbol
         overflow="visible"
         id="glyph1-5">
        <path
           style="stroke:none"
           d="M 3.09375,-6.546875 C 3.09375,-6.78125 2.9375,-6.96875 2.625,-6.96875 1.953125,-6.28125 1.203125,-6.328125 0.703125,-6.328125 V -5.6875 c 0.390625,0 1.09375,-0.046875 1.3125,-0.171875 v 4.90625 c 0,0.359375 0.140625,0.3125 -0.75,0.3125 h -0.5 v 0.65625 C 1.296875,-0.03125 2.15625,-0.03125 2.5625,-0.03125 c 0.390625,0 1.265625,0 1.78125,0.046875 v -0.65625 H 3.859375 c -0.90625,0 -0.765625,0.0625 -0.765625,-0.3125 z m 0,0"
           id="path23" />
      </symbol>
      <symbol
         overflow="visible"
         id="glyph1-6">
        <path
           style="stroke:none"
           d="m 4.640625,-2.15625 c 0,-1.1875 -0.984375,-2.359375 -2.0625,-2.359375 -0.46875,0 -1.03125,0.203125 -1.09375,0.265625 V -5.5625 C 1.515625,-5.5625 1.84375,-5.5 2.15625,-5.5 3.390625,-5.5 4.25,-6.5625 4.25,-6.6875 4.25,-6.75 4.0625,-6.96875 3.984375,-6.96875 c 0,0 -0.15625,0.046875 -0.234375,0.09375 -0.046875,0.03125 -0.53125,0.21875 -1.203125,0.21875 -0.390625,0 -0.859375,-0.0625 -1.328125,-0.265625 -0.078125,-0.03125 -0.09375,-0.03125 -0.109375,-0.03125 -0.109375,0 -0.28125,0.25 -0.28125,0.40625 v 2.953125 c 0,0.171875 0.171875,0.40625 0.3125,0.40625 0.078125,0 0.21875,-0.078125 0.25,-0.125 C 1.5,-3.484375 1.75,-3.96875 2.5625,-3.96875 c 0.515625,0 0.59375,0.296875 0.671875,0.484375 0.15625,0.359375 0.171875,0.75 0.171875,1.25 0,0.34375 0.046875,0.828125 -0.1875,1.25 -0.234375,0.390625 -0.484375,0.59375 -0.9375,0.59375 -0.71875,0 -1.125,-0.359375 -1.21875,-0.703125 -0.21875,-0.078125 -0.1875,-0.0625 -0.078125,-0.0625 0.328125,0 0.671875,-0.40625 0.671875,-0.640625 0,-0.25 -0.34375,-0.671875 -0.671875,-0.671875 -0.140625,0 -0.671875,0.25 -0.671875,0.703125 0,0.859375 0.875,1.984375 1.984375,1.984375 1.15625,0 2.34375,-1.109375 2.34375,-2.375 z m 0,0"
           id="path26" />
      </symbol>
      <symbol
         overflow="visible"
         id="glyph1-7">
        <path
           style="stroke:none"
           d="M 4.75,-3.34375 C 4.75,-4.140625 4.703125,-4.9375 4.359375,-5.6875 3.890625,-6.640625 2.90625,-6.96875 2.5,-6.96875 c -0.609375,0 -1.515625,0.421875 -1.921875,1.359375 -0.3125,0.6875 -0.375,1.46875 -0.375,2.265625 0,0.734375 0.09375,1.75 0.5,2.5 0.4375,0.8125 1.296875,1.0625 1.78125,1.0625 0.53125,0 1.46875,-0.375 1.90625,-1.3125 C 4.703125,-1.78125 4.75,-2.5625 4.75,-3.34375 Z M 2.484375,-0.328125 C 2.09375,-0.328125 1.671875,-0.40625 1.5,-1.359375 1.390625,-1.96875 1.390625,-2.875 1.390625,-3.46875 c 0,-0.640625 0,-1.296875 0.078125,-1.828125 0.1875,-1.1875 0.765625,-1.125 1.015625,-1.125 0.328125,0 0.8125,0.015625 1,1.015625 0.09375,0.546875 0.09375,1.3125 0.09375,1.9375 0,0.75 0,1.421875 -0.109375,2.0625 -0.15625,0.953125 -0.53125,1.078125 -0.984375,1.078125 z m 0,0"
           id="path29" />
      </symbol>
      <symbol
         overflow="visible"
         id="glyph1-8">
        <path
           style="stroke:none"
           d="M 1.390625,-0.8125 2.4375,-1.84375 C 4,-3.21875 4.640625,-3.875 4.640625,-4.859375 4.640625,-6 3.578125,-6.96875 2.359375,-6.96875 1.234375,-6.96875 0.3125,-5.875 0.3125,-5 c 0,0.5625 0.6875,0.71875 0.71875,0.71875 0.171875,0 0.6875,-0.28125 0.6875,-0.6875 0,-0.25 -0.359375,-0.6875 -0.703125,-0.6875 -0.078125,0 -0.09375,0 0.125,-0.078125 0.140625,-0.390625 0.515625,-0.59375 1.09375,-0.59375 0.90625,0 1.15625,0.640625 1.15625,1.46875 0,0.796875 -0.453125,1.453125 -1,2.078125 l -1.90625,2.140625 C 0.375,-0.53125 0.3125,-0.40625 0.3125,0 H 4.34375 L 4.671875,-2.0625 H 4.078125 C 4,-1.59375 3.984375,-1.28125 3.875,-1.125 3.8125,-1.046875 3.28125,-1.09375 3.0625,-1.09375 H 1.265625 Z m 0,0"
           id="path32" />
      </symbol>
      <symbol
         overflow="visible"
         id="glyph2-0">
        <path
           style="stroke:none"
           d=""
           id="path35" />
      </symbol>
      <symbol
         overflow="visible"
         id="glyph2-1">
        <path
           style="stroke:none"
           d="m 3.734375,17.640625 c 0.21875,0 0.46875,-0.125 0.46875,-0.265625 0.03125,-6.984375 0.765625,-12.703125 4.265625,-17.578125 0.0625,-0.09375 0.125,-0.203125 0.125,-0.21875 0,-0.09375 -0.265625,-0.234375 -0.421875,-0.234375 -0.171875,0 -0.328125,0.03125 -0.34375,0.0625 -0.046875,0.03125 -1.3125,1.484375 -2.3125,3.484375 -1.3125,2.625 -2.203125,5.75 -2.578125,9.375 -0.03125,0.3125 -0.234375,2.390625 -0.234375,4.75 V 17.40625 C 2.71875,17.515625 2.96875,17.640625 3.1875,17.640625 Z m 0,0"
           id="path38" />
      </symbol>
      <symbol
         overflow="visible"
         id="glyph2-2">
        <path
           style="stroke:none"
           d="m 3.1875,-0.765625 c -0.21875,0 -0.46875,0.140625 -0.484375,0.25 V -0.125 c 0,6.09375 1.078125,9.65625 1.390625,10.65625 0.6875,2.21875 1.84375,4.640625 3.515625,6.6875 0.140625,0.1875 0.1875,0.234375 0.21875,0.25 0.03125,0.01563 0.171875,0.0625 0.34375,0.0625 0.15625,0 0.421875,-0.125 0.421875,-0.21875 0,-0.03125 -0.0625,-0.140625 -0.125,-0.234375 -3.3125,-4.609375 -4.25,-10.046875 -4.265625,-17.5625 0,-0.140625 -0.25,-0.28125 -0.46875,-0.28125 z m 0,0"
           id="path41" />
      </symbol>
      <symbol
         overflow="visible"
         id="glyph2-3">
        <path
           style="stroke:none"
           d="m 6.015625,17.015625 c 0,-6.09375 -1.09375,-9.65625 -1.40625,-10.671875 -0.671875,-2.203125 -1.84375,-4.640625 -3.5,-6.6875 -0.15625,-0.1875 -0.1875,-0.234375 -0.234375,-0.25 -0.015625,-0.015625 -0.171875,-0.0625 -0.328125,-0.0625 -0.140625,0 -0.421875,0.140625 -0.421875,0.234375 0,0.015625 0.046875,0.125 0.1875,0.3125 C 3.78125,4.734375 4.5,10.625 4.5,17.375 c 0,0.140625 0.265625,0.265625 0.484375,0.265625 H 5.53125 c 0.203125,0 0.46875,-0.125 0.484375,-0.234375 z m 0,0"
           id="path44" />
      </symbol>
      <symbol
         overflow="visible"
         id="glyph2-4">
        <path
           style="stroke:none"
           d="M 6.015625,-0.515625 C 6,-0.625 5.734375,-0.765625 5.53125,-0.765625 H 4.984375 C 4.765625,-0.765625 4.5,-0.625 4.5,-0.484375 c 0,1.015625 0,3.390625 -0.265625,5.875 -0.53125,5.15625 -1.796875,8.625 -3.984375,11.6875 -0.078125,0.09375 -0.125,0.203125 -0.125,0.234375 0,0.09375 0.28125,0.21875 0.421875,0.21875 0.15625,0 0.328125,-0.03125 0.34375,-0.0625 0.03125,-0.01563 1.296875,-1.484375 2.3125,-3.484375 1.3125,-2.625 2.203125,-5.734375 2.5625,-9.375 0.03125,-0.296875 0.25,-2.375 0.25,-4.734375 z m 0,0"
           id="path47" />
      </symbol>
    </g>
  </defs>
  <g
     id="surface1"
     transform="translate(-166.78912,-124.33975)">
    <g
       style="fill:#000000;fill-opacity:1"
       id="g56">
      <use
         xlink:href="#glyph0-1"
         x="250.103"
         y="134.16701"
         id="use54"
         width="100%"
         height="100%" />
    </g>
    <g
       style="fill:#000000;fill-opacity:1"
       id="g60">
      <use
         xlink:href="#glyph1-1"
         x="257.85101"
         y="134.16701"
         id="use58"
         width="100%"
         height="100%" />
    </g>
    <g
       style="fill:#000000;fill-opacity:1"
       id="g64">
      <use
         xlink:href="#glyph1-2"
         x="272.79501"
         y="134.16701"
         id="use62"
         width="100%"
         height="100%" />
    </g>
    <g
       style="fill:#000000;fill-opacity:1"
       id="g68">
      <use
         xlink:href="#glyph1-3"
         x="292.72"
         y="134.16701"
         id="use66"
         width="100%"
         height="100%" />
    </g>
    <g
       style="fill:#000000;fill-opacity:1"
       id="g72">
      <use
         xlink:href="#glyph0-1"
         x="308.06299"
         y="134.16701"
         id="use70"
         width="100%"
         height="100%" />
    </g>
    <g
       style="fill:#000000;fill-opacity:1"
       id="g76">
      <use
         xlink:href="#glyph1-3"
         x="315.81201"
         y="134.16701"
         id="use74"
         width="100%"
         height="100%" />
    </g>
    <g
       style="fill:#000000;fill-opacity:1"
       id="g80">
      <use
         xlink:href="#glyph0-1"
         x="250.103"
         y="146.12199"
         id="use78"
         width="100%"
         height="100%" />
    </g>
    <g
       style="fill:#000000;fill-opacity:1"
       id="g84">
      <use
         xlink:href="#glyph1-1"
         x="257.85101"
         y="146.12199"
         id="use82"
         width="100%"
         height="100%" />
    </g>
    <g
       style="fill:#000000;fill-opacity:1"
       id="g88">
      <use
         xlink:href="#glyph1-4"
         x="272.79501"
         y="146.12199"
         id="use86"
         width="100%"
         height="100%" />
    </g>
    <g
       style="fill:#000000;fill-opacity:1"
       id="g94">
      <use
         xlink:href="#glyph1-5"
         x="287.73999"
         y="146.12199"
         id="use90"
         width="100%"
         height="100%" />
      <use
         xlink:href="#glyph1-6"
         x="292.72131"
         y="146.12199"
         id="use92"
         width="100%"
         height="100%" />
    </g>
    <g
       style="fill:#000000;fill-opacity:1"
       id="g98">
      <use
         xlink:href="#glyph0-1"
         x="308.06299"
         y="146.12199"
         id="use96"
         width="100%"
         height="100%" />
    </g>
    <g
       style="fill:#000000;fill-opacity:1"
       id="g102">
      <use
         xlink:href="#glyph1-3"
         x="315.81201"
         y="146.12199"
         id="use100"
         width="100%"
         height="100%" />
    </g>
    <g
       style="fill:#000000;fill-opacity:1"
       id="g106">
      <use
         xlink:href="#glyph1-1"
         x="257.85101"
         y="158.077"
         id="use104"
         width="100%"
         height="100%" />
    </g>
    <g
       style="fill:#000000;fill-opacity:1"
       id="g110">
      <use
         xlink:href="#glyph1-7"
         x="272.79501"
         y="158.077"
         id="use108"
         width="100%"
         height="100%" />
    </g>
    <g
       style="fill:#000000;fill-opacity:1"
       id="g114">
      <use
         xlink:href="#glyph1-4"
         x="292.72"
         y="158.077"
         id="use112"
         width="100%"
         height="100%" />
    </g>
    <g
       style="fill:#000000;fill-opacity:1"
       id="g120">
      <use
         xlink:href="#glyph1-5"
         x="310.83099"
         y="158.077"
         id="use116"
         width="100%"
         height="100%" />
      <use
         xlink:href="#glyph1-8"
         x="315.81229"
         y="158.077"
         id="use118"
         width="100%"
         height="100%" />
    </g>
    <g
       style="fill:#000000;fill-opacity:1"
       id="g124">
      <use
         xlink:href="#glyph1-5"
         x="181.97301"
         y="175.702"
         id="use122"
         width="100%"
         height="100%" />
    </g>
    <g
       style="fill:#000000;fill-opacity:1"
       id="g128">
      <use
         xlink:href="#glyph1-7"
         x="204.66499"
         y="175.702"
         id="use126"
         width="100%"
         height="100%" />
    </g>
    <g
       style="fill:#000000;fill-opacity:1"
       id="g132">
      <use
         xlink:href="#glyph1-7"
         x="219.60899"
         y="175.702"
         id="use130"
         width="100%"
         height="100%" />
    </g>
    <g
       style="fill:#000000;fill-opacity:1"
       id="g136">
      <use
         xlink:href="#glyph0-1"
         x="250.103"
         y="175.702"
         id="use134"
         width="100%"
         height="100%" />
    </g>
    <g
       style="fill:#000000;fill-opacity:1"
       id="g140">
      <use
         xlink:href="#glyph1-1"
         x="257.85101"
         y="175.702"
         id="use138"
         width="100%"
         height="100%" />
    </g>
    <g
       style="fill:#000000;fill-opacity:1"
       id="g144">
      <use
         xlink:href="#glyph1-2"
         x="272.79501"
         y="175.702"
         id="use142"
         width="100%"
         height="100%" />
    </g>
    <g
       style="fill:#000000;fill-opacity:1"
       id="g148">
      <use
         xlink:href="#glyph1-3"
         x="292.72"
         y="175.702"
         id="use146"
         width="100%"
         height="100%" />
    </g>
    <g
       style="fill:#000000;fill-opacity:1"
       id="g152">
      <use
         xlink:href="#glyph0-1"
         x="308.06299"
         y="175.702"
         id="use150"
         width="100%"
         height="100%" />
    </g>
    <g
       style="fill:#000000;fill-opacity:1"
       id="g156">
      <use
         xlink:href="#glyph1-3"
         x="315.81201"
         y="175.702"
         id="use154"
         width="100%"
         height="100%" />
    </g>
    <g
       style="fill:#000000;fill-opacity:1"
       id="g160">
      <use
         xlink:href="#glyph0-1"
         x="174.224"
         y="187.657"
         id="use158"
         width="100%"
         height="100%" />
    </g>
    <g
       style="fill:#000000;fill-opacity:1"
       id="g164">
      <use
         xlink:href="#glyph1-5"
         x="181.97301"
         y="187.657"
         id="use162"
         width="100%"
         height="100%" />
    </g>
    <g
       style="fill:#000000;fill-opacity:1"
       id="g168">
      <use
         xlink:href="#glyph1-5"
         x="204.66499"
         y="187.657"
         id="use166"
         width="100%"
         height="100%" />
    </g>
    <g
       style="fill:#000000;fill-opacity:1"
       id="g172">
      <use
         xlink:href="#glyph1-7"
         x="219.60899"
         y="187.657"
         id="use170"
         width="100%"
         height="100%" />
    </g>
    <g
       style="fill:#000000;fill-opacity:1"
       id="g176">
      <use
         xlink:href="#glyph1-7"
         x="257.85101"
         y="187.657"
         id="use174"
         width="100%"
         height="100%" />
    </g>
    <g
       style="fill:#000000;fill-opacity:1"
       id="g180">
      <use
         xlink:href="#glyph1-8"
         x="272.79501"
         y="187.657"
         id="use178"
         width="100%"
         height="100%" />
    </g>
    <g
       style="fill:#000000;fill-opacity:1"
       id="g184">
      <use
         xlink:href="#glyph1-4"
         x="292.72"
         y="187.657"
         id="use182"
         width="100%"
         height="100%" />
    </g>
    <g
       style="fill:#000000;fill-opacity:1"
       id="g188">
      <use
         xlink:href="#glyph1-7"
         x="315.81201"
         y="187.657"
         id="use186"
         width="100%"
         height="100%" />
    </g>
    <g
       style="fill:#000000;fill-opacity:1"
       id="g192">
      <use
         xlink:href="#glyph1-5"
         x="181.97301"
         y="199.612"
         id="use190"
         width="100%"
         height="100%" />
    </g>
    <g
       style="fill:#000000;fill-opacity:1"
       id="g196">
      <use
         xlink:href="#glyph1-7"
         x="204.66499"
         y="199.612"
         id="use194"
         width="100%"
         height="100%" />
    </g>
    <g
       style="fill:#000000;fill-opacity:1"
       id="g200">
      <use
         xlink:href="#glyph1-5"
         x="219.60899"
         y="199.612"
         id="use198"
         width="100%"
         height="100%" />
    </g>
    <g
       style="fill:#000000;fill-opacity:1"
       id="g204">
      <use
         xlink:href="#glyph1-7"
         x="257.85101"
         y="199.612"
         id="use202"
         width="100%"
         height="100%" />
    </g>
    <g
       style="fill:#000000;fill-opacity:1"
       id="g208">
      <use
         xlink:href="#glyph1-2"
         x="272.79501"
         y="199.612"
         id="use206"
         width="100%"
         height="100%" />
    </g>
    <g
       style="fill:#000000;fill-opacity:1"
       id="g214">
      <use
         xlink:href="#glyph1-5"
         x="287.73999"
         y="199.612"
         id="use210"
         width="100%"
         height="100%" />
      <use
         xlink:href="#glyph1-6"
         x="292.72131"
         y="199.612"
         id="use212"
         width="100%"
         height="100%" />
    </g>
    <g
       style="fill:#000000;fill-opacity:1"
       id="g218">
      <use
         xlink:href="#glyph1-1"
         x="315.81201"
         y="199.612"
         id="use216"
         width="100%"
         height="100%" />
    </g>
    <g
       style="fill:#000000;fill-opacity:1"
       id="g222">
      <use
         xlink:href="#glyph1-5"
         x="181.97301"
         y="217.23599"
         id="use220"
         width="100%"
         height="100%" />
    </g>
    <g
       style="fill:#000000;fill-opacity:1"
       id="g226">
      <use
         xlink:href="#glyph1-7"
         x="204.66499"
         y="217.23599"
         id="use224"
         width="100%"
         height="100%" />
    </g>
    <g
       style="fill:#000000;fill-opacity:1"
       id="g230">
      <use
         xlink:href="#glyph1-7"
         x="219.60899"
         y="217.23599"
         id="use228"
         width="100%"
         height="100%" />
    </g>
    <g
       style="fill:#000000;fill-opacity:1"
       id="g234">
      <use
         xlink:href="#glyph0-1"
         x="250.103"
         y="217.23599"
         id="use232"
         width="100%"
         height="100%" />
    </g>
    <g
       style="fill:#000000;fill-opacity:1"
       id="g238">
      <use
         xlink:href="#glyph1-1"
         x="257.85101"
         y="217.23599"
         id="use236"
         width="100%"
         height="100%" />
    </g>
    <g
       style="fill:#000000;fill-opacity:1"
       id="g242">
      <use
         xlink:href="#glyph1-2"
         x="272.79501"
         y="217.23599"
         id="use240"
         width="100%"
         height="100%" />
    </g>
    <g
       style="fill:#000000;fill-opacity:1"
       id="g246">
      <use
         xlink:href="#glyph1-3"
         x="292.72"
         y="217.23599"
         id="use244"
         width="100%"
         height="100%" />
    </g>
    <g
       style="fill:#000000;fill-opacity:1"
       id="g250">
      <use
         xlink:href="#glyph0-1"
         x="308.06299"
         y="217.23599"
         id="use248"
         width="100%"
         height="100%" />
    </g>
    <g
       style="fill:#000000;fill-opacity:1"
       id="g254">
      <use
         xlink:href="#glyph1-3"
         x="315.81201"
         y="217.23599"
         id="use252"
         width="100%"
         height="100%" />
    </g>
    <g
       style="fill:#000000;fill-opacity:1"
       id="g258">
      <use
         xlink:href="#glyph1-7"
         x="181.97301"
         y="229.192"
         id="use256"
         width="100%"
         height="100%" />
    </g>
    <g
       style="fill:#000000;fill-opacity:1"
       id="g262">
      <use
         xlink:href="#glyph1-5"
         x="204.66499"
         y="229.192"
         id="use260"
         width="100%"
         height="100%" />
    </g>
    <g
       style="fill:#000000;fill-opacity:1"
       id="g266">
      <use
         xlink:href="#glyph1-7"
         x="219.60899"
         y="229.192"
         id="use264"
         width="100%"
         height="100%" />
    </g>
    <g
       style="fill:#000000;fill-opacity:1"
       id="g270">
      <use
         xlink:href="#glyph1-7"
         x="257.85101"
         y="229.192"
         id="use268"
         width="100%"
         height="100%" />
    </g>
    <g
       style="fill:#000000;fill-opacity:1"
       id="g274">
      <use
         xlink:href="#glyph1-8"
         x="272.79501"
         y="229.192"
         id="use272"
         width="100%"
         height="100%" />
    </g>
    <g
       style="fill:#000000;fill-opacity:1"
       id="g278">
      <use
         xlink:href="#glyph1-4"
         x="292.72"
         y="229.192"
         id="use276"
         width="100%"
         height="100%" />
    </g>
    <g
       style="fill:#000000;fill-opacity:1"
       id="g282">
      <use
         xlink:href="#glyph1-7"
         x="315.81201"
         y="229.192"
         id="use280"
         width="100%"
         height="100%" />
    </g>
    <g
       style="fill:#000000;fill-opacity:1"
       id="g286">
      <use
         xlink:href="#glyph1-7"
         x="181.97301"
         y="241.147"
         id="use284"
         width="100%"
         height="100%" />
    </g>
    <g
       style="fill:#000000;fill-opacity:1"
       id="g290">
      <use
         xlink:href="#glyph0-1"
         x="196.91701"
         y="241.147"
         id="use288"
         width="100%"
         height="100%" />
    </g>
    <g
       style="fill:#000000;fill-opacity:1"
       id="g294">
      <use
         xlink:href="#glyph1-8"
         x="204.666"
         y="241.147"
         id="use292"
         width="100%"
         height="100%" />
    </g>
    <g
       style="fill:#000000;fill-opacity:1"
       id="g298">
      <use
         xlink:href="#glyph1-5"
         x="219.60899"
         y="241.147"
         id="use296"
         width="100%"
         height="100%" />
    </g>
    <g
       style="fill:#000000;fill-opacity:1"
       id="g302">
      <use
         xlink:href="#glyph1-7"
         x="257.85101"
         y="241.147"
         id="use300"
         width="100%"
         height="100%" />
    </g>
    <g
       style="fill:#000000;fill-opacity:1"
       id="g306">
      <use
         xlink:href="#glyph1-7"
         x="272.79501"
         y="241.147"
         id="use304"
         width="100%"
         height="100%" />
    </g>
    <g
       style="fill:#000000;fill-opacity:1"
       id="g310">
      <use
         xlink:href="#glyph1-1"
         x="292.72"
         y="241.147"
         id="use308"
         width="100%"
         height="100%" />
    </g>
    <g
       style="fill:#000000;fill-opacity:1"
       id="g314">
      <use
         xlink:href="#glyph1-1"
         x="315.81201"
         y="241.147"
         id="use312"
         width="100%"
         height="100%" />
    </g>
    <path
       style="fill:none;stroke:#000000;stroke-width:0.43834;stroke-linecap:butt;stroke-linejoin:miter;stroke-miterlimit:10;stroke-opacity:1"
       d="M -17.910188,62.158344 V 26.291156"
       transform="matrix(1,0,0,-1,320.793,187.756)"
       id="path316" />
    <g
       style="fill:#000000;fill-opacity:1"
       id="g320">
      <use
         xlink:href="#glyph2-1"
         x="240.966"
         y="125.996"
         id="use318"
         width="100%"
         height="100%" />
    </g>
    <g
       style="fill:#000000;fill-opacity:1"
       id="g324">
      <use
         xlink:href="#glyph2-2"
         x="240.966"
         y="143.929"
         id="use322"
         width="100%"
         height="100%" />
    </g>
    <g
       style="fill:#000000;fill-opacity:1"
       id="g328">
      <use
         xlink:href="#glyph2-3"
         x="321.211"
         y="125.996"
         id="use326"
         width="100%"
         height="100%" />
    </g>
    <g
       style="fill:#000000;fill-opacity:1"
       id="g332">
      <use
         xlink:href="#glyph2-4"
         x="321.211"
         y="143.929"
         id="use330"
         width="100%"
         height="100%" />
    </g>
    <g
       style="fill:#000000;fill-opacity:1"
       id="g336">
      <use
         xlink:href="#glyph2-1"
         x="165.086"
         y="167.532"
         id="use334"
         width="100%"
         height="100%" />
    </g>
    <g
       style="fill:#000000;fill-opacity:1"
       id="g340">
      <use
         xlink:href="#glyph2-2"
         x="165.086"
         y="185.465"
         id="use338"
         width="100%"
         height="100%" />
    </g>
    <g
       style="fill:#000000;fill-opacity:1"
       id="g344">
      <use
         xlink:href="#glyph2-3"
         x="225.008"
         y="167.532"
         id="use342"
         width="100%"
         height="100%" />
    </g>
    <g
       style="fill:#000000;fill-opacity:1"
       id="g348">
      <use
         xlink:href="#glyph2-4"
         x="225.008"
         y="185.465"
         id="use346"
         width="100%"
         height="100%" />
    </g>
    <path
       style="fill:none;stroke:#000000;stroke-width:0.43834;stroke-linecap:butt;stroke-linejoin:miter;stroke-miterlimit:10;stroke-opacity:1"
       d="M -17.910188,20.623188 V -15.244"
       transform="matrix(1,0,0,-1,320.793,187.756)"
       id="path350" />
    <g
       style="fill:#000000;fill-opacity:1"
       id="g354">
      <use
         xlink:href="#glyph2-1"
         x="240.966"
         y="167.532"
         id="use352"
         width="100%"
         height="100%" />
    </g>
    <g
       style="fill:#000000;fill-opacity:1"
       id="g358">
      <use
         xlink:href="#glyph2-2"
         x="240.966"
         y="185.465"
         id="use356"
         width="100%"
         height="100%" />
    </g>
    <g
       style="fill:#000000;fill-opacity:1"
       id="g362">
      <use
         xlink:href="#glyph2-3"
         x="321.211"
         y="167.532"
         id="use360"
         width="100%"
         height="100%" />
    </g>
    <g
       style="fill:#000000;fill-opacity:1"
       id="g366">
      <use
         xlink:href="#glyph2-4"
         x="321.211"
         y="185.465"
         id="use364"
         width="100%"
         height="100%" />
    </g>
    <g
       style="fill:#000000;fill-opacity:1"
       id="g370">
      <use
         xlink:href="#glyph2-1"
         x="165.086"
         y="209.067"
         id="use368"
         width="100%"
         height="100%" />
    </g>
    <g
       style="fill:#000000;fill-opacity:1"
       id="g374">
      <use
         xlink:href="#glyph2-2"
         x="165.086"
         y="227"
         id="use372"
         width="100%"
         height="100%" />
    </g>
    <g
       style="fill:#000000;fill-opacity:1"
       id="g378">
      <use
         xlink:href="#glyph2-3"
         x="225.008"
         y="209.067"
         id="use376"
         width="100%"
         height="100%" />
    </g>
    <g
       style="fill:#000000;fill-opacity:1"
       id="g382">
      <use
         xlink:href="#glyph2-4"
         x="225.008"
         y="227"
         id="use380"
         width="100%"
         height="100%" />
    </g>
    <path
       style="fill:none;stroke:#000000;stroke-width:0.43834;stroke-linecap:butt;stroke-linejoin:miter;stroke-miterlimit:10;stroke-opacity:1"
       d="M -17.910188,-20.911969 V -56.779156"
       transform="matrix(1,0,0,-1,320.793,187.756)"
       id="path384" />
    <g
       style="fill:#000000;fill-opacity:1"
       id="g388">
      <use
         xlink:href="#glyph2-1"
         x="240.966"
         y="209.067"
         id="use386"
         width="100%"
         height="100%" />
    </g>
    <g
       style="fill:#000000;fill-opacity:1"
       id="g392">
      <use
         xlink:href="#glyph2-2"
         x="240.966"
         y="227"
         id="use390"
         width="100%"
         height="100%" />
    </g>
    <g
       style="fill:#000000;fill-opacity:1"
       id="g396">
      <use
         xlink:href="#glyph2-3"
         x="321.211"
         y="209.067"
         id="use394"
         width="100%"
         height="100%" />
    </g>
    <g
       style="fill:#000000;fill-opacity:1"
       id="g400">
      <use
         xlink:href="#glyph2-4"
         x="321.211"
         y="227"
         id="use398"
         width="100%"
         height="100%" />
    </g>
    <path
       style="fill:none;stroke:#ff0000;stroke-width:0.3985;stroke-linecap:butt;stroke-linejoin:miter;stroke-miterlimit:10;stroke-opacity:1"
       d="m -70.890656,-33.267438 h 20.546875 v -11.953125 h 14.945312 V -56.779156 H 0.199187"
       transform="matrix(1,0,0,-1,320.793,187.756)"
       id="path402" />
  </g>
</svg>
