<?xml version="1.0" encoding="UTF-8" standalone="no"?>
<svg
   width="211.8045pt"
   height="210.75012pt"
   viewBox="0 0 211.8045 210.75012"
   version="1.1"
   id="svg1010"
   xmlns:xlink="http://www.w3.org/1999/xlink"
   xmlns="http://www.w3.org/2000/svg"
   xmlns:svg="http://www.w3.org/2000/svg">
  <defs
     id="defs61">
    <g
       id="g59">
      <symbol
         overflow="visible"
         id="glyph0-0">
        <path
           style="stroke:none"
           d=""
           id="path2" />
      </symbol>
      <symbol
         overflow="visible"
         id="glyph0-1">
        <path
           style="stroke:none"
           d="m 6.5625,-2.296875 c 0.171875,0 0.5625,-0.125 0.5625,-0.328125 0,-0.203125 -0.390625,-0.328125 -0.5625,-0.328125 H 1.171875 C 1,-2.953125 0.625,-2.828125 0.625,-2.625 c 0,0.203125 0.375,0.328125 0.546875,0.328125 z m 0,0"
           id="path5" />
      </symbol>
      <symbol
         overflow="visible"
         id="glyph1-0">
        <path
           style="stroke:none"
           d=""
           id="path8" />
      </symbol>
      <symbol
         overflow="visible"
         id="glyph1-1">
        <path
           style="stroke:none"
           d="M 1.390625,-0.8125 2.4375,-1.84375 C 4,-3.21875 4.640625,-3.875 4.640625,-4.859375 4.640625,-6 3.578125,-6.96875 2.359375,-6.96875 1.234375,-6.96875 0.3125,-5.875 0.3125,-5 c 0,0.5625 0.6875,0.71875 0.71875,0.71875 0.171875,0 0.6875,-0.28125 0.6875,-0.6875 0,-0.25 -0.359375,-0.6875 -0.703125,-0.6875 -0.078125,0 -0.09375,0 0.125,-0.078125 0.140625,-0.390625 0.515625,-0.59375 1.09375,-0.59375 0.90625,0 1.15625,0.640625 1.15625,1.46875 0,0.796875 -0.453125,1.453125 -1,2.078125 l -1.90625,2.140625 C 0.375,-0.53125 0.3125,-0.40625 0.3125,0 H 4.34375 L 4.671875,-2.0625 H 4.078125 C 4,-1.59375 3.984375,-1.28125 3.875,-1.125 3.8125,-1.046875 3.28125,-1.09375 3.0625,-1.09375 H 1.265625 Z m 0,0"
           id="path11" />
      </symbol>
      <symbol
         overflow="visible"
         id="glyph1-2">
        <path
           style="stroke:none"
           d="M 3.09375,-6.546875 C 3.09375,-6.78125 2.9375,-6.96875 2.625,-6.96875 1.953125,-6.28125 1.203125,-6.328125 0.703125,-6.328125 V -5.6875 c 0.390625,0 1.09375,-0.046875 1.3125,-0.171875 v 4.90625 c 0,0.359375 0.140625,0.3125 -0.75,0.3125 h -0.5 v 0.65625 C 1.296875,-0.03125 2.15625,-0.03125 2.5625,-0.03125 c 0.390625,0 1.265625,0 1.78125,0.046875 v -0.65625 H 3.859375 c -0.90625,0 -0.765625,0.0625 -0.765625,-0.3125 z m 0,0"
           id="path14" />
      </symbol>
      <symbol
         overflow="visible"
         id="glyph1-3">
        <path
           style="stroke:none"
           d="m 3.484375,-3.328125 v 0.3125 c 0,2.34375 -0.859375,2.625 -1.4375,2.625 -0.171875,0 -0.59375,0.03125 -0.625,-0.03125 C 1.5,-0.421875 1.75,-0.875 1.75,-1.03125 c 0,-0.3125 -0.40625,-0.640625 -0.625,-0.640625 -0.15625,0 -0.640625,0.265625 -0.640625,0.65625 0,0.671875 0.71875,1.234375 1.5625,1.234375 1.296875,0 2.671875,-1.515625 2.671875,-3.65625 0,-2.6875 -1.3125,-3.53125 -2.203125,-3.53125 -0.546875,0 -1.15625,0.234375 -1.59375,0.671875 -0.40625,0.453125 -0.6875,1 -0.6875,1.734375 0,1.25 1.0625,2.390625 2.171875,2.390625 0.609375,0 1.1875,-0.578125 1.421875,-1.15625 z m -1.0625,0.59375 c -0.15625,0 -0.453125,0.171875 -0.75,-0.453125 -0.1875,-0.375 -0.1875,-0.875 -0.1875,-1.359375 0,-0.53125 -0.046875,-0.890625 0.15625,-1.265625 0.265625,-0.5 0.53125,-0.578125 0.875,-0.578125 0.46875,0 0.609375,0.1875 0.78125,0.625 0.125,0.328125 0.15625,0.953125 0.15625,1.40625 0,0.828125 -0.15625,1.625 -1.03125,1.625 z m 0,0"
           id="path17" />
      </symbol>
      <symbol
         overflow="visible"
         id="glyph1-4">
        <path
           style="stroke:none"
           d="m 2.890625,-3.515625 c 0.8125,-0.265625 1.5625,-1.125 1.5625,-1.90625 0,-0.8125 -1.046875,-1.546875 -2,-1.546875 -1,0 -1.9375,0.765625 -1.9375,1.53125 0,0.328125 0.390625,0.671875 0.6875,0.671875 0.296875,0 0.671875,-0.375 0.671875,-0.671875 0,-0.5 -0.640625,-0.65625 -0.484375,-0.65625 0.125,-0.21875 0.65625,-0.296875 1.015625,-0.296875 0.421875,0 0.78125,0.0625 0.78125,0.953125 0,0.125 0.03125,0.578125 -0.234375,1.015625 -0.296875,0.484375 -0.5,0.46875 -0.75,0.46875 C 2.125,-3.9375 1.890625,-3.921875 1.8125,-3.921875 1.734375,-3.90625 1.484375,-3.734375 1.484375,-3.625 c 0,0.109375 0.25,0.265625 0.421875,0.265625 h 0.4375 c 0.8125,0 1,0.515625 1,1.5 0,1.34375 -0.5,1.46875 -0.9375,1.46875 -0.4375,0 -1.0625,-0.125 -1.203125,-0.375 0.015625,0 0.5,-0.375 0.5,-0.765625 0,-0.359375 -0.4375,-0.71875 -0.71875,-0.71875 -0.25,0 -0.75,0.3125 -0.75,0.75 0,0.90625 1.109375,1.71875 2.203125,1.71875 1.21875,0 2.28125,-1.0625 2.28125,-2.078125 0,-0.828125 -0.796875,-1.765625 -1.828125,-1.984375 z m 0,0"
           id="path20" />
      </symbol>
      <symbol
         overflow="visible"
         id="glyph1-5">
        <path
           style="stroke:none"
           d="m 1.484375,-3.421875 v -0.25 c 0,-2.515625 1.0625,-2.71875 1.578125,-2.71875 0.234375,0 0.53125,0.015625 0.5625,0.078125 0.15625,0 -0.421875,0.15625 -0.421875,0.609375 0,0.3125 0.421875,0.625 0.640625,0.625 0.15625,0 0.625,-0.25 0.625,-0.640625 0,-0.59375 -0.59375,-1.25 -1.421875,-1.25 -1.28125,0 -2.8125,1.453125 -2.8125,3.65625 0,2.671875 1.34375,3.53125 2.265625,3.53125 1.109375,0 2.21875,-1.09375 2.21875,-2.40625 0,-1.265625 -1.046875,-2.390625 -2.15625,-2.390625 -0.671875,0 -1.234375,0.671875 -1.421875,1.15625 z M 2.5,-0.390625 C 1.875,-0.390625 1.75,-0.8125 1.6875,-0.96875 1.5,-1.4375 1.5,-2.234375 1.5,-2.40625 c 0,-0.78125 0.15625,-1.625 1.046875,-1.625 0.171875,0 0.5,-0.046875 0.796875,0.578125 L 3.296875,-3.5625 c 0.1875,0.359375 0.1875,0.875 0.1875,1.359375 0,0.484375 0,0.984375 -0.078125,1.109375 C 3.0625,-0.390625 2.734375,-0.390625 2.5,-0.390625 Z m 0,0"
           id="path23" />
      </symbol>
      <symbol
         overflow="visible"
         id="glyph1-6">
        <path
           style="stroke:none"
           d="M 2.75,-1.796875 V -0.9375 c 0,0.359375 0.15625,0.296875 -0.578125,0.296875 H 1.78125 v 0.65625 C 2.375,-0.03125 2.890625,-0.03125 3.3125,-0.03125 c 0.421875,0 0.9375,0 1.515625,0.046875 v -0.65625 h -0.375 C 3.71875,-0.640625 3.875,-0.578125 3.875,-0.9375 V -1.640625 H 4.859375 V -2.28125 H 3.875 v -4.375 c 0,-0.1875 -0.171875,-0.421875 -0.34375,-0.421875 -0.078125,0 -0.234375,0.046875 -0.328125,0.171875 l -3.109375,4.75 v 0.515625 H 2.75 Z M 2.984375,-2.28125 H 0.875 L 3.109375,-5.71875 2.8125,-5.828125 v 3.546875 z m 0,0"
           id="path26" />
      </symbol>
      <symbol
         overflow="visible"
         id="glyph1-7">
        <path
           style="stroke:none"
           d="M 4.859375,-6.125 C 4.953125,-6.234375 5,-6.375 5,-6.75 H 2.40625 c -1.203125,0 -1.0625,0.046875 -1.125,-0.3125 H 0.734375 L 0.34375,-4.6875 H 0.953125 C 1,-5 1.046875,-5.515625 1.171875,-5.640625 1.25,-5.703125 1.90625,-5.65625 2.03125,-5.65625 h 1.734375 c 0.09375,-0.109375 -0.6875,0.96875 -0.921875,1.296875 -0.890625,1.34375 -1.265625,2.859375 -1.265625,3.875 0,0.09375 0.171875,0.703125 0.640625,0.703125 0.453125,0 0.625,-0.609375 0.625,-0.703125 V -1 c 0,-0.546875 0.03125,-1.09375 0.109375,-1.625 0.03125,-0.234375 0.125,-0.984375 0.5625,-1.609375 z m 0,0"
           id="path29" />
      </symbol>
      <symbol
         overflow="visible"
         id="glyph1-8">
        <path
           style="stroke:none"
           d="M 4.75,-3.34375 C 4.75,-4.140625 4.703125,-4.9375 4.359375,-5.6875 3.890625,-6.640625 2.90625,-6.96875 2.5,-6.96875 c -0.609375,0 -1.515625,0.421875 -1.921875,1.359375 -0.3125,0.6875 -0.375,1.46875 -0.375,2.265625 0,0.734375 0.09375,1.75 0.5,2.5 0.4375,0.8125 1.296875,1.0625 1.78125,1.0625 0.53125,0 1.46875,-0.375 1.90625,-1.3125 C 4.703125,-1.78125 4.75,-2.5625 4.75,-3.34375 Z M 2.484375,-0.328125 C 2.09375,-0.328125 1.671875,-0.40625 1.5,-1.359375 1.390625,-1.96875 1.390625,-2.875 1.390625,-3.46875 c 0,-0.640625 0,-1.296875 0.078125,-1.828125 0.1875,-1.1875 0.765625,-1.125 1.015625,-1.125 0.328125,0 0.8125,0.015625 1,1.015625 0.09375,0.546875 0.09375,1.3125 0.09375,1.9375 0,0.75 0,1.421875 -0.109375,2.0625 -0.15625,0.953125 -0.53125,1.078125 -0.984375,1.078125 z m 0,0"
           id="path32" />
      </symbol>
      <symbol
         overflow="visible"
         id="glyph1-9">
        <path
           style="stroke:none"
           d="m 4.640625,-2.15625 c 0,-1.1875 -0.984375,-2.359375 -2.0625,-2.359375 -0.46875,0 -1.03125,0.203125 -1.09375,0.265625 V -5.5625 C 1.515625,-5.5625 1.84375,-5.5 2.15625,-5.5 3.390625,-5.5 4.25,-6.5625 4.25,-6.6875 4.25,-6.75 4.0625,-6.96875 3.984375,-6.96875 c 0,0 -0.15625,0.046875 -0.234375,0.09375 -0.046875,0.03125 -0.53125,0.21875 -1.203125,0.21875 -0.390625,0 -0.859375,-0.0625 -1.328125,-0.265625 -0.078125,-0.03125 -0.09375,-0.03125 -0.109375,-0.03125 -0.109375,0 -0.28125,0.25 -0.28125,0.40625 v 2.953125 c 0,0.171875 0.171875,0.40625 0.3125,0.40625 0.078125,0 0.21875,-0.078125 0.25,-0.125 C 1.5,-3.484375 1.75,-3.96875 2.5625,-3.96875 c 0.515625,0 0.59375,0.296875 0.671875,0.484375 0.15625,0.359375 0.171875,0.75 0.171875,1.25 0,0.34375 0.046875,0.828125 -0.1875,1.25 -0.234375,0.390625 -0.484375,0.59375 -0.9375,0.59375 -0.71875,0 -1.125,-0.359375 -1.21875,-0.703125 -0.21875,-0.078125 -0.1875,-0.0625 -0.078125,-0.0625 0.328125,0 0.671875,-0.40625 0.671875,-0.640625 0,-0.25 -0.34375,-0.671875 -0.671875,-0.671875 -0.140625,0 -0.671875,0.25 -0.671875,0.703125 0,0.859375 0.875,1.984375 1.984375,1.984375 1.15625,0 2.34375,-1.109375 2.34375,-2.375 z m 0,0"
           id="path35" />
      </symbol>
      <symbol
         overflow="visible"
         id="glyph2-0">
        <path
           style="stroke:none"
           d=""
           id="path38" />
      </symbol>
      <symbol
         overflow="visible"
         id="glyph2-1">
        <path
           style="stroke:none"
           d="m 3.734375,17.640625 c 0.21875,0 0.46875,-0.125 0.46875,-0.265625 0.03125,-6.984375 0.765625,-12.703125 4.265625,-17.578125 0.0625,-0.09375 0.125,-0.203125 0.125,-0.21875 0,-0.09375 -0.265625,-0.234375 -0.421875,-0.234375 -0.171875,0 -0.328125,0.03125 -0.34375,0.0625 -0.046875,0.03125 -1.3125,1.484375 -2.3125,3.484375 -1.3125,2.625 -2.203125,5.75 -2.578125,9.375 -0.03125,0.3125 -0.234375,2.390625 -0.234375,4.75 V 17.40625 C 2.71875,17.515625 2.96875,17.640625 3.1875,17.640625 Z m 0,0"
           id="path41" />
      </symbol>
      <symbol
         overflow="visible"
         id="glyph2-2">
        <path
           style="stroke:none"
           d="M 4.203125,0.046875 C 4.203125,-0.21875 4,-0.375 3.734375,-0.375 H 3.1875 c -0.28125,0 -0.484375,0.15625 -0.484375,0.421875 V 5.6875 c 0,0.25 0.203125,0.390625 0.484375,0.390625 H 3.734375 C 4,6.078125 4.203125,5.9375 4.203125,5.6875 Z m 0,0"
           id="path44" />
      </symbol>
      <symbol
         overflow="visible"
         id="glyph2-3">
        <path
           style="stroke:none"
           d="m 3.1875,-0.765625 c -0.21875,0 -0.46875,0.140625 -0.484375,0.25 V -0.125 c 0,6.09375 1.078125,9.65625 1.390625,10.65625 0.6875,2.21875 1.84375,4.640625 3.515625,6.6875 0.140625,0.1875 0.1875,0.234375 0.21875,0.25 0.03125,0.01563 0.171875,0.0625 0.34375,0.0625 0.15625,0 0.421875,-0.125 0.421875,-0.21875 0,-0.03125 -0.0625,-0.140625 -0.125,-0.234375 -3.3125,-4.609375 -4.25,-10.046875 -4.265625,-17.5625 0,-0.140625 -0.25,-0.28125 -0.46875,-0.28125 z m 0,0"
           id="path47" />
      </symbol>
      <symbol
         overflow="visible"
         id="glyph2-4">
        <path
           style="stroke:none"
           d="m 6.015625,17.015625 c 0,-6.09375 -1.09375,-9.65625 -1.40625,-10.671875 -0.671875,-2.203125 -1.84375,-4.640625 -3.5,-6.6875 -0.15625,-0.1875 -0.1875,-0.234375 -0.234375,-0.25 -0.015625,-0.015625 -0.171875,-0.0625 -0.328125,-0.0625 -0.140625,0 -0.421875,0.140625 -0.421875,0.234375 0,0.015625 0.046875,0.125 0.1875,0.3125 C 3.78125,4.734375 4.5,10.625 4.5,17.375 c 0,0.140625 0.265625,0.265625 0.484375,0.265625 H 5.53125 c 0.203125,0 0.46875,-0.125 0.484375,-0.234375 z m 0,0"
           id="path50" />
      </symbol>
      <symbol
         overflow="visible"
         id="glyph2-5">
        <path
           style="stroke:none"
           d="M 6.015625,0.046875 C 6.015625,-0.21875 5.796875,-0.375 5.53125,-0.375 H 4.984375 C 4.71875,-0.375 4.5,-0.21875 4.5,0.046875 V 5.6875 c 0,0.25 0.21875,0.390625 0.484375,0.390625 H 5.53125 c 0.265625,0 0.484375,-0.140625 0.484375,-0.390625 z m 0,0"
           id="path53" />
      </symbol>
      <symbol
         overflow="visible"
         id="glyph2-6">
        <path
           style="stroke:none"
           d="M 6.015625,-0.515625 C 6,-0.625 5.734375,-0.765625 5.53125,-0.765625 H 4.984375 C 4.765625,-0.765625 4.5,-0.625 4.5,-0.484375 c 0,1.015625 0,3.390625 -0.265625,5.875 -0.53125,5.15625 -1.796875,8.625 -3.984375,11.6875 -0.078125,0.09375 -0.125,0.203125 -0.125,0.234375 0,0.09375 0.28125,0.21875 0.421875,0.21875 0.15625,0 0.328125,-0.03125 0.34375,-0.0625 0.03125,-0.01563 1.296875,-1.484375 2.3125,-3.484375 1.3125,-2.625 2.203125,-5.734375 2.5625,-9.375 0.03125,-0.296875 0.25,-2.375 0.25,-4.734375 z m 0,0"
           id="path56" />
      </symbol>
    </g>
  </defs>
  <g
     id="surface1"
     transform="translate(-166.78912,-124.33975)">
    <g
       style="fill:#000000;fill-opacity:1"
       id="g65">
      <use
         xlink:href="#glyph0-1"
         x="257.298"
         y="134.16701"
         id="use63"
         width="100%"
         height="100%" />
    </g>
    <g
       style="fill:#000000;fill-opacity:1"
       id="g69">
      <use
         xlink:href="#glyph1-1"
         x="265.047"
         y="134.16701"
         id="use67"
         width="100%"
         height="100%" />
    </g>
    <g
       style="fill:#000000;fill-opacity:1"
       id="g73">
      <use
         xlink:href="#glyph1-2"
         x="287.73901"
         y="134.16701"
         id="use71"
         width="100%"
         height="100%" />
    </g>
    <g
       style="fill:#000000;fill-opacity:1"
       id="g77">
      <use
         xlink:href="#glyph1-3"
         x="315.41299"
         y="134.16701"
         id="use75"
         width="100%"
         height="100%" />
    </g>
    <g
       style="fill:#000000;fill-opacity:1"
       id="g81">
      <use
         xlink:href="#glyph0-1"
         x="330.35699"
         y="134.16701"
         id="use79"
         width="100%"
         height="100%" />
    </g>
    <g
       style="fill:#000000;fill-opacity:1"
       id="g85">
      <use
         xlink:href="#glyph1-4"
         x="338.10599"
         y="134.16701"
         id="use83"
         width="100%"
         height="100%" />
    </g>
    <g
       style="fill:#000000;fill-opacity:1"
       id="g91">
      <use
         xlink:href="#glyph1-2"
         x="361.198"
         y="134.16701"
         id="use87"
         width="100%"
         height="100%" />
      <use
         xlink:href="#glyph1-3"
         x="366.17929"
         y="134.16701"
         id="use89"
         width="100%"
         height="100%" />
    </g>
    <g
       style="fill:#000000;fill-opacity:1"
       id="g95">
      <use
         xlink:href="#glyph1-5"
         x="265.04599"
         y="146.12199"
         id="use93"
         width="100%"
         height="100%" />
    </g>
    <g
       style="fill:#000000;fill-opacity:1"
       id="g99">
      <use
         xlink:href="#glyph0-1"
         x="279.991"
         y="146.12199"
         id="use97"
         width="100%"
         height="100%" />
    </g>
    <g
       style="fill:#000000;fill-opacity:1"
       id="g103">
      <use
         xlink:href="#glyph1-6"
         x="287.73901"
         y="146.12199"
         id="use101"
         width="100%"
         height="100%" />
    </g>
    <g
       style="fill:#000000;fill-opacity:1"
       id="g107">
      <use
         xlink:href="#glyph0-1"
         x="302.68301"
         y="146.12199"
         id="use105"
         width="100%"
         height="100%" />
    </g>
    <g
       style="fill:#000000;fill-opacity:1"
       id="g113">
      <use
         xlink:href="#glyph1-4"
         x="310.43201"
         y="146.12199"
         id="use109"
         width="100%"
         height="100%" />
      <use
         xlink:href="#glyph1-4"
         x="315.4133"
         y="146.12199"
         id="use111"
         width="100%"
         height="100%" />
    </g>
    <g
       style="fill:#000000;fill-opacity:1"
       id="g117">
      <use
         xlink:href="#glyph1-7"
         x="338.10599"
         y="146.12199"
         id="use115"
         width="100%"
         height="100%" />
    </g>
    <g
       style="fill:#000000;fill-opacity:1"
       id="g121">
      <use
         xlink:href="#glyph0-1"
         x="353.448"
         y="146.12199"
         id="use119"
         width="100%"
         height="100%" />
    </g>
    <g
       style="fill:#000000;fill-opacity:1"
       id="g127">
      <use
         xlink:href="#glyph1-5"
         x="361.19699"
         y="146.12199"
         id="use123"
         width="100%"
         height="100%" />
      <use
         xlink:href="#glyph1-1"
         x="366.17831"
         y="146.12199"
         id="use125"
         width="100%"
         height="100%" />
    </g>
    <g
       style="fill:#000000;fill-opacity:1"
       id="g131">
      <use
         xlink:href="#glyph1-8"
         x="265.04599"
         y="158.077"
         id="use129"
         width="100%"
         height="100%" />
    </g>
    <g
       style="fill:#000000;fill-opacity:1"
       id="g135">
      <use
         xlink:href="#glyph0-1"
         x="279.991"
         y="158.077"
         id="use133"
         width="100%"
         height="100%" />
    </g>
    <g
       style="fill:#000000;fill-opacity:1"
       id="g139">
      <use
         xlink:href="#glyph1-2"
         x="287.73901"
         y="158.077"
         id="use137"
         width="100%"
         height="100%" />
    </g>
    <g
       style="fill:#000000;fill-opacity:1"
       id="g143">
      <use
         xlink:href="#glyph0-1"
         x="307.66501"
         y="158.077"
         id="use141"
         width="100%"
         height="100%" />
    </g>
    <g
       style="fill:#000000;fill-opacity:1"
       id="g147">
      <use
         xlink:href="#glyph1-3"
         x="315.41299"
         y="158.077"
         id="use145"
         width="100%"
         height="100%" />
    </g>
    <g
       style="fill:#000000;fill-opacity:1"
       id="g151">
      <use
         xlink:href="#glyph0-1"
         x="330.35699"
         y="158.077"
         id="use149"
         width="100%"
         height="100%" />
    </g>
    <g
       style="fill:#000000;fill-opacity:1"
       id="g155">
      <use
         xlink:href="#glyph1-4"
         x="338.10599"
         y="158.077"
         id="use153"
         width="100%"
         height="100%" />
    </g>
    <g
       style="fill:#000000;fill-opacity:1"
       id="g159">
      <use
         xlink:href="#glyph0-1"
         x="358.42999"
         y="158.077"
         id="use157"
         width="100%"
         height="100%" />
    </g>
    <g
       style="fill:#000000;fill-opacity:1"
       id="g163">
      <use
         xlink:href="#glyph1-7"
         x="366.17899"
         y="158.077"
         id="use161"
         width="100%"
         height="100%" />
    </g>
    <g
       style="fill:#000000;fill-opacity:1"
       id="g167">
      <use
         xlink:href="#glyph1-5"
         x="265.04599"
         y="170.032"
         id="use165"
         width="100%"
         height="100%" />
    </g>
    <g
       style="fill:#000000;fill-opacity:1"
       id="g171">
      <use
         xlink:href="#glyph0-1"
         x="279.991"
         y="170.032"
         id="use169"
         width="100%"
         height="100%" />
    </g>
    <g
       style="fill:#000000;fill-opacity:1"
       id="g175">
      <use
         xlink:href="#glyph1-9"
         x="287.73901"
         y="170.032"
         id="use173"
         width="100%"
         height="100%" />
    </g>
    <g
       style="fill:#000000;fill-opacity:1"
       id="g179">
      <use
         xlink:href="#glyph0-1"
         x="302.68301"
         y="170.032"
         id="use177"
         width="100%"
         height="100%" />
    </g>
    <g
       style="fill:#000000;fill-opacity:1"
       id="g185">
      <use
         xlink:href="#glyph1-4"
         x="310.43201"
         y="170.032"
         id="use181"
         width="100%"
         height="100%" />
      <use
         xlink:href="#glyph1-8"
         x="315.4133"
         y="170.032"
         id="use183"
         width="100%"
         height="100%" />
    </g>
    <g
       style="fill:#000000;fill-opacity:1"
       id="g189">
      <use
         xlink:href="#glyph1-3"
         x="338.10599"
         y="170.032"
         id="use187"
         width="100%"
         height="100%" />
    </g>
    <g
       style="fill:#000000;fill-opacity:1"
       id="g193">
      <use
         xlink:href="#glyph0-1"
         x="353.448"
         y="170.032"
         id="use191"
         width="100%"
         height="100%" />
    </g>
    <g
       style="fill:#000000;fill-opacity:1"
       id="g199">
      <use
         xlink:href="#glyph1-5"
         x="361.19699"
         y="170.032"
         id="use195"
         width="100%"
         height="100%" />
      <use
         xlink:href="#glyph1-1"
         x="366.17831"
         y="170.032"
         id="use197"
         width="100%"
         height="100%" />
    </g>
    <g
       style="fill:#000000;fill-opacity:1"
       id="g203">
      <use
         xlink:href="#glyph1-2"
         x="174.224"
         y="187.657"
         id="use201"
         width="100%"
         height="100%" />
    </g>
    <g
       style="fill:#000000;fill-opacity:1"
       id="g207">
      <use
         xlink:href="#glyph1-8"
         x="196.916"
         y="187.657"
         id="use205"
         width="100%"
         height="100%" />
    </g>
    <g
       style="fill:#000000;fill-opacity:1"
       id="g211">
      <use
         xlink:href="#glyph1-8"
         x="211.86"
         y="187.657"
         id="use209"
         width="100%"
         height="100%" />
    </g>
    <g
       style="fill:#000000;fill-opacity:1"
       id="g215">
      <use
         xlink:href="#glyph1-8"
         x="226.804"
         y="187.657"
         id="use213"
         width="100%"
         height="100%" />
    </g>
    <g
       style="fill:#000000;fill-opacity:1"
       id="g219">
      <use
         xlink:href="#glyph0-1"
         x="257.298"
         y="187.657"
         id="use217"
         width="100%"
         height="100%" />
    </g>
    <g
       style="fill:#000000;fill-opacity:1"
       id="g223">
      <use
         xlink:href="#glyph1-1"
         x="265.047"
         y="187.657"
         id="use221"
         width="100%"
         height="100%" />
    </g>
    <g
       style="fill:#000000;fill-opacity:1"
       id="g227">
      <use
         xlink:href="#glyph1-2"
         x="287.73901"
         y="187.657"
         id="use225"
         width="100%"
         height="100%" />
    </g>
    <g
       style="fill:#000000;fill-opacity:1"
       id="g231">
      <use
         xlink:href="#glyph1-3"
         x="315.41299"
         y="187.657"
         id="use229"
         width="100%"
         height="100%" />
    </g>
    <g
       style="fill:#000000;fill-opacity:1"
       id="g235">
      <use
         xlink:href="#glyph0-1"
         x="330.35699"
         y="187.657"
         id="use233"
         width="100%"
         height="100%" />
    </g>
    <g
       style="fill:#000000;fill-opacity:1"
       id="g239">
      <use
         xlink:href="#glyph1-4"
         x="338.10599"
         y="187.657"
         id="use237"
         width="100%"
         height="100%" />
    </g>
    <g
       style="fill:#000000;fill-opacity:1"
       id="g245">
      <use
         xlink:href="#glyph1-2"
         x="361.198"
         y="187.657"
         id="use241"
         width="100%"
         height="100%" />
      <use
         xlink:href="#glyph1-3"
         x="366.17929"
         y="187.657"
         id="use243"
         width="100%"
         height="100%" />
    </g>
    <g
       style="fill:#000000;fill-opacity:1"
       id="g249">
      <use
         xlink:href="#glyph1-4"
         x="174.224"
         y="199.612"
         id="use247"
         width="100%"
         height="100%" />
    </g>
    <g
       style="fill:#000000;fill-opacity:1"
       id="g253">
      <use
         xlink:href="#glyph1-2"
         x="196.916"
         y="199.612"
         id="use251"
         width="100%"
         height="100%" />
    </g>
    <g
       style="fill:#000000;fill-opacity:1"
       id="g257">
      <use
         xlink:href="#glyph1-8"
         x="211.86"
         y="199.612"
         id="use255"
         width="100%"
         height="100%" />
    </g>
    <g
       style="fill:#000000;fill-opacity:1"
       id="g261">
      <use
         xlink:href="#glyph1-8"
         x="226.804"
         y="199.612"
         id="use259"
         width="100%"
         height="100%" />
    </g>
    <g
       style="fill:#000000;fill-opacity:1"
       id="g265">
      <use
         xlink:href="#glyph1-8"
         x="265.04599"
         y="199.612"
         id="use263"
         width="100%"
         height="100%" />
    </g>
    <g
       style="fill:#000000;fill-opacity:1"
       id="g269">
      <use
         xlink:href="#glyph0-1"
         x="279.991"
         y="199.612"
         id="use267"
         width="100%"
         height="100%" />
    </g>
    <g
       style="fill:#000000;fill-opacity:1"
       id="g273">
      <use
         xlink:href="#glyph1-2"
         x="287.73901"
         y="199.612"
         id="use271"
         width="100%"
         height="100%" />
    </g>
    <g
       style="fill:#000000;fill-opacity:1"
       id="g277">
      <use
         xlink:href="#glyph0-1"
         x="307.66501"
         y="199.612"
         id="use275"
         width="100%"
         height="100%" />
    </g>
    <g
       style="fill:#000000;fill-opacity:1"
       id="g281">
      <use
         xlink:href="#glyph1-5"
         x="315.41299"
         y="199.612"
         id="use279"
         width="100%"
         height="100%" />
    </g>
    <g
       style="fill:#000000;fill-opacity:1"
       id="g285">
      <use
         xlink:href="#glyph0-1"
         x="330.35699"
         y="199.612"
         id="use283"
         width="100%"
         height="100%" />
    </g>
    <g
       style="fill:#000000;fill-opacity:1"
       id="g289">
      <use
         xlink:href="#glyph1-1"
         x="338.10599"
         y="199.612"
         id="use287"
         width="100%"
         height="100%" />
    </g>
    <g
       style="fill:#000000;fill-opacity:1"
       id="g293">
      <use
         xlink:href="#glyph0-1"
         x="358.42999"
         y="199.612"
         id="use291"
         width="100%"
         height="100%" />
    </g>
    <g
       style="fill:#000000;fill-opacity:1"
       id="g297">
      <use
         xlink:href="#glyph1-9"
         x="366.17899"
         y="199.612"
         id="use295"
         width="100%"
         height="100%" />
    </g>
    <g
       style="fill:#000000;fill-opacity:1"
       id="g301">
      <use
         xlink:href="#glyph1-8"
         x="174.224"
         y="211.567"
         id="use299"
         width="100%"
         height="100%" />
    </g>
    <g
       style="fill:#000000;fill-opacity:1"
       id="g305">
      <use
         xlink:href="#glyph1-8"
         x="196.916"
         y="211.567"
         id="use303"
         width="100%"
         height="100%" />
    </g>
    <g
       style="fill:#000000;fill-opacity:1"
       id="g309">
      <use
         xlink:href="#glyph1-2"
         x="211.86"
         y="211.567"
         id="use307"
         width="100%"
         height="100%" />
    </g>
    <g
       style="fill:#000000;fill-opacity:1"
       id="g313">
      <use
         xlink:href="#glyph1-8"
         x="226.804"
         y="211.567"
         id="use311"
         width="100%"
         height="100%" />
    </g>
    <g
       style="fill:#000000;fill-opacity:1"
       id="g317">
      <use
         xlink:href="#glyph1-8"
         x="265.04599"
         y="211.567"
         id="use315"
         width="100%"
         height="100%" />
    </g>
    <g
       style="fill:#000000;fill-opacity:1"
       id="g321">
      <use
         xlink:href="#glyph0-1"
         x="279.991"
         y="211.567"
         id="use319"
         width="100%"
         height="100%" />
    </g>
    <g
       style="fill:#000000;fill-opacity:1"
       id="g325">
      <use
         xlink:href="#glyph1-2"
         x="287.73901"
         y="211.567"
         id="use323"
         width="100%"
         height="100%" />
    </g>
    <g
       style="fill:#000000;fill-opacity:1"
       id="g329">
      <use
         xlink:href="#glyph0-1"
         x="307.66501"
         y="211.567"
         id="use327"
         width="100%"
         height="100%" />
    </g>
    <g
       style="fill:#000000;fill-opacity:1"
       id="g333">
      <use
         xlink:href="#glyph1-3"
         x="315.41299"
         y="211.567"
         id="use331"
         width="100%"
         height="100%" />
    </g>
    <g
       style="fill:#000000;fill-opacity:1"
       id="g337">
      <use
         xlink:href="#glyph0-1"
         x="330.35699"
         y="211.567"
         id="use335"
         width="100%"
         height="100%" />
    </g>
    <g
       style="fill:#000000;fill-opacity:1"
       id="g341">
      <use
         xlink:href="#glyph1-4"
         x="338.10599"
         y="211.567"
         id="use339"
         width="100%"
         height="100%" />
    </g>
    <g
       style="fill:#000000;fill-opacity:1"
       id="g345">
      <use
         xlink:href="#glyph0-1"
         x="358.42999"
         y="211.567"
         id="use343"
         width="100%"
         height="100%" />
    </g>
    <g
       style="fill:#000000;fill-opacity:1"
       id="g349">
      <use
         xlink:href="#glyph1-7"
         x="366.17899"
         y="211.567"
         id="use347"
         width="100%"
         height="100%" />
    </g>
    <g
       style="fill:#000000;fill-opacity:1"
       id="g353">
      <use
         xlink:href="#glyph1-4"
         x="174.224"
         y="223.522"
         id="use351"
         width="100%"
         height="100%" />
    </g>
    <g
       style="fill:#000000;fill-opacity:1"
       id="g357">
      <use
         xlink:href="#glyph1-8"
         x="196.916"
         y="223.522"
         id="use355"
         width="100%"
         height="100%" />
    </g>
    <g
       style="fill:#000000;fill-opacity:1"
       id="g361">
      <use
         xlink:href="#glyph1-8"
         x="211.86"
         y="223.522"
         id="use359"
         width="100%"
         height="100%" />
    </g>
    <g
       style="fill:#000000;fill-opacity:1"
       id="g365">
      <use
         xlink:href="#glyph1-2"
         x="226.804"
         y="223.522"
         id="use363"
         width="100%"
         height="100%" />
    </g>
    <g
       style="fill:#000000;fill-opacity:1"
       id="g369">
      <use
         xlink:href="#glyph1-8"
         x="265.04599"
         y="223.522"
         id="use367"
         width="100%"
         height="100%" />
    </g>
    <g
       style="fill:#000000;fill-opacity:1"
       id="g373">
      <use
         xlink:href="#glyph0-1"
         x="279.991"
         y="223.522"
         id="use371"
         width="100%"
         height="100%" />
    </g>
    <g
       style="fill:#000000;fill-opacity:1"
       id="g377">
      <use
         xlink:href="#glyph1-1"
         x="287.73901"
         y="223.522"
         id="use375"
         width="100%"
         height="100%" />
    </g>
    <g
       style="fill:#000000;fill-opacity:1"
       id="g381">
      <use
         xlink:href="#glyph0-1"
         x="307.66501"
         y="223.522"
         id="use379"
         width="100%"
         height="100%" />
    </g>
    <g
       style="fill:#000000;fill-opacity:1"
       id="g385">
      <use
         xlink:href="#glyph1-4"
         x="315.41299"
         y="223.522"
         id="use383"
         width="100%"
         height="100%" />
    </g>
    <g
       style="fill:#000000;fill-opacity:1"
       id="g389">
      <use
         xlink:href="#glyph1-8"
         x="338.10599"
         y="223.522"
         id="use387"
         width="100%"
         height="100%" />
    </g>
    <g
       style="fill:#000000;fill-opacity:1"
       id="g393">
      <use
         xlink:href="#glyph0-1"
         x="358.42999"
         y="223.522"
         id="use391"
         width="100%"
         height="100%" />
    </g>
    <g
       style="fill:#000000;fill-opacity:1"
       id="g397">
      <use
         xlink:href="#glyph1-9"
         x="366.17899"
         y="223.522"
         id="use395"
         width="100%"
         height="100%" />
    </g>
    <g
       style="fill:#000000;fill-opacity:1"
       id="g401">
      <use
         xlink:href="#glyph1-2"
         x="174.224"
         y="241.147"
         id="use399"
         width="100%"
         height="100%" />
    </g>
    <g
       style="fill:#000000;fill-opacity:1"
       id="g405">
      <use
         xlink:href="#glyph1-8"
         x="196.916"
         y="241.147"
         id="use403"
         width="100%"
         height="100%" />
    </g>
    <g
       style="fill:#000000;fill-opacity:1"
       id="g409">
      <use
         xlink:href="#glyph1-8"
         x="211.86"
         y="241.147"
         id="use407"
         width="100%"
         height="100%" />
    </g>
    <g
       style="fill:#000000;fill-opacity:1"
       id="g413">
      <use
         xlink:href="#glyph1-8"
         x="226.804"
         y="241.147"
         id="use411"
         width="100%"
         height="100%" />
    </g>
    <g
       style="fill:#000000;fill-opacity:1"
       id="g417">
      <use
         xlink:href="#glyph0-1"
         x="257.298"
         y="241.147"
         id="use415"
         width="100%"
         height="100%" />
    </g>
    <g
       style="fill:#000000;fill-opacity:1"
       id="g421">
      <use
         xlink:href="#glyph1-1"
         x="265.047"
         y="241.147"
         id="use419"
         width="100%"
         height="100%" />
    </g>
    <g
       style="fill:#000000;fill-opacity:1"
       id="g425">
      <use
         xlink:href="#glyph1-2"
         x="287.73901"
         y="241.147"
         id="use423"
         width="100%"
         height="100%" />
    </g>
    <g
       style="fill:#000000;fill-opacity:1"
       id="g429">
      <use
         xlink:href="#glyph1-3"
         x="315.41299"
         y="241.147"
         id="use427"
         width="100%"
         height="100%" />
    </g>
    <g
       style="fill:#000000;fill-opacity:1"
       id="g433">
      <use
         xlink:href="#glyph0-1"
         x="330.35699"
         y="241.147"
         id="use431"
         width="100%"
         height="100%" />
    </g>
    <g
       style="fill:#000000;fill-opacity:1"
       id="g437">
      <use
         xlink:href="#glyph1-4"
         x="338.10599"
         y="241.147"
         id="use435"
         width="100%"
         height="100%" />
    </g>
    <g
       style="fill:#000000;fill-opacity:1"
       id="g443">
      <use
         xlink:href="#glyph1-2"
         x="361.198"
         y="241.147"
         id="use439"
         width="100%"
         height="100%" />
      <use
         xlink:href="#glyph1-3"
         x="366.17929"
         y="241.147"
         id="use441"
         width="100%"
         height="100%" />
    </g>
    <g
       style="fill:#000000;fill-opacity:1"
       id="g447">
      <use
         xlink:href="#glyph1-8"
         x="174.224"
         y="253.10201"
         id="use445"
         width="100%"
         height="100%" />
    </g>
    <g
       style="fill:#000000;fill-opacity:1"
       id="g451">
      <use
         xlink:href="#glyph1-2"
         x="196.916"
         y="253.10201"
         id="use449"
         width="100%"
         height="100%" />
    </g>
    <g
       style="fill:#000000;fill-opacity:1"
       id="g455">
      <use
         xlink:href="#glyph1-8"
         x="211.86"
         y="253.10201"
         id="use453"
         width="100%"
         height="100%" />
    </g>
    <g
       style="fill:#000000;fill-opacity:1"
       id="g459">
      <use
         xlink:href="#glyph1-8"
         x="226.804"
         y="253.10201"
         id="use457"
         width="100%"
         height="100%" />
    </g>
    <g
       style="fill:#000000;fill-opacity:1"
       id="g463">
      <use
         xlink:href="#glyph1-8"
         x="265.04599"
         y="253.10201"
         id="use461"
         width="100%"
         height="100%" />
    </g>
    <g
       style="fill:#000000;fill-opacity:1"
       id="g467">
      <use
         xlink:href="#glyph0-1"
         x="279.991"
         y="253.10201"
         id="use465"
         width="100%"
         height="100%" />
    </g>
    <g
       style="fill:#000000;fill-opacity:1"
       id="g471">
      <use
         xlink:href="#glyph1-2"
         x="287.73901"
         y="253.10201"
         id="use469"
         width="100%"
         height="100%" />
    </g>
    <g
       style="fill:#000000;fill-opacity:1"
       id="g475">
      <use
         xlink:href="#glyph0-1"
         x="307.66501"
         y="253.10201"
         id="use473"
         width="100%"
         height="100%" />
    </g>
    <g
       style="fill:#000000;fill-opacity:1"
       id="g479">
      <use
         xlink:href="#glyph1-5"
         x="315.41299"
         y="253.10201"
         id="use477"
         width="100%"
         height="100%" />
    </g>
    <g
       style="fill:#000000;fill-opacity:1"
       id="g483">
      <use
         xlink:href="#glyph0-1"
         x="330.35699"
         y="253.10201"
         id="use481"
         width="100%"
         height="100%" />
    </g>
    <g
       style="fill:#000000;fill-opacity:1"
       id="g487">
      <use
         xlink:href="#glyph1-1"
         x="338.10599"
         y="253.10201"
         id="use485"
         width="100%"
         height="100%" />
    </g>
    <g
       style="fill:#000000;fill-opacity:1"
       id="g491">
      <use
         xlink:href="#glyph0-1"
         x="358.42999"
         y="253.10201"
         id="use489"
         width="100%"
         height="100%" />
    </g>
    <g
       style="fill:#000000;fill-opacity:1"
       id="g495">
      <use
         xlink:href="#glyph1-9"
         x="366.17899"
         y="253.10201"
         id="use493"
         width="100%"
         height="100%" />
    </g>
    <g
       style="fill:#000000;fill-opacity:1"
       id="g499">
      <use
         xlink:href="#glyph1-8"
         x="174.224"
         y="265.05701"
         id="use497"
         width="100%"
         height="100%" />
    </g>
    <g
       style="fill:#000000;fill-opacity:1"
       id="g503">
      <use
         xlink:href="#glyph0-1"
         x="189.168"
         y="265.05701"
         id="use501"
         width="100%"
         height="100%" />
    </g>
    <g
       style="fill:#000000;fill-opacity:1"
       id="g507">
      <use
         xlink:href="#glyph1-2"
         x="196.91701"
         y="265.05701"
         id="use505"
         width="100%"
         height="100%" />
    </g>
    <g
       style="fill:#000000;fill-opacity:1"
       id="g511">
      <use
         xlink:href="#glyph1-2"
         x="211.86"
         y="265.05701"
         id="use509"
         width="100%"
         height="100%" />
    </g>
    <g
       style="fill:#000000;fill-opacity:1"
       id="g515">
      <use
         xlink:href="#glyph1-8"
         x="226.804"
         y="265.05701"
         id="use513"
         width="100%"
         height="100%" />
    </g>
    <g
       style="fill:#000000;fill-opacity:1"
       id="g519">
      <use
         xlink:href="#glyph1-8"
         x="265.04599"
         y="265.05701"
         id="use517"
         width="100%"
         height="100%" />
    </g>
    <g
       style="fill:#000000;fill-opacity:1"
       id="g523">
      <use
         xlink:href="#glyph1-8"
         x="287.73901"
         y="265.05701"
         id="use521"
         width="100%"
         height="100%" />
    </g>
    <g
       style="fill:#000000;fill-opacity:1"
       id="g527">
      <use
         xlink:href="#glyph0-1"
         x="307.66501"
         y="265.05701"
         id="use525"
         width="100%"
         height="100%" />
    </g>
    <g
       style="fill:#000000;fill-opacity:1"
       id="g531">
      <use
         xlink:href="#glyph1-4"
         x="315.41299"
         y="265.05701"
         id="use529"
         width="100%"
         height="100%" />
    </g>
    <g
       style="fill:#000000;fill-opacity:1"
       id="g535">
      <use
         xlink:href="#glyph0-1"
         x="330.35699"
         y="265.05701"
         id="use533"
         width="100%"
         height="100%" />
    </g>
    <g
       style="fill:#000000;fill-opacity:1"
       id="g539">
      <use
         xlink:href="#glyph1-2"
         x="338.10599"
         y="265.05701"
         id="use537"
         width="100%"
         height="100%" />
    </g>
    <g
       style="fill:#000000;fill-opacity:1"
       id="g543">
      <use
         xlink:href="#glyph0-1"
         x="358.42999"
         y="265.05701"
         id="use541"
         width="100%"
         height="100%" />
    </g>
    <g
       style="fill:#000000;fill-opacity:1"
       id="g547">
      <use
         xlink:href="#glyph1-1"
         x="366.17899"
         y="265.05701"
         id="use545"
         width="100%"
         height="100%" />
    </g>
    <g
       style="fill:#000000;fill-opacity:1"
       id="g551">
      <use
         xlink:href="#glyph1-8"
         x="174.224"
         y="277.01199"
         id="use549"
         width="100%"
         height="100%" />
    </g>
    <g
       style="fill:#000000;fill-opacity:1"
       id="g555">
      <use
         xlink:href="#glyph0-1"
         x="189.168"
         y="277.01199"
         id="use553"
         width="100%"
         height="100%" />
    </g>
    <g
       style="fill:#000000;fill-opacity:1"
       id="g559">
      <use
         xlink:href="#glyph1-1"
         x="196.91701"
         y="277.01199"
         id="use557"
         width="100%"
         height="100%" />
    </g>
    <g
       style="fill:#000000;fill-opacity:1"
       id="g563">
      <use
         xlink:href="#glyph1-8"
         x="211.86"
         y="277.01199"
         id="use561"
         width="100%"
         height="100%" />
    </g>
    <g
       style="fill:#000000;fill-opacity:1"
       id="g567">
      <use
         xlink:href="#glyph1-2"
         x="226.804"
         y="277.01199"
         id="use565"
         width="100%"
         height="100%" />
    </g>
    <g
       style="fill:#000000;fill-opacity:1"
       id="g571">
      <use
         xlink:href="#glyph1-8"
         x="265.04599"
         y="277.01199"
         id="use569"
         width="100%"
         height="100%" />
    </g>
    <g
       style="fill:#000000;fill-opacity:1"
       id="g575">
      <use
         xlink:href="#glyph1-8"
         x="287.73901"
         y="277.01199"
         id="use573"
         width="100%"
         height="100%" />
    </g>
    <g
       style="fill:#000000;fill-opacity:1"
       id="g579">
      <use
         xlink:href="#glyph1-3"
         x="315.41299"
         y="277.01199"
         id="use577"
         width="100%"
         height="100%" />
    </g>
    <g
       style="fill:#000000;fill-opacity:1"
       id="g583">
      <use
         xlink:href="#glyph1-6"
         x="338.10599"
         y="277.01199"
         id="use581"
         width="100%"
         height="100%" />
    </g>
    <g
       style="fill:#000000;fill-opacity:1"
       id="g587">
      <use
         xlink:href="#glyph1-9"
         x="366.17801"
         y="277.01199"
         id="use585"
         width="100%"
         height="100%" />
    </g>
    <g
       style="fill:#000000;fill-opacity:1"
       id="g591">
      <use
         xlink:href="#glyph1-2"
         x="174.224"
         y="294.63699"
         id="use589"
         width="100%"
         height="100%" />
    </g>
    <g
       style="fill:#000000;fill-opacity:1"
       id="g595">
      <use
         xlink:href="#glyph1-8"
         x="196.916"
         y="294.63699"
         id="use593"
         width="100%"
         height="100%" />
    </g>
    <g
       style="fill:#000000;fill-opacity:1"
       id="g599">
      <use
         xlink:href="#glyph1-8"
         x="211.86"
         y="294.63699"
         id="use597"
         width="100%"
         height="100%" />
    </g>
    <g
       style="fill:#000000;fill-opacity:1"
       id="g603">
      <use
         xlink:href="#glyph1-8"
         x="226.804"
         y="294.63699"
         id="use601"
         width="100%"
         height="100%" />
    </g>
    <g
       style="fill:#000000;fill-opacity:1"
       id="g607">
      <use
         xlink:href="#glyph0-1"
         x="257.298"
         y="294.63699"
         id="use605"
         width="100%"
         height="100%" />
    </g>
    <g
       style="fill:#000000;fill-opacity:1"
       id="g611">
      <use
         xlink:href="#glyph1-1"
         x="265.047"
         y="294.63699"
         id="use609"
         width="100%"
         height="100%" />
    </g>
    <g
       style="fill:#000000;fill-opacity:1"
       id="g615">
      <use
         xlink:href="#glyph1-2"
         x="287.73901"
         y="294.63699"
         id="use613"
         width="100%"
         height="100%" />
    </g>
    <g
       style="fill:#000000;fill-opacity:1"
       id="g619">
      <use
         xlink:href="#glyph1-3"
         x="315.41299"
         y="294.63699"
         id="use617"
         width="100%"
         height="100%" />
    </g>
    <g
       style="fill:#000000;fill-opacity:1"
       id="g623">
      <use
         xlink:href="#glyph0-1"
         x="330.35699"
         y="294.63699"
         id="use621"
         width="100%"
         height="100%" />
    </g>
    <g
       style="fill:#000000;fill-opacity:1"
       id="g627">
      <use
         xlink:href="#glyph1-4"
         x="338.10599"
         y="294.63699"
         id="use625"
         width="100%"
         height="100%" />
    </g>
    <g
       style="fill:#000000;fill-opacity:1"
       id="g633">
      <use
         xlink:href="#glyph1-2"
         x="361.198"
         y="294.63699"
         id="use629"
         width="100%"
         height="100%" />
      <use
         xlink:href="#glyph1-3"
         x="366.17929"
         y="294.63699"
         id="use631"
         width="100%"
         height="100%" />
    </g>
    <g
       style="fill:#000000;fill-opacity:1"
       id="g637">
      <use
         xlink:href="#glyph1-8"
         x="174.224"
         y="306.59201"
         id="use635"
         width="100%"
         height="100%" />
    </g>
    <g
       style="fill:#000000;fill-opacity:1"
       id="g641">
      <use
         xlink:href="#glyph1-2"
         x="196.916"
         y="306.59201"
         id="use639"
         width="100%"
         height="100%" />
    </g>
    <g
       style="fill:#000000;fill-opacity:1"
       id="g645">
      <use
         xlink:href="#glyph1-8"
         x="211.86"
         y="306.59201"
         id="use643"
         width="100%"
         height="100%" />
    </g>
    <g
       style="fill:#000000;fill-opacity:1"
       id="g649">
      <use
         xlink:href="#glyph1-8"
         x="226.804"
         y="306.59201"
         id="use647"
         width="100%"
         height="100%" />
    </g>
    <g
       style="fill:#000000;fill-opacity:1"
       id="g653">
      <use
         xlink:href="#glyph1-8"
         x="265.04599"
         y="306.59201"
         id="use651"
         width="100%"
         height="100%" />
    </g>
    <g
       style="fill:#000000;fill-opacity:1"
       id="g657">
      <use
         xlink:href="#glyph0-1"
         x="279.991"
         y="306.59201"
         id="use655"
         width="100%"
         height="100%" />
    </g>
    <g
       style="fill:#000000;fill-opacity:1"
       id="g661">
      <use
         xlink:href="#glyph1-2"
         x="287.73901"
         y="306.59201"
         id="use659"
         width="100%"
         height="100%" />
    </g>
    <g
       style="fill:#000000;fill-opacity:1"
       id="g665">
      <use
         xlink:href="#glyph0-1"
         x="307.66501"
         y="306.59201"
         id="use663"
         width="100%"
         height="100%" />
    </g>
    <g
       style="fill:#000000;fill-opacity:1"
       id="g669">
      <use
         xlink:href="#glyph1-5"
         x="315.41299"
         y="306.59201"
         id="use667"
         width="100%"
         height="100%" />
    </g>
    <g
       style="fill:#000000;fill-opacity:1"
       id="g673">
      <use
         xlink:href="#glyph0-1"
         x="330.35699"
         y="306.59201"
         id="use671"
         width="100%"
         height="100%" />
    </g>
    <g
       style="fill:#000000;fill-opacity:1"
       id="g677">
      <use
         xlink:href="#glyph1-1"
         x="338.10599"
         y="306.59201"
         id="use675"
         width="100%"
         height="100%" />
    </g>
    <g
       style="fill:#000000;fill-opacity:1"
       id="g681">
      <use
         xlink:href="#glyph0-1"
         x="358.42999"
         y="306.59201"
         id="use679"
         width="100%"
         height="100%" />
    </g>
    <g
       style="fill:#000000;fill-opacity:1"
       id="g685">
      <use
         xlink:href="#glyph1-9"
         x="366.17899"
         y="306.59201"
         id="use683"
         width="100%"
         height="100%" />
    </g>
    <g
       style="fill:#000000;fill-opacity:1"
       id="g689">
      <use
         xlink:href="#glyph1-8"
         x="174.224"
         y="318.547"
         id="use687"
         width="100%"
         height="100%" />
    </g>
    <g
       style="fill:#000000;fill-opacity:1"
       id="g693">
      <use
         xlink:href="#glyph1-8"
         x="196.916"
         y="318.547"
         id="use691"
         width="100%"
         height="100%" />
    </g>
    <g
       style="fill:#000000;fill-opacity:1"
       id="g697">
      <use
         xlink:href="#glyph1-2"
         x="211.86"
         y="318.547"
         id="use695"
         width="100%"
         height="100%" />
    </g>
    <g
       style="fill:#000000;fill-opacity:1"
       id="g701">
      <use
         xlink:href="#glyph1-8"
         x="226.804"
         y="318.547"
         id="use699"
         width="100%"
         height="100%" />
    </g>
    <g
       style="fill:#000000;fill-opacity:1"
       id="g705">
      <use
         xlink:href="#glyph1-8"
         x="265.04599"
         y="318.547"
         id="use703"
         width="100%"
         height="100%" />
    </g>
    <g
       style="fill:#000000;fill-opacity:1"
       id="g709">
      <use
         xlink:href="#glyph1-8"
         x="287.73901"
         y="318.547"
         id="use707"
         width="100%"
         height="100%" />
    </g>
    <g
       style="fill:#000000;fill-opacity:1"
       id="g713">
      <use
         xlink:href="#glyph0-1"
         x="307.66501"
         y="318.547"
         id="use711"
         width="100%"
         height="100%" />
    </g>
    <g
       style="fill:#000000;fill-opacity:1"
       id="g717">
      <use
         xlink:href="#glyph1-4"
         x="315.41299"
         y="318.547"
         id="use715"
         width="100%"
         height="100%" />
    </g>
    <g
       style="fill:#000000;fill-opacity:1"
       id="g721">
      <use
         xlink:href="#glyph0-1"
         x="330.35699"
         y="318.547"
         id="use719"
         width="100%"
         height="100%" />
    </g>
    <g
       style="fill:#000000;fill-opacity:1"
       id="g725">
      <use
         xlink:href="#glyph1-2"
         x="338.10599"
         y="318.547"
         id="use723"
         width="100%"
         height="100%" />
    </g>
    <g
       style="fill:#000000;fill-opacity:1"
       id="g729">
      <use
         xlink:href="#glyph0-1"
         x="358.42999"
         y="318.547"
         id="use727"
         width="100%"
         height="100%" />
    </g>
    <g
       style="fill:#000000;fill-opacity:1"
       id="g733">
      <use
         xlink:href="#glyph1-1"
         x="366.17899"
         y="318.547"
         id="use731"
         width="100%"
         height="100%" />
    </g>
    <g
       style="fill:#000000;fill-opacity:1"
       id="g737">
      <use
         xlink:href="#glyph1-8"
         x="174.224"
         y="330.50201"
         id="use735"
         width="100%"
         height="100%" />
    </g>
    <g
       style="fill:#000000;fill-opacity:1"
       id="g741">
      <use
         xlink:href="#glyph1-8"
         x="196.916"
         y="330.50201"
         id="use739"
         width="100%"
         height="100%" />
    </g>
    <g
       style="fill:#000000;fill-opacity:1"
       id="g745">
      <use
         xlink:href="#glyph1-4"
         x="211.86"
         y="330.50201"
         id="use743"
         width="100%"
         height="100%" />
    </g>
    <g
       style="fill:#000000;fill-opacity:1"
       id="g749">
      <use
         xlink:href="#glyph1-2"
         x="226.804"
         y="330.50201"
         id="use747"
         width="100%"
         height="100%" />
    </g>
    <g
       style="fill:#000000;fill-opacity:1"
       id="g753">
      <use
         xlink:href="#glyph1-8"
         x="265.04599"
         y="330.50201"
         id="use751"
         width="100%"
         height="100%" />
    </g>
    <g
       style="fill:#000000;fill-opacity:1"
       id="g757">
      <use
         xlink:href="#glyph1-8"
         x="287.73901"
         y="330.50201"
         id="use755"
         width="100%"
         height="100%" />
    </g>
    <g
       style="fill:#000000;fill-opacity:1"
       id="g761">
      <use
         xlink:href="#glyph1-8"
         x="315.41299"
         y="330.50201"
         id="use759"
         width="100%"
         height="100%" />
    </g>
    <g
       style="fill:#000000;fill-opacity:1"
       id="g765">
      <use
         xlink:href="#glyph1-2"
         x="338.10599"
         y="330.50201"
         id="use763"
         width="100%"
         height="100%" />
    </g>
    <g
       style="fill:#000000;fill-opacity:1"
       id="g769">
      <use
         xlink:href="#glyph0-1"
         x="358.42999"
         y="330.50201"
         id="use767"
         width="100%"
         height="100%" />
    </g>
    <g
       style="fill:#000000;fill-opacity:1"
       id="g773">
      <use
         xlink:href="#glyph1-2"
         x="366.17899"
         y="330.50201"
         id="use771"
         width="100%"
         height="100%" />
    </g>
    <path
       style="fill:none;stroke:#000000;stroke-width:0.43834;stroke-linecap:butt;stroke-linejoin:miter;stroke-miterlimit:10;stroke-opacity:1"
       d="M -22.890469,106.83634 V 59.016031"
       transform="matrix(1,0,0,-1,371.16,232.434)"
       id="path775" />
    <g
       style="fill:#000000;fill-opacity:1"
       id="g779">
      <use
         xlink:href="#glyph2-1"
         x="248.161"
         y="125.996"
         id="use777"
         width="100%"
         height="100%" />
    </g>
    <g
       style="fill:#000000;fill-opacity:1"
       id="g783">
      <use
         xlink:href="#glyph2-2"
         x="248.161"
         y="143.53101"
         id="use781"
         width="100%"
         height="100%" />
    </g>
    <g
       style="fill:#000000;fill-opacity:1"
       id="g787">
      <use
         xlink:href="#glyph2-2"
         x="248.161"
         y="149.509"
         id="use785"
         width="100%"
         height="100%" />
    </g>
    <g
       style="fill:#000000;fill-opacity:1"
       id="g791">
      <use
         xlink:href="#glyph2-3"
         x="248.161"
         y="155.88499"
         id="use789"
         width="100%"
         height="100%" />
    </g>
    <g
       style="fill:#000000;fill-opacity:1"
       id="g795">
      <use
         xlink:href="#glyph2-4"
         x="371.578"
         y="125.996"
         id="use793"
         width="100%"
         height="100%" />
    </g>
    <g
       style="fill:#000000;fill-opacity:1"
       id="g799">
      <use
         xlink:href="#glyph2-5"
         x="371.578"
         y="143.53101"
         id="use797"
         width="100%"
         height="100%" />
    </g>
    <g
       style="fill:#000000;fill-opacity:1"
       id="g803">
      <use
         xlink:href="#glyph2-5"
         x="371.578"
         y="149.509"
         id="use801"
         width="100%"
         height="100%" />
    </g>
    <g
       style="fill:#000000;fill-opacity:1"
       id="g807">
      <use
         xlink:href="#glyph2-6"
         x="371.578"
         y="155.88499"
         id="use805"
         width="100%"
         height="100%" />
    </g>
    <g
       style="fill:#000000;fill-opacity:1"
       id="g811">
      <use
         xlink:href="#glyph2-1"
         x="165.086"
         y="179.48599"
         id="use809"
         width="100%"
         height="100%" />
    </g>
    <g
       style="fill:#000000;fill-opacity:1"
       id="g815">
      <use
         xlink:href="#glyph2-2"
         x="165.086"
         y="197.021"
         id="use813"
         width="100%"
         height="100%" />
    </g>
    <g
       style="fill:#000000;fill-opacity:1"
       id="g819">
      <use
         xlink:href="#glyph2-2"
         x="165.086"
         y="202.99899"
         id="use817"
         width="100%"
         height="100%" />
    </g>
    <g
       style="fill:#000000;fill-opacity:1"
       id="g823">
      <use
         xlink:href="#glyph2-3"
         x="165.086"
         y="209.375"
         id="use821"
         width="100%"
         height="100%" />
    </g>
    <g
       style="fill:#000000;fill-opacity:1"
       id="g827">
      <use
         xlink:href="#glyph2-4"
         x="232.203"
         y="179.48599"
         id="use825"
         width="100%"
         height="100%" />
    </g>
    <g
       style="fill:#000000;fill-opacity:1"
       id="g831">
      <use
         xlink:href="#glyph2-5"
         x="232.203"
         y="197.021"
         id="use829"
         width="100%"
         height="100%" />
    </g>
    <g
       style="fill:#000000;fill-opacity:1"
       id="g835">
      <use
         xlink:href="#glyph2-5"
         x="232.203"
         y="202.99899"
         id="use833"
         width="100%"
         height="100%" />
    </g>
    <g
       style="fill:#000000;fill-opacity:1"
       id="g839">
      <use
         xlink:href="#glyph2-6"
         x="232.203"
         y="209.375"
         id="use837"
         width="100%"
         height="100%" />
    </g>
    <path
       style="fill:none;stroke:#000000;stroke-width:0.43834;stroke-linecap:butt;stroke-linejoin:miter;stroke-miterlimit:10;stroke-opacity:1"
       d="M -22.890469,53.344156 V 5.523844"
       transform="matrix(1,0,0,-1,371.16,232.434)"
       id="path841" />
    <g
       style="fill:#000000;fill-opacity:1"
       id="g845">
      <use
         xlink:href="#glyph2-1"
         x="248.161"
         y="179.48599"
         id="use843"
         width="100%"
         height="100%" />
    </g>
    <g
       style="fill:#000000;fill-opacity:1"
       id="g849">
      <use
         xlink:href="#glyph2-2"
         x="248.161"
         y="197.021"
         id="use847"
         width="100%"
         height="100%" />
    </g>
    <g
       style="fill:#000000;fill-opacity:1"
       id="g853">
      <use
         xlink:href="#glyph2-2"
         x="248.161"
         y="202.99899"
         id="use851"
         width="100%"
         height="100%" />
    </g>
    <g
       style="fill:#000000;fill-opacity:1"
       id="g857">
      <use
         xlink:href="#glyph2-3"
         x="248.161"
         y="209.375"
         id="use855"
         width="100%"
         height="100%" />
    </g>
    <g
       style="fill:#000000;fill-opacity:1"
       id="g861">
      <use
         xlink:href="#glyph2-4"
         x="371.578"
         y="179.48599"
         id="use859"
         width="100%"
         height="100%" />
    </g>
    <g
       style="fill:#000000;fill-opacity:1"
       id="g865">
      <use
         xlink:href="#glyph2-5"
         x="371.578"
         y="197.021"
         id="use863"
         width="100%"
         height="100%" />
    </g>
    <g
       style="fill:#000000;fill-opacity:1"
       id="g869">
      <use
         xlink:href="#glyph2-5"
         x="371.578"
         y="202.99899"
         id="use867"
         width="100%"
         height="100%" />
    </g>
    <g
       style="fill:#000000;fill-opacity:1"
       id="g873">
      <use
         xlink:href="#glyph2-6"
         x="371.578"
         y="209.375"
         id="use871"
         width="100%"
         height="100%" />
    </g>
    <g
       style="fill:#000000;fill-opacity:1"
       id="g877">
      <use
         xlink:href="#glyph2-1"
         x="165.086"
         y="232.97701"
         id="use875"
         width="100%"
         height="100%" />
    </g>
    <g
       style="fill:#000000;fill-opacity:1"
       id="g881">
      <use
         xlink:href="#glyph2-2"
         x="165.086"
         y="250.51199"
         id="use879"
         width="100%"
         height="100%" />
    </g>
    <g
       style="fill:#000000;fill-opacity:1"
       id="g885">
      <use
         xlink:href="#glyph2-2"
         x="165.086"
         y="256.48999"
         id="use883"
         width="100%"
         height="100%" />
    </g>
    <g
       style="fill:#000000;fill-opacity:1"
       id="g889">
      <use
         xlink:href="#glyph2-3"
         x="165.086"
         y="262.866"
         id="use887"
         width="100%"
         height="100%" />
    </g>
    <g
       style="fill:#000000;fill-opacity:1"
       id="g893">
      <use
         xlink:href="#glyph2-4"
         x="232.203"
         y="232.97701"
         id="use891"
         width="100%"
         height="100%" />
    </g>
    <g
       style="fill:#000000;fill-opacity:1"
       id="g897">
      <use
         xlink:href="#glyph2-5"
         x="232.203"
         y="250.51199"
         id="use895"
         width="100%"
         height="100%" />
    </g>
    <g
       style="fill:#000000;fill-opacity:1"
       id="g901">
      <use
         xlink:href="#glyph2-5"
         x="232.203"
         y="256.48999"
         id="use899"
         width="100%"
         height="100%" />
    </g>
    <g
       style="fill:#000000;fill-opacity:1"
       id="g905">
      <use
         xlink:href="#glyph2-6"
         x="232.203"
         y="262.866"
         id="use903"
         width="100%"
         height="100%" />
    </g>
    <path
       style="fill:none;stroke:#000000;stroke-width:0.43834;stroke-linecap:butt;stroke-linejoin:miter;stroke-miterlimit:10;stroke-opacity:1"
       d="M -22.890469,-0.144125 V -47.964438"
       transform="matrix(1,0,0,-1,371.16,232.434)"
       id="path907" />
    <g
       style="fill:#000000;fill-opacity:1"
       id="g911">
      <use
         xlink:href="#glyph2-1"
         x="248.161"
         y="232.97701"
         id="use909"
         width="100%"
         height="100%" />
    </g>
    <g
       style="fill:#000000;fill-opacity:1"
       id="g915">
      <use
         xlink:href="#glyph2-2"
         x="248.161"
         y="250.51199"
         id="use913"
         width="100%"
         height="100%" />
    </g>
    <g
       style="fill:#000000;fill-opacity:1"
       id="g919">
      <use
         xlink:href="#glyph2-2"
         x="248.161"
         y="256.48999"
         id="use917"
         width="100%"
         height="100%" />
    </g>
    <g
       style="fill:#000000;fill-opacity:1"
       id="g923">
      <use
         xlink:href="#glyph2-3"
         x="248.161"
         y="262.866"
         id="use921"
         width="100%"
         height="100%" />
    </g>
    <g
       style="fill:#000000;fill-opacity:1"
       id="g927">
      <use
         xlink:href="#glyph2-4"
         x="371.578"
         y="232.97701"
         id="use925"
         width="100%"
         height="100%" />
    </g>
    <g
       style="fill:#000000;fill-opacity:1"
       id="g931">
      <use
         xlink:href="#glyph2-5"
         x="371.578"
         y="250.51199"
         id="use929"
         width="100%"
         height="100%" />
    </g>
    <g
       style="fill:#000000;fill-opacity:1"
       id="g935">
      <use
         xlink:href="#glyph2-5"
         x="371.578"
         y="256.48999"
         id="use933"
         width="100%"
         height="100%" />
    </g>
    <g
       style="fill:#000000;fill-opacity:1"
       id="g939">
      <use
         xlink:href="#glyph2-6"
         x="371.578"
         y="262.866"
         id="use937"
         width="100%"
         height="100%" />
    </g>
    <g
       style="fill:#000000;fill-opacity:1"
       id="g943">
      <use
         xlink:href="#glyph2-1"
         x="165.086"
         y="286.46799"
         id="use941"
         width="100%"
         height="100%" />
    </g>
    <g
       style="fill:#000000;fill-opacity:1"
       id="g947">
      <use
         xlink:href="#glyph2-2"
         x="165.086"
         y="304.00299"
         id="use945"
         width="100%"
         height="100%" />
    </g>
    <g
       style="fill:#000000;fill-opacity:1"
       id="g951">
      <use
         xlink:href="#glyph2-2"
         x="165.086"
         y="309.98099"
         id="use949"
         width="100%"
         height="100%" />
    </g>
    <g
       style="fill:#000000;fill-opacity:1"
       id="g955">
      <use
         xlink:href="#glyph2-3"
         x="165.086"
         y="316.35699"
         id="use953"
         width="100%"
         height="100%" />
    </g>
    <g
       style="fill:#000000;fill-opacity:1"
       id="g959">
      <use
         xlink:href="#glyph2-4"
         x="232.203"
         y="286.46799"
         id="use957"
         width="100%"
         height="100%" />
    </g>
    <g
       style="fill:#000000;fill-opacity:1"
       id="g963">
      <use
         xlink:href="#glyph2-5"
         x="232.203"
         y="304.00299"
         id="use961"
         width="100%"
         height="100%" />
    </g>
    <g
       style="fill:#000000;fill-opacity:1"
       id="g967">
      <use
         xlink:href="#glyph2-5"
         x="232.203"
         y="309.98099"
         id="use965"
         width="100%"
         height="100%" />
    </g>
    <g
       style="fill:#000000;fill-opacity:1"
       id="g971">
      <use
         xlink:href="#glyph2-6"
         x="232.203"
         y="316.35699"
         id="use969"
         width="100%"
         height="100%" />
    </g>
    <path
       style="fill:none;stroke:#000000;stroke-width:0.43834;stroke-linecap:butt;stroke-linejoin:miter;stroke-miterlimit:10;stroke-opacity:1"
       d="M -22.890469,-53.636313 V -101.45663"
       transform="matrix(1,0,0,-1,371.16,232.434)"
       id="path973" />
    <g
       style="fill:#000000;fill-opacity:1"
       id="g977">
      <use
         xlink:href="#glyph2-1"
         x="248.161"
         y="286.46799"
         id="use975"
         width="100%"
         height="100%" />
    </g>
    <g
       style="fill:#000000;fill-opacity:1"
       id="g981">
      <use
         xlink:href="#glyph2-2"
         x="248.161"
         y="304.00299"
         id="use979"
         width="100%"
         height="100%" />
    </g>
    <g
       style="fill:#000000;fill-opacity:1"
       id="g985">
      <use
         xlink:href="#glyph2-2"
         x="248.161"
         y="309.98099"
         id="use983"
         width="100%"
         height="100%" />
    </g>
    <g
       style="fill:#000000;fill-opacity:1"
       id="g989">
      <use
         xlink:href="#glyph2-3"
         x="248.161"
         y="316.35699"
         id="use987"
         width="100%"
         height="100%" />
    </g>
    <g
       style="fill:#000000;fill-opacity:1"
       id="g993">
      <use
         xlink:href="#glyph2-4"
         x="371.578"
         y="286.46799"
         id="use991"
         width="100%"
         height="100%" />
    </g>
    <g
       style="fill:#000000;fill-opacity:1"
       id="g997">
      <use
         xlink:href="#glyph2-5"
         x="371.578"
         y="304.00299"
         id="use995"
         width="100%"
         height="100%" />
    </g>
    <g
       style="fill:#000000;fill-opacity:1"
       id="g1001">
      <use
         xlink:href="#glyph2-5"
         x="371.578"
         y="309.98099"
         id="use999"
         width="100%"
         height="100%" />
    </g>
    <g
       style="fill:#000000;fill-opacity:1"
       id="g1005">
      <use
         xlink:href="#glyph2-6"
         x="371.578"
         y="316.35699"
         id="use1003"
         width="100%"
         height="100%" />
    </g>
    <path
       style="fill:none;stroke:#ff0000;stroke-width:0.3985;stroke-linecap:butt;stroke-linejoin:miter;stroke-miterlimit:10;stroke-opacity:1"
       d="m -114.06234,-65.987875 h 20.546871 v -11.957031 h 22.691406 v -11.953125 h 27.675782 V -101.45663 H 0.199375"
       transform="matrix(1,0,0,-1,371.16,232.434)"
       id="path1007" />
  </g>
</svg>
