<?xml version="1.0" encoding="UTF-8" standalone="no"?>
<svg
   width="167.8475pt"
   height="245.43813pt"
   viewBox="0 0 167.8475 245.43813"
   version="1.1"
   id="svg891"
   xmlns:xlink="http://www.w3.org/1999/xlink"
   xmlns="http://www.w3.org/2000/svg"
   xmlns:svg="http://www.w3.org/2000/svg">
  <defs
     id="defs112">
    <g
       id="g110">
      <symbol
         overflow="visible"
         id="glyph0-0">
        <path
           style="stroke:none"
           d=""
           id="path2" />
      </symbol>
      <symbol
         overflow="visible"
         id="glyph0-1">
        <path
           style="stroke:none"
           d="m 4.609375,-2.171875 c 0,-1.25 -0.953125,-2.234375 -2.140625,-2.234375 -0.1875,0 -0.703125,0.0625 -0.90625,0.203125 v -0.78125 c 0.015625,0 0.078125,0.015625 0.375,0.015625 1.359375,0 2.28125,-1.28125 2.28125,-1.546875 0,-0.0625 -0.15625,-0.34375 -0.265625,-0.34375 -0.03125,0 -0.15625,0.046875 -0.1875,0.078125 C 3.359375,-6.625 2.90625,-6.546875 2.5,-6.546875 c -0.609375,0 -1.046875,-0.15625 -1.328125,-0.265625 -0.0625,-0.03125 -0.09375,-0.046875 -0.125,-0.046875 C 0.890625,-6.859375 0.75,-6.5625 0.75,-6.40625 v 2.875 c 0,0.203125 0.140625,0.484375 0.375,0.484375 0.109375,0 0.234375,-0.078125 0.296875,-0.140625 C 1.53125,-3.34375 1.75,-3.71875 2.4375,-3.71875 c 0.625,0 0.484375,0.5625 0.484375,1.484375 0,0.46875 0,0.90625 -0.109375,1.203125 -0.125,0.390625 -0.34375,0.390625 -0.65625,0.390625 -0.359375,0 -0.6875,-0.140625 -0.765625,-0.3125 0.21875,0 0.578125,-0.46875 0.578125,-0.8125 0,-0.53125 -0.5625,-0.84375 -0.796875,-0.84375 -0.15625,0 -0.8125,0.25 -0.8125,0.859375 0,0.796875 0.75,1.859375 1.828125,1.859375 1.296875,0 2.421875,-0.953125 2.421875,-2.28125 z m 0,0"
           id="path5" />
      </symbol>
      <symbol
         overflow="visible"
         id="glyph0-2">
        <path
           style="stroke:none"
           d="M 4.46875,-2.546875 H 3.890625 c -0.046875,0.40625 -0.078125,0.78125 -0.203125,0.9375 -0.046875,0.078125 -0.71875,0.3125 -0.71875,0.3125 L 2.875,-1.578125 H 1.6875 l 0.09375,0.28125 C 2.046875,-1.53125 2.6875,-2.15625 2.953125,-2.40625 c 0.203125,-0.1875 0.71875,-0.625 0.921875,-0.8125 0.484375,-0.5 0.734375,-1.078125 0.734375,-1.59375 0,-1.09375 -1.03125,-2.046875 -2.25,-2.046875 -1.046875,0 -2,0.84375 -2,1.6875 0,0.59375 0.625,0.890625 0.859375,0.890625 0.3125,0 0.84375,-0.375 0.84375,-0.875 0,-0.40625 -0.390625,-0.828125 -0.4375,-0.828125 C 1.6875,-6.0625 1.96875,-6.0625 2.140625,-6.0625 c 0.84375,0 0.8125,0.84375 0.8125,1.25 0,0.5625 -0.140625,1.140625 -0.875,2.046875 L 0.5,-0.78125 c -0.09375,0.109375 -0.140625,0.25 -0.140625,0.4375 V 0 H 4.28125 l 0.359375,-2.546875 z m 0,0"
           id="path8" />
      </symbol>
      <symbol
         overflow="visible"
         id="glyph0-3">
        <path
           style="stroke:none"
           d="M 4.421875,-0.15625 V -0.796875 H 3.265625 V -6.375 c 0,-0.3125 -0.1875,-0.484375 -0.578125,-0.484375 -0.703125,0.6875 -1.65625,0.640625 -2.140625,0.640625 v 0.796875 c 0.40625,0 0.875,0 1.25,-0.125 v 4.75 H 0.6875 v 0.8125 C 1.203125,-0.03125 2.109375,-0.03125 2.546875,-0.03125 c 0.421875,0 1.359375,0 1.875,0.046875 z m 0,0"
           id="path11" />
      </symbol>
      <symbol
         overflow="visible"
         id="glyph0-4">
        <path
           style="stroke:none"
           d="M 4.96875,-6.3125 V -6.75 H 2.65625 C 2.546875,-6.75 2.125,-6.765625 1.859375,-6.78125 1.421875,-6.84375 1.53125,-6.75 1.46875,-7.0625 h -0.6875 l -0.390625,2.859375 h 0.75 c 0.0625,-0.5 0.078125,-0.78125 0.203125,-0.9375 0.046875,-0.078125 0.734375,-0.03125 0.875,-0.03125 h 1.015625 l -0.46875,0.640625 c -0.03125,0.03125 -1.3125,1.828125 -1.3125,3.78125 0,0.703125 0.6875,0.859375 0.765625,0.859375 0.15625,0 0.75,-0.203125 0.75,-0.859375 v -0.53125 c 0,-0.75 0.015625,-2.234375 0.515625,-2.890625 l 1.34375,-1.84375 C 4.921875,-6.125 4.96875,-6.25 4.96875,-6.3125 Z m 0,0"
           id="path14" />
      </symbol>
      <symbol
         overflow="visible"
         id="glyph0-5">
        <path
           style="stroke:none"
           d="m 5.21875,-0.15625 v -0.640625 h -0.75 L 3.203125,-2.640625 4.0625,-3.8125 c 0.09375,-0.125 0.046875,-0.140625 0.984375,-0.140625 v -0.8125 C 4.59375,-4.734375 4.1875,-4.71875 4,-4.71875 L 2.84375,-4.765625 v 0.8125 C 3.1875,-3.953125 3.1875,-4 3.234375,-3.96875 L 2.75,-3.296875 2.296875,-3.953125 H 2.59375 v -0.8125 l -1.3125,0.046875 c -0.375,0 -0.703125,-0.015625 -1.203125,-0.046875 v 0.8125 h 0.75 L 2,-2.265625 1.015625,-0.9375 C 0.875,-0.75 0.640625,-0.796875 0.046875,-0.796875 v 0.8125 C 0.484375,-0.015625 0.96875,-0.03125 1.09375,-0.03125 l 1.140625,0.046875 v -0.8125 C 1.8125,-0.8125 1.859375,-0.78125 1.859375,-0.78125 L 2.4375,-1.609375 3,-0.796875 H 2.703125 v 0.8125 L 4.03125,-0.03125 5.21875,0.015625 Z m 0,0"
           id="path17" />
      </symbol>
      <symbol
         overflow="visible"
         id="glyph1-0">
        <path
           style="stroke:none"
           d=""
           id="path20" />
      </symbol>
      <symbol
         overflow="visible"
         id="glyph1-1">
        <path
           style="stroke:none"
           d="m 6.5625,-2.296875 c 0.171875,0 0.5625,-0.125 0.5625,-0.328125 0,-0.203125 -0.390625,-0.328125 -0.5625,-0.328125 H 1.171875 C 1,-2.953125 0.625,-2.828125 0.625,-2.625 c 0,0.203125 0.375,0.328125 0.546875,0.328125 z m 0,0"
           id="path23" />
      </symbol>
      <symbol
         overflow="visible"
         id="glyph1-2">
        <path
           style="stroke:none"
           d="m 4.0625,-4.328125 c 0.390625,0.359375 0.53125,0.453125 0.6875,0.5625 0.328125,0.234375 0.859375,0.46875 0.90625,0.46875 0.109375,0 0.3125,-0.234375 0.3125,-0.328125 0,-0.140625 -0.0625,-0.25 -0.171875,-0.3125 C 4.203125,-4.75 3.65625,-5.90625 3.34375,-6.953125 c -0.015625,-0.0625 -0.265625,-0.21875 -0.296875,-0.21875 -0.09375,0 -0.3125,0.203125 -0.3125,0.25 -0.359375,1.1875 -0.96875,2.234375 -2.484375,3 -0.078125,0.046875 -0.140625,0.1875 -0.140625,0.296875 0,0.09375 0.203125,0.328125 0.3125,0.328125 0.0625,0 0.59375,-0.25 0.90625,-0.46875 0.203125,-0.140625 0.34375,-0.25 0.34375,-0.25 v 5.46875 c 0,0.171875 0.203125,0.484375 0.40625,0.484375 0.1875,0 0.390625,-0.3125 0.390625,-0.484375 v -6.3125 C 2.796875,-5.25 3.125,-5.875 3.234375,-6.125 H 2.84375 c 0.109375,0.265625 0.453125,0.890625 0.765625,1.265625 v 6.3125 C 3.609375,1.609375 3.8125,1.9375 4,1.9375 4.203125,1.9375 4.40625,1.625 4.40625,1.453125 V -4 Z m 0,0"
           id="path26" />
      </symbol>
      <symbol
         overflow="visible"
         id="glyph1-3">
        <path
           style="stroke:none"
           d="m 2.546875,-5.578125 c 0.25,0.390625 0.53125,0.65625 0.765625,0.859375 0.609375,0.453125 1.359375,0.59375 1.375,0.59375 0.125,0 0.328125,-0.234375 0.328125,-0.328125 0,-0.15625 -0.203125,-0.296875 -0.4375,-0.375 -0.671875,-0.1875 -0.921875,-0.5 -1.15625,-0.75 -0.5,-0.546875 -0.5625,-1.046875 -0.625,-1.375 0,-0.046875 -0.25,-0.21875 -0.296875,-0.21875 -0.09375,0 -0.3125,0.1875 -0.328125,0.3125 C 1.9375,-5.75 1.4375,-5.109375 0.34375,-4.8125 c -0.15625,0.0625 -0.375,0.203125 -0.375,0.359375 0,0.09375 0.203125,0.328125 0.328125,0.328125 0.015625,0 0.75,-0.15625 1.3125,-0.5625 C 1.9375,-4.9375 2.21875,-5.234375 2.4375,-5.578125 L 2.09375,-5.65625 V 1.453125 C 2.09375,1.625 2.296875,1.9375 2.5,1.9375 2.6875,1.9375 2.890625,1.625 2.890625,1.453125 V -5.65625 Z m 0,0"
           id="path29" />
      </symbol>
      <symbol
         overflow="visible"
         id="glyph2-0">
        <path
           style="stroke:none"
           d=""
           id="path32" />
      </symbol>
      <symbol
         overflow="visible"
         id="glyph2-1">
        <path
           style="stroke:none"
           d="m 2.890625,-3.515625 c 0.8125,-0.265625 1.5625,-1.125 1.5625,-1.90625 0,-0.8125 -1.046875,-1.546875 -2,-1.546875 -1,0 -1.9375,0.765625 -1.9375,1.53125 0,0.328125 0.390625,0.671875 0.6875,0.671875 0.296875,0 0.671875,-0.375 0.671875,-0.671875 0,-0.5 -0.640625,-0.65625 -0.484375,-0.65625 0.125,-0.21875 0.65625,-0.296875 1.015625,-0.296875 0.421875,0 0.78125,0.0625 0.78125,0.953125 0,0.125 0.03125,0.578125 -0.234375,1.015625 -0.296875,0.484375 -0.5,0.46875 -0.75,0.46875 C 2.125,-3.9375 1.890625,-3.921875 1.8125,-3.921875 1.734375,-3.90625 1.484375,-3.734375 1.484375,-3.625 c 0,0.109375 0.25,0.265625 0.421875,0.265625 h 0.4375 c 0.8125,0 1,0.515625 1,1.5 0,1.34375 -0.5,1.46875 -0.9375,1.46875 -0.4375,0 -1.0625,-0.125 -1.203125,-0.375 0.015625,0 0.5,-0.375 0.5,-0.765625 0,-0.359375 -0.4375,-0.71875 -0.71875,-0.71875 -0.25,0 -0.75,0.3125 -0.75,0.75 0,0.90625 1.109375,1.71875 2.203125,1.71875 1.21875,0 2.28125,-1.0625 2.28125,-2.078125 0,-0.828125 -0.796875,-1.765625 -1.828125,-1.984375 z m 0,0"
           id="path35" />
      </symbol>
      <symbol
         overflow="visible"
         id="glyph2-2">
        <path
           style="stroke:none"
           d="M 1.390625,-0.8125 2.4375,-1.84375 C 4,-3.21875 4.640625,-3.875 4.640625,-4.859375 4.640625,-6 3.578125,-6.96875 2.359375,-6.96875 1.234375,-6.96875 0.3125,-5.875 0.3125,-5 c 0,0.5625 0.6875,0.71875 0.71875,0.71875 0.171875,0 0.6875,-0.28125 0.6875,-0.6875 0,-0.25 -0.359375,-0.6875 -0.703125,-0.6875 -0.078125,0 -0.09375,0 0.125,-0.078125 0.140625,-0.390625 0.515625,-0.59375 1.09375,-0.59375 0.90625,0 1.15625,0.640625 1.15625,1.46875 0,0.796875 -0.453125,1.453125 -1,2.078125 l -1.90625,2.140625 C 0.375,-0.53125 0.3125,-0.40625 0.3125,0 H 4.34375 L 4.671875,-2.0625 H 4.078125 C 4,-1.59375 3.984375,-1.28125 3.875,-1.125 3.8125,-1.046875 3.28125,-1.09375 3.0625,-1.09375 H 1.265625 Z m 0,0"
           id="path38" />
      </symbol>
      <symbol
         overflow="visible"
         id="glyph2-3">
        <path
           style="stroke:none"
           d="M 3.09375,-6.546875 C 3.09375,-6.78125 2.9375,-6.96875 2.625,-6.96875 1.953125,-6.28125 1.203125,-6.328125 0.703125,-6.328125 V -5.6875 c 0.390625,0 1.09375,-0.046875 1.3125,-0.171875 v 4.90625 c 0,0.359375 0.140625,0.3125 -0.75,0.3125 h -0.5 v 0.65625 C 1.296875,-0.03125 2.15625,-0.03125 2.5625,-0.03125 c 0.390625,0 1.265625,0 1.78125,0.046875 v -0.65625 H 3.859375 c -0.90625,0 -0.765625,0.0625 -0.765625,-0.3125 z m 0,0"
           id="path41" />
      </symbol>
      <symbol
         overflow="visible"
         id="glyph2-4">
        <path
           style="stroke:none"
           d="m 1.484375,-3.421875 v -0.25 c 0,-2.515625 1.0625,-2.71875 1.578125,-2.71875 0.234375,0 0.53125,0.015625 0.5625,0.078125 0.15625,0 -0.421875,0.15625 -0.421875,0.609375 0,0.3125 0.421875,0.625 0.640625,0.625 0.15625,0 0.625,-0.25 0.625,-0.640625 0,-0.59375 -0.59375,-1.25 -1.421875,-1.25 -1.28125,0 -2.8125,1.453125 -2.8125,3.65625 0,2.671875 1.34375,3.53125 2.265625,3.53125 1.109375,0 2.21875,-1.09375 2.21875,-2.40625 0,-1.265625 -1.046875,-2.390625 -2.15625,-2.390625 -0.671875,0 -1.234375,0.671875 -1.421875,1.15625 z M 2.5,-0.390625 C 1.875,-0.390625 1.75,-0.8125 1.6875,-0.96875 1.5,-1.4375 1.5,-2.234375 1.5,-2.40625 c 0,-0.78125 0.15625,-1.625 1.046875,-1.625 0.171875,0 0.5,-0.046875 0.796875,0.578125 L 3.296875,-3.5625 c 0.1875,0.359375 0.1875,0.875 0.1875,1.359375 0,0.484375 0,0.984375 -0.078125,1.109375 C 3.0625,-0.390625 2.734375,-0.390625 2.5,-0.390625 Z m 0,0"
           id="path44" />
      </symbol>
      <symbol
         overflow="visible"
         id="glyph2-5">
        <path
           style="stroke:none"
           d="M 4.75,-3.34375 C 4.75,-4.140625 4.703125,-4.9375 4.359375,-5.6875 3.890625,-6.640625 2.90625,-6.96875 2.5,-6.96875 c -0.609375,0 -1.515625,0.421875 -1.921875,1.359375 -0.3125,0.6875 -0.375,1.46875 -0.375,2.265625 0,0.734375 0.09375,1.75 0.5,2.5 0.4375,0.8125 1.296875,1.0625 1.78125,1.0625 0.53125,0 1.46875,-0.375 1.90625,-1.3125 C 4.703125,-1.78125 4.75,-2.5625 4.75,-3.34375 Z M 2.484375,-0.328125 C 2.09375,-0.328125 1.671875,-0.40625 1.5,-1.359375 1.390625,-1.96875 1.390625,-2.875 1.390625,-3.46875 c 0,-0.640625 0,-1.296875 0.078125,-1.828125 0.1875,-1.1875 0.765625,-1.125 1.015625,-1.125 0.328125,0 0.8125,0.015625 1,1.015625 0.09375,0.546875 0.09375,1.3125 0.09375,1.9375 0,0.75 0,1.421875 -0.109375,2.0625 -0.15625,0.953125 -0.53125,1.078125 -0.984375,1.078125 z m 0,0"
           id="path47" />
      </symbol>
      <symbol
         overflow="visible"
         id="glyph3-0">
        <path
           style="stroke:none"
           d=""
           id="path50" />
      </symbol>
      <symbol
         overflow="visible"
         id="glyph3-1">
        <path
           style="stroke:none"
           d="m 1.90625,-2.328125 c 0.546875,0 0.734375,0.1875 0.734375,0.921875 0,0.875 -0.3125,0.9375 -0.703125,0.9375 -0.28125,0 -0.765625,-0.015625 -0.84375,-0.109375 -0.015625,0 0.25,-0.4375 0.25,-0.578125 0,-0.21875 -0.359375,-0.578125 -0.578125,-0.578125 -0.1875,0 -0.578125,0.3125 -0.578125,0.59375 0,0.65625 0.90625,1.28125 1.75,1.28125 0.96875,0 1.828125,-0.84375 1.828125,-1.546875 0,-0.53125 -0.625,-1.28125 -1.390625,-1.4375 v 0.390625 c 0.71875,-0.265625 1.171875,-0.984375 1.171875,-1.40625 0,-0.546875 -0.8125,-1.15625 -1.59375,-1.15625 -0.765625,0 -1.5625,0.5625 -1.5625,1.125 0,0.234375 0.359375,0.5625 0.5625,0.5625 0.21875,0 0.546875,-0.34375 0.546875,-0.546875 0,-0.203125 -0.328125,-0.546875 -0.171875,-0.53125 0,0 0.34375,-0.015625 0.609375,-0.015625 0.3125,0 0.5625,-0.046875 0.5625,0.5625 0,0.296875 -0.046875,0.484375 -0.234375,0.703125 -0.21875,0.25 -0.28125,0.203125 -0.625,0.234375 -0.171875,0.015625 -0.1875,0.015625 -0.21875,0.015625 -0.015625,0 -0.265625,0.203125 -0.265625,0.28125 0,0.109375 0.25,0.296875 0.375,0.296875 z m 0,0"
           id="path53" />
      </symbol>
      <symbol
         overflow="visible"
         id="glyph3-2">
        <path
           style="stroke:none"
           d="m 3.515625,-1.65625 h -0.40625 c -0.046875,0.34375 -0.0625,0.625 -0.140625,0.6875 -0.0625,0.046875 -0.453125,-0.015625 -0.5625,-0.015625 H 1.125 l 0.140625,0.34375 C 2,-1.296875 2.234375,-1.484375 2.65625,-1.8125 c 0.515625,-0.421875 1.046875,-0.984375 1.046875,-1.65625 0,-0.84375 -0.921875,-1.546875 -1.8125,-1.546875 -0.859375,0 -1.640625,0.796875 -1.640625,1.4375 0,0.359375 0.484375,0.59375 0.5625,0.59375 0.15625,0 0.546875,-0.3125 0.546875,-0.5625 0,-0.125 -0.234375,-0.578125 -0.328125,-0.578125 0.140625,-0.296875 0.421875,-0.25 0.75,-0.25 0.703125,0 0.859375,0.34375 0.859375,0.90625 0,0.609375 -0.375,0.953125 -0.59375,1.203125 L 0.375,-0.59375 C 0.296875,-0.53125 0.25,-0.390625 0.25,0 H 3.46875 L 3.75,-1.65625 Z m 0,0"
           id="path56" />
      </symbol>
      <symbol
         overflow="visible"
         id="glyph3-3">
        <path
           style="stroke:none"
           d="m 3.875,-1.34375 v -0.4375 H 3.09375 v -2.921875 c 0,-0.140625 -0.1875,-0.390625 -0.328125,-0.390625 -0.09375,0 -0.25,0.0625 -0.328125,0.171875 l -2.359375,3.28125 v 0.5 H 2.125 v 0.375 c 0,0.234375 0.203125,0.125 -0.375,0.125 H 1.375 v 0.65625 c 0.546875,-0.03125 0.984375,-0.046875 1.234375,-0.046875 0.265625,0 0.703125,0.015625 1.25,0.046875 v -0.65625 h -0.375 c -0.578125,0 -0.390625,0.109375 -0.390625,-0.125 v -0.375 H 3.875 Z M 2.171875,-4.140625 V -1.78125 H 0.90625 L 2.5,-4 Z m 0,0"
           id="path59" />
      </symbol>
      <symbol
         overflow="visible"
         id="glyph3-4">
        <path
           style="stroke:none"
           d="m 1.078125,-3.890625 c 0.359375,0.09375 0.5625,0.09375 0.671875,0.09375 0.921875,0 1.65625,-0.828125 1.65625,-0.921875 0,-0.078125 -0.234375,-0.296875 -0.265625,-0.296875 -0.015625,0 -0.171875,0.0625 -0.171875,0.0625 -0.0625,0.015625 -0.421875,0.15625 -0.9375,0.15625 -0.203125,0 -0.5625,-0.015625 -0.953125,-0.15625 0,0 -0.15625,-0.0625 -0.15625,-0.0625 -0.09375,0 -0.28125,0.265625 -0.28125,0.375 v 2.0625 c 0,0.125 0.1875,0.390625 0.296875,0.390625 C 1,-2.1875 1.140625,-2.25 1.21875,-2.328125 1.515625,-2.71875 1.8125,-2.71875 2.046875,-2.71875 c 0.421875,0 0.46875,0.28125 0.5,0.328125 0.125,0.234375 0.109375,0.359375 0.109375,0.765625 0,0.203125 0.0625,0.484375 -0.140625,0.796875 -0.1875,0.25 -0.34375,0.359375 -0.6875,0.359375 -0.453125,0 -0.734375,-0.0625 -0.8125,-0.296875 C 1,-0.78125 1.328125,-1.140625 1.328125,-1.328125 1.328125,-1.625 0.875,-1.875 0.78125,-1.875 c 0,0 -0.53125,0.1875 -0.53125,0.5625 0,0.625 0.765625,1.453125 1.59375,1.453125 0.890625,0 1.859375,-0.859375 1.859375,-1.734375 0,-0.796875 -0.78125,-1.703125 -1.640625,-1.703125 -0.3125,0 -0.8125,0.140625 -0.796875,0.109375 v -0.640625 z m 0,0"
           id="path62" />
      </symbol>
      <symbol
         overflow="visible"
         id="glyph3-5">
        <path
           style="stroke:none"
           d="m 2.71875,-2.265625 c 0,1.71875 -0.65625,1.796875 -1.078125,1.796875 -0.15625,0 -0.390625,0.046875 -0.328125,0.125 -0.09375,0 0.109375,-0.4375 0.109375,-0.5 0,-0.171875 -0.3125,-0.515625 -0.515625,-0.515625 -0.203125,0 -0.53125,0.328125 -0.53125,0.53125 0,0.484375 0.59375,0.96875 1.265625,0.96875 1,0 2.125,-1.140625 2.125,-2.625 0,-1.734375 -0.953125,-2.53125 -1.765625,-2.53125 -0.234375,0 -0.84375,0.09375 -1.25,0.484375 -0.234375,0.234375 -0.5625,0.640625 -0.5625,1.265625 0,0.875 0.890625,1.734375 1.703125,1.734375 0.5625,0 1,-0.421875 1.15625,-0.734375 L 2.71875,-2.40625 Z M 1.9375,-2.125 c -0.28125,0 -0.40625,-0.015625 -0.59375,-0.34375 -0.171875,-0.25 -0.109375,-0.421875 -0.109375,-0.796875 0,-0.40625 -0.0625,-0.546875 0.140625,-0.828125 0.171875,-0.234375 0.265625,-0.328125 0.625,-0.328125 0.359375,0 0.4375,0.15625 0.546875,0.34375 0.1875,0.296875 0.15625,0.640625 0.15625,0.890625 0,0.90625 -0.328125,1.0625 -0.765625,1.0625 z m 0,0"
           id="path65" />
      </symbol>
      <symbol
         overflow="visible"
         id="glyph3-6">
        <path
           style="stroke:none"
           d="m 2.515625,-4.625 c 0,-0.1875 -0.1875,-0.390625 -0.46875,-0.390625 -0.5,0.5 -1,0.4375 -1.484375,0.4375 V -3.9375 c 0.359375,0 0.953125,-0.046875 1.015625,-0.078125 v 3.25 c 0,0.234375 0.1875,0.125 -0.5,0.125 h -0.46875 v 0.65625 C 0.9375,0 1.796875,-0.03125 2.046875,-0.03125 c 0.21875,0 1.09375,0.03125 1.4375,0.046875 v -0.65625 H 3.03125 c -0.703125,0 -0.515625,0.109375 -0.515625,-0.125 z m 0,0"
           id="path68" />
      </symbol>
      <symbol
         overflow="visible"
         id="glyph3-7">
        <path
           style="stroke:none"
           d="m 1.234375,-2.46875 c 0,-0.578125 -0.015625,-0.953125 0.25,-1.375 0.25,-0.375 0.484375,-0.578125 0.9375,-0.578125 0.203125,0 0.34375,0 0.265625,-0.125 0.1875,-0.015625 -0.15625,0.296875 -0.15625,0.5 0,0.171875 0.3125,0.53125 0.515625,0.53125 0.21875,0 0.53125,-0.34375 0.53125,-0.546875 0,-0.390625 -0.484375,-0.953125 -1.171875,-0.953125 -1,0 -2.21875,1.109375 -2.21875,2.609375 0,1.8125 1.03125,2.546875 1.8125,2.546875 0.84375,0 1.765625,-0.84375 1.765625,-1.75 0,-0.890625 -0.890625,-1.75 -1.703125,-1.75 C 1.5,-3.359375 1,-2.78125 0.84375,-2.46875 Z m 0.765625,2 c -0.359375,0 -0.4375,-0.015625 -0.578125,-0.3125 l -0.0625,-0.140625 C 1.25,-1.125 1.25,-1.34375 1.25,-1.765625 c 0,-0.671875 0.21875,-1 0.78125,-1 0.3125,0 0.390625,0.0625 0.5625,0.328125 0.171875,0.265625 0.125,0.421875 0.125,0.828125 0,0.390625 0.0625,0.546875 -0.140625,0.828125 -0.15625,0.234375 -0.25,0.3125 -0.578125,0.3125 z m 0,0"
           id="path71" />
      </symbol>
      <symbol
         overflow="visible"
         id="glyph3-8">
        <path
           style="stroke:none"
           d="m 2.46875,-2.515625 c 0.546875,-0.265625 1.078125,-0.78125 1.078125,-1.265625 0,-0.671875 -0.890625,-1.234375 -1.5625,-1.234375 -0.765625,0 -1.59375,0.6875 -1.59375,1.359375 0,0.328125 0.21875,0.703125 0.34375,0.84375 0.125,0.140625 0.171875,0.171875 0.3125,0.25 C 1.0625,-2.5625 0.1875,-2 0.1875,-1.265625 c 0,0.78125 0.984375,1.40625 1.78125,1.40625 0.890625,0 1.796875,-0.765625 1.796875,-1.515625 0,-0.453125 -0.328125,-0.984375 -0.734375,-1.21875 -0.078125,-0.046875 -0.328125,-0.1875 -0.171875,-0.109375 z m -1,-0.984375 c -0.171875,-0.109375 -0.3125,-0.171875 -0.3125,-0.421875 0,-0.4375 0.3125,-0.5 0.8125,-0.5 0.546875,0 0.828125,0.140625 0.828125,0.640625 0,0.625 -0.53125,0.734375 -0.53125,0.734375 -0.015625,0 0.09375,0.0625 0.046875,0.03125 z M 1.546875,-2.265625 2.5,-1.71875 c 0.171875,0.109375 0.46875,0.171875 0.46875,0.59375 0,0.515625 -0.390625,0.65625 -0.984375,0.65625 -0.640625,0 -1,-0.21875 -1,-0.796875 0,-0.515625 0.1875,-0.71875 0.671875,-0.921875 z m 0,0"
           id="path74" />
      </symbol>
      <symbol
         overflow="visible"
         id="glyph4-0">
        <path
           style="stroke:none"
           d=""
           id="path77" />
      </symbol>
      <symbol
         overflow="visible"
         id="glyph4-1">
        <path
           style="stroke:none"
           d="M 3.125,-0.1875 V -0.71875 H 2.328125 v -3.8125 c 0,-0.234375 -0.171875,-0.421875 -0.453125,-0.421875 -0.515625,0.5 -1.15625,0.4375 -1.53125,0.4375 v 0.71875 c 0.3125,0 0.640625,0 0.875,-0.0625 V -0.71875 H 0.4375 v 0.734375 c 0.40625,-0.03125 1.046875,-0.03125 1.34375,-0.03125 0.296875,0 0.953125,0 1.34375,0.03125 z m 0,0"
           id="path80" />
      </symbol>
      <symbol
         overflow="visible"
         id="glyph4-2">
        <path
           style="stroke:none"
           d="M 3.125,-1.9375 H 2.6875 c -0.046875,0.359375 -0.046875,0.578125 -0.140625,0.6875 -0.03125,0.046875 -0.4375,0.328125 -0.4375,0.328125 l -0.09375,-0.34375 h -0.84375 l 0.09375,0.34375 c 0.1875,-0.171875 0.640625,-0.609375 0.828125,-0.78125 0.140625,-0.125 0.5,-0.4375 0.640625,-0.5625 0.34375,-0.359375 0.53125,-0.828125 0.53125,-1.171875 0,-0.765625 -0.765625,-1.515625 -1.609375,-1.515625 -0.75,0 -1.453125,0.671875 -1.453125,1.25 0,0.40625 0.484375,0.71875 0.640625,0.71875 0.234375,0 0.640625,-0.359375 0.640625,-0.703125 0,-0.28125 -0.3125,-0.65625 -0.21875,-0.640625 -0.0625,0.0625 0.109375,0.09375 0.234375,0.09375 0.59375,0 0.53125,0.5 0.53125,0.796875 0,0.390625 -0.09375,0.734375 -0.609375,1.375 l -1.09375,1.375 c -0.078125,0.09375 -0.125,0.234375 -0.125,0.359375 V 0 h 2.8125 l 0.28125,-1.9375 z m 0,0"
           id="path83" />
      </symbol>
      <symbol
         overflow="visible"
         id="glyph4-3">
        <path
           style="stroke:none"
           d="m 3.3125,-1.453125 c 0,-0.40625 -0.34375,-1.1875 -1.1875,-1.390625 v 0.390625 c 0.34375,-0.125 1,-0.703125 1,-1.34375 0,-0.5625 -0.640625,-1.15625 -1.484375,-1.15625 -0.734375,0 -1.296875,0.703125 -1.296875,1.1875 0,0.328125 0.359375,0.6875 0.625,0.6875 0.3125,0 0.609375,-0.40625 0.609375,-0.671875 0,-0.140625 -0.1875,-0.640625 -0.203125,-0.640625 -0.0625,0.0625 0.109375,0.09375 0.234375,0.09375 0.421875,0 0.296875,0.234375 0.296875,0.484375 0,0.046875 0,0.421875 -0.109375,0.71875 -0.125,0.3125 -0.15625,0.125 -0.40625,0.140625 C 1.21875,-2.9375 1.03125,-2.734375 1.03125,-2.625 c 0,0.125 0.203125,0.328125 0.328125,0.328125 h 0.1875 c 0.546875,0 0.4375,0.3125 0.4375,0.84375 0,0.375 0.140625,0.84375 -0.390625,0.84375 -0.234375,0 -0.40625,-0.03125 -0.265625,0.078125 -0.203125,0.03125 0.15625,-0.3125 0.15625,-0.640625 0,-0.3125 -0.34375,-0.734375 -0.65625,-0.734375 -0.296875,0 -0.671875,0.390625 -0.671875,0.75 0,0.5625 0.6875,1.234375 1.46875,1.234375 1.015625,0 1.6875,-0.796875 1.6875,-1.53125 z m 0,0"
           id="path86" />
      </symbol>
      <symbol
         overflow="visible"
         id="glyph5-0">
        <path
           style="stroke:none"
           d=""
           id="path89" />
      </symbol>
      <symbol
         overflow="visible"
         id="glyph5-1">
        <path
           style="stroke:none"
           d="m 3.734375,17.640625 c 0.21875,0 0.46875,-0.125 0.46875,-0.265625 0.03125,-6.984375 0.765625,-12.703125 4.265625,-17.578125 0.0625,-0.09375 0.125,-0.203125 0.125,-0.21875 0,-0.09375 -0.265625,-0.234375 -0.421875,-0.234375 -0.171875,0 -0.328125,0.03125 -0.34375,0.0625 -0.046875,0.03125 -1.3125,1.484375 -2.3125,3.484375 -1.3125,2.625 -2.203125,5.75 -2.578125,9.375 -0.03125,0.3125 -0.234375,2.390625 -0.234375,4.75 V 17.40625 C 2.71875,17.515625 2.96875,17.640625 3.1875,17.640625 Z m 0,0"
           id="path92" />
      </symbol>
      <symbol
         overflow="visible"
         id="glyph5-2">
        <path
           style="stroke:none"
           d="M 4.203125,0.046875 C 4.203125,-0.21875 4,-0.375 3.734375,-0.375 H 3.1875 c -0.28125,0 -0.484375,0.15625 -0.484375,0.421875 V 5.6875 c 0,0.25 0.203125,0.390625 0.484375,0.390625 H 3.734375 C 4,6.078125 4.203125,5.9375 4.203125,5.6875 Z m 0,0"
           id="path95" />
      </symbol>
      <symbol
         overflow="visible"
         id="glyph5-3">
        <path
           style="stroke:none"
           d="m 3.1875,-0.765625 c -0.21875,0 -0.46875,0.140625 -0.484375,0.25 V -0.125 c 0,6.09375 1.078125,9.65625 1.390625,10.65625 0.6875,2.21875 1.84375,4.640625 3.515625,6.6875 0.140625,0.1875 0.1875,0.234375 0.21875,0.25 0.03125,0.01563 0.171875,0.0625 0.34375,0.0625 0.15625,0 0.421875,-0.125 0.421875,-0.21875 0,-0.03125 -0.0625,-0.140625 -0.125,-0.234375 -3.3125,-4.609375 -4.25,-10.046875 -4.265625,-17.5625 0,-0.140625 -0.25,-0.28125 -0.46875,-0.28125 z m 0,0"
           id="path98" />
      </symbol>
      <symbol
         overflow="visible"
         id="glyph5-4">
        <path
           style="stroke:none"
           d="m 6.015625,17.015625 c 0,-6.09375 -1.09375,-9.65625 -1.40625,-10.671875 -0.671875,-2.203125 -1.84375,-4.640625 -3.5,-6.6875 -0.15625,-0.1875 -0.1875,-0.234375 -0.234375,-0.25 -0.015625,-0.015625 -0.171875,-0.0625 -0.328125,-0.0625 -0.140625,0 -0.421875,0.140625 -0.421875,0.234375 0,0.015625 0.046875,0.125 0.1875,0.3125 C 3.78125,4.734375 4.5,10.625 4.5,17.375 c 0,0.140625 0.265625,0.265625 0.484375,0.265625 H 5.53125 c 0.203125,0 0.46875,-0.125 0.484375,-0.234375 z m 0,0"
           id="path101" />
      </symbol>
      <symbol
         overflow="visible"
         id="glyph5-5">
        <path
           style="stroke:none"
           d="M 6.015625,0.046875 C 6.015625,-0.21875 5.796875,-0.375 5.53125,-0.375 H 4.984375 C 4.71875,-0.375 4.5,-0.21875 4.5,0.046875 V 5.6875 c 0,0.25 0.21875,0.390625 0.484375,0.390625 H 5.53125 c 0.265625,0 0.484375,-0.140625 0.484375,-0.390625 z m 0,0"
           id="path104" />
      </symbol>
      <symbol
         overflow="visible"
         id="glyph5-6">
        <path
           style="stroke:none"
           d="M 6.015625,-0.515625 C 6,-0.625 5.734375,-0.765625 5.53125,-0.765625 H 4.984375 C 4.765625,-0.765625 4.5,-0.625 4.5,-0.484375 c 0,1.015625 0,3.390625 -0.265625,5.875 -0.53125,5.15625 -1.796875,8.625 -3.984375,11.6875 -0.078125,0.09375 -0.125,0.203125 -0.125,0.234375 0,0.09375 0.28125,0.21875 0.421875,0.21875 0.15625,0 0.328125,-0.03125 0.34375,-0.0625 0.03125,-0.01563 1.296875,-1.484375 2.3125,-3.484375 1.3125,-2.625 2.203125,-5.734375 2.5625,-9.375 0.03125,-0.296875 0.25,-2.375 0.25,-4.734375 z m 0,0"
           id="path107" />
      </symbol>
    </g>
  </defs>
  <g
     id="surface1"
     transform="translate(-33.020124,1)">
    <path
       style="fill:#fff899;fill-opacity:1;fill-rule:nonzero;stroke:none"
       d="m 109.20703,192.56641 h 14.14844 v -28.97657 h -14.14844 z m 0,0"
       id="path114" />
    <path
       style="fill:#fff899;fill-opacity:1;fill-rule:nonzero;stroke:none"
       d="m 133.31641,221.54297 h 19.1289 v -28.97656 h -19.1289 z m 0,0"
       id="path116" />
    <path
       style="fill:#fff899;fill-opacity:1;fill-rule:nonzero;stroke:none"
       d="m 109.20703,76.351563 h 14.14844 V 47.484375 h -14.14844 z m 0,0"
       id="path118" />
    <path
       style="fill:#fff899;fill-opacity:1;fill-rule:nonzero;stroke:none"
       d="m 133.31641,105.53906 h 19.1289 V 76.351563 h -19.1289 z m 0,0"
       id="path120" />
    <path
       style="fill:#fff899;fill-opacity:1;fill-rule:nonzero;stroke:none"
       d="m 132.32031,106.53516 h 21.1211 V 75.355469 h -21.1211 z m 0,0"
       id="path122" />
    <path
       style="fill:#fff899;fill-opacity:1;fill-rule:nonzero;stroke:none"
       d="m 132.32031,106.53516 h 21.1211 V 46.488281 h -21.1211 z m 0,0"
       id="path124" />
    <path
       style="fill:#fff899;fill-opacity:1;fill-rule:nonzero;stroke:none"
       d="M 63.570313,164.58594 H 84.691406 V 133.41016 H 63.570313 Z m 0,0"
       id="path126" />
    <path
       style="fill:#fff899;fill-opacity:1;fill-rule:nonzero;stroke:none"
       d="M 63.570313,164.58594 H 84.691406 V 104.54297 H 63.570313 Z m 0,0"
       id="path128" />
    <path
       style="fill:#fff899;fill-opacity:1;fill-rule:nonzero;stroke:none"
       d="m 109.20703,29.863281 h 14.14844 V 0.996094 h -14.14844 z m 0,0"
       id="path130" />
    <path
       style="fill:#fff899;fill-opacity:1;fill-rule:nonzero;stroke:none"
       d="m 108.21094,30.859375 h 16.14062 V 0 h -16.14062 z m 0,0"
       id="path132" />
    <path
       style="fill:#fff899;fill-opacity:1;fill-rule:nonzero;stroke:none"
       d="m 108.21094,40.222656 h 16.14062 V 0 h -16.14062 z m 0,0"
       id="path134" />
    <path
       style="fill:#fff899;fill-opacity:1;fill-rule:nonzero;stroke:none"
       d="m 109.20703,134.40625 h 14.14844 v -28.86719 h -14.14844 z m 0,0"
       id="path136" />
    <path
       style="fill:#fff899;fill-opacity:1;fill-rule:nonzero;stroke:none"
       d="m 133.31641,163.58984 h 19.1289 v -29.18359 h -19.1289 z m 0,0"
       id="path138" />
    <path
       style="fill:#fff899;fill-opacity:1;fill-rule:nonzero;stroke:none"
       d="M 40.457031,192.56641 H 54.601563 V 163.58984 H 40.457031 Z m 0,0"
       id="path140" />
    <path
       style="fill:#fff899;fill-opacity:1;fill-rule:nonzero;stroke:none"
       d="M 64.566406,221.54297 H 83.695313 V 192.56641 H 64.566406 Z m 0,0"
       id="path142" />
    <path
       style="fill:#fff899;fill-opacity:1;fill-rule:nonzero;stroke:none"
       d="M 39.460938,77.347656 H 55.597656 V 46.488281 H 39.460938 Z m 0,0"
       id="path144" />
    <path
       style="fill:#fff899;fill-opacity:1;fill-rule:nonzero;stroke:none"
       d="M 39.460938,106.53516 H 55.597656 V 46.488281 H 39.460938 Z m 0,0"
       id="path146" />
    <g
       style="fill:#0000ff;fill-opacity:1"
       id="g150">
      <use
         xlink:href="#glyph0-1"
         x="113.788"
         y="11.905"
         id="use148" />
    </g>
    <path
       style="fill:none;stroke:#0000ff;stroke-width:0.3985;stroke-linecap:butt;stroke-linejoin:miter;stroke-miterlimit:10;stroke-opacity:1"
       d="m 48.863062,55.84375 h 4.980469"
       transform="matrix(1,0,0,-1,64.926,72)"
       id="path152" />
    <g
       style="fill:#0000ff;fill-opacity:1"
       id="g156">
      <use
         xlink:href="#glyph0-2"
         x="113.788"
         y="25.479"
         id="use154" />
    </g>
    <path
       style="fill:none;stroke:#0000ff;stroke-width:0.3985;stroke-linecap:butt;stroke-linejoin:miter;stroke-miterlimit:10;stroke-opacity:1"
       d="M 44.277125,69.808594 H 58.425562"
       transform="matrix(1,0,0,-1,64.926,72)"
       id="path158" />
    <path
       style="fill:none;stroke:#0000ff;stroke-width:0.3985;stroke-linecap:butt;stroke-linejoin:miter;stroke-miterlimit:10;stroke-opacity:1"
       d="M 44.476344,43.332031 V 69.808594"
       transform="matrix(1,0,0,-1,64.926,72)"
       id="path160" />
    <path
       style="fill:none;stroke:#0000ff;stroke-width:0.3985;stroke-linecap:butt;stroke-linejoin:miter;stroke-miterlimit:10;stroke-opacity:1"
       d="M 58.226344,43.332031 V 69.808594"
       transform="matrix(1,0,0,-1,64.926,72)"
       id="path162" />
    <path
       style="fill:none;stroke:#0000ff;stroke-width:0.3985;stroke-linecap:butt;stroke-linejoin:miter;stroke-miterlimit:10;stroke-opacity:1"
       d="M 44.277125,43.332031 H 58.425562"
       transform="matrix(1,0,0,-1,64.926,72)"
       id="path164" />
    <g
       style="fill:#000000;fill-opacity:1"
       id="g168">
      <use
         xlink:href="#glyph1-1"
         x="139.713"
         y="18.645"
         id="use166" />
    </g>
    <g
       style="fill:#000000;fill-opacity:1"
       id="g172">
      <use
         xlink:href="#glyph2-1"
         x="147.46201"
         y="18.645"
         id="use170" />
    </g>
    <g
       style="fill:#000000;fill-opacity:1"
       id="g176">
      <use
         xlink:href="#glyph3-1"
         x="167.573"
         y="14.723"
         id="use174" />
    </g>
    <path
       style="fill:none;stroke:#000000;stroke-width:0.3985;stroke-linecap:butt;stroke-linejoin:miter;stroke-miterlimit:10;stroke-opacity:1"
       d="m 98.755219,55.84375 h 3.968751"
       transform="matrix(1,0,0,-1,68.819,72)"
       id="path178" />
    <g
       style="fill:#000000;fill-opacity:1"
       id="g182">
      <use
         xlink:href="#glyph3-2"
         x="167.573"
         y="22.080999"
         id="use180" />
    </g>
    <g
       style="fill:#000000;fill-opacity:1"
       id="g186">
      <use
         xlink:href="#glyph3-1"
         x="188.267"
         y="14.723"
         id="use184" />
    </g>
    <path
       style="fill:none;stroke:#000000;stroke-width:0.3985;stroke-linecap:butt;stroke-linejoin:miter;stroke-miterlimit:10;stroke-opacity:1"
       d="m 119.44662,55.84375 h 3.97266"
       transform="matrix(1,0,0,-1,68.819,72)"
       id="path188" />
    <g
       style="fill:#000000;fill-opacity:1"
       id="g192">
      <use
         xlink:href="#glyph3-2"
         x="188.267"
         y="22.080999"
         id="use190" />
    </g>
    <g
       style="fill:#000000;fill-opacity:1"
       id="g196">
      <use
         xlink:href="#glyph2-2"
         x="118.371"
         y="38.230999"
         id="use194" />
    </g>
    <g
       style="fill:#000000;fill-opacity:1"
       id="g200">
      <use
         xlink:href="#glyph2-1"
         x="147.46201"
         y="38.230999"
         id="use198" />
    </g>
    <g
       style="fill:#000000;fill-opacity:1"
       id="g206">
      <use
         xlink:href="#glyph2-3"
         x="162.77699"
         y="38.230999"
         id="use202" />
      <use
         xlink:href="#glyph2-2"
         x="167.7583"
         y="38.230999"
         id="use204" />
    </g>
    <g
       style="fill:#000000;fill-opacity:1"
       id="g210">
      <use
         xlink:href="#glyph2-4"
         x="188.452"
         y="38.230999"
         id="use208" />
    </g>
    <g
       style="fill:#0000ff;fill-opacity:1"
       id="g214">
      <use
         xlink:href="#glyph0-3"
         x="46.234001"
         y="65.136002"
         id="use212" />
    </g>
    <path
       style="fill:none;stroke:#0000ff;stroke-width:0.3985;stroke-linecap:butt;stroke-linejoin:miter;stroke-miterlimit:10;stroke-opacity:1"
       d="m -23.274344,16.578125 h 11.753906"
       transform="matrix(1,0,0,-1,66.122,72)"
       id="path216" />
    <path
       style="fill:none;stroke:#0000ff;stroke-width:0.3985;stroke-linecap:butt;stroke-linejoin:miter;stroke-miterlimit:10;stroke-opacity:1"
       d="M -23.075125,3.675781 V 16.578125"
       transform="matrix(1,0,0,-1,66.122,72)"
       id="path218" />
    <path
       style="fill:none;stroke:#0000ff;stroke-width:0.3985;stroke-linecap:butt;stroke-linejoin:miter;stroke-miterlimit:10;stroke-opacity:1"
       d="M -11.719656,3.675781 V 16.578125"
       transform="matrix(1,0,0,-1,66.122,72)"
       id="path220" />
    <path
       style="fill:none;stroke:#0000ff;stroke-width:0.3985;stroke-linecap:butt;stroke-linejoin:miter;stroke-miterlimit:10;stroke-opacity:1"
       d="m -23.274344,3.675781 h 11.753906"
       transform="matrix(1,0,0,-1,66.122,72)"
       id="path222" />
    <g
       style="fill:#000000;fill-opacity:1"
       id="g226">
      <use
         xlink:href="#glyph2-5"
         x="78.711998"
         y="65.136002"
         id="use224" />
    </g>
    <g
       style="fill:#0000ff;fill-opacity:1"
       id="g230">
      <use
         xlink:href="#glyph0-1"
         x="113.788"
         y="58.396"
         id="use228" />
    </g>
    <path
       style="fill:none;stroke:#0000ff;stroke-width:0.3985;stroke-linecap:butt;stroke-linejoin:miter;stroke-miterlimit:10;stroke-opacity:1"
       d="m 48.863062,9.355469 h 4.980469"
       transform="matrix(1,0,0,-1,64.926,72)"
       id="path232" />
    <g
       style="fill:#0000ff;fill-opacity:1"
       id="g236">
      <use
         xlink:href="#glyph0-2"
         x="113.788"
         y="71.970001"
         id="use234" />
    </g>
    <path
       style="fill:none;stroke:#0000ff;stroke-width:0.3985;stroke-linecap:butt;stroke-linejoin:miter;stroke-miterlimit:10;stroke-opacity:1"
       d="M 44.277125,23.316406 H 58.425562"
       transform="matrix(1,0,0,-1,64.926,72)"
       id="path238" />
    <path
       style="fill:none;stroke:#0000ff;stroke-width:0.3985;stroke-linecap:butt;stroke-linejoin:miter;stroke-miterlimit:10;stroke-opacity:1"
       d="M 44.476344,-3.15625 V 23.316406"
       transform="matrix(1,0,0,-1,64.926,72)"
       id="path240" />
    <path
       style="fill:none;stroke:#0000ff;stroke-width:0.3985;stroke-linecap:butt;stroke-linejoin:miter;stroke-miterlimit:10;stroke-opacity:1"
       d="M 58.226344,-3.15625 V 23.316406"
       transform="matrix(1,0,0,-1,64.926,72)"
       id="path242" />
    <path
       style="fill:none;stroke:#0000ff;stroke-width:0.3985;stroke-linecap:butt;stroke-linejoin:miter;stroke-miterlimit:10;stroke-opacity:1"
       d="M 44.277125,-3.15625 H 58.425562"
       transform="matrix(1,0,0,-1,64.926,72)"
       id="path244" />
    <g
       style="fill:#000000;fill-opacity:1"
       id="g248">
      <use
         xlink:href="#glyph1-1"
         x="139.713"
         y="65.136002"
         id="use246" />
    </g>
    <g
       style="fill:#000000;fill-opacity:1"
       id="g252">
      <use
         xlink:href="#glyph2-1"
         x="147.46201"
         y="65.136002"
         id="use250" />
    </g>
    <g
       style="fill:#000000;fill-opacity:1"
       id="g256">
      <use
         xlink:href="#glyph3-1"
         x="167.573"
         y="61.213001"
         id="use254" />
    </g>
    <path
       style="fill:none;stroke:#000000;stroke-width:0.3985;stroke-linecap:butt;stroke-linejoin:miter;stroke-miterlimit:10;stroke-opacity:1"
       d="m 98.755219,9.355469 h 3.968751"
       transform="matrix(1,0,0,-1,68.819,72)"
       id="path258" />
    <g
       style="fill:#000000;fill-opacity:1"
       id="g262">
      <use
         xlink:href="#glyph3-2"
         x="167.573"
         y="68.570999"
         id="use260" />
    </g>
    <g
       style="fill:#000000;fill-opacity:1"
       id="g266">
      <use
         xlink:href="#glyph3-1"
         x="188.267"
         y="61.213001"
         id="use264" />
    </g>
    <path
       style="fill:none;stroke:#000000;stroke-width:0.3985;stroke-linecap:butt;stroke-linejoin:miter;stroke-miterlimit:10;stroke-opacity:1"
       d="m 119.44662,9.355469 h 3.97266"
       transform="matrix(1,0,0,-1,68.819,72)"
       id="path268" />
    <g
       style="fill:#000000;fill-opacity:1"
       id="g272">
      <use
         xlink:href="#glyph3-2"
         x="188.267"
         y="68.570999"
         id="use270" />
    </g>
    <g
       style="fill:#000000;fill-opacity:1"
       id="g276">
      <use
         xlink:href="#glyph1-1"
         x="40.491001"
         y="94.210999"
         id="use274" />
    </g>
    <g
       style="fill:#000000;fill-opacity:1"
       id="g280">
      <use
         xlink:href="#glyph3-3"
         x="49.435001"
         y="90.289001"
         id="use278" />
    </g>
    <path
       style="fill:none;stroke:#000000;stroke-width:0.3985;stroke-linecap:butt;stroke-linejoin:miter;stroke-miterlimit:10;stroke-opacity:1"
       d="m -15.510406,-19.722656 h 3.972656"
       transform="matrix(1,0,0,-1,64.944,72)"
       id="path282" />
    <g
       style="fill:#000000;fill-opacity:1"
       id="g286">
      <use
         xlink:href="#glyph3-4"
         x="49.435001"
         y="97.647003"
         id="use284" />
    </g>
    <g
       style="fill:#000000;fill-opacity:1"
       id="g290">
      <use
         xlink:href="#glyph2-3"
         x="78.711998"
         y="94.210999"
         id="use288" />
    </g>
    <g
       style="fill:#000000;fill-opacity:1"
       id="g294">
      <use
         xlink:href="#glyph2-5"
         x="118.371"
         y="94.210999"
         id="use292" />
    </g>
    <g
       style="fill:#0000ff;fill-opacity:1"
       id="g300">
      <use
         xlink:href="#glyph0-2"
         x="137.89799"
         y="87.472"
         id="use296" />
      <use
         xlink:href="#glyph0-4"
         x="142.8793"
         y="87.472"
         id="use298" />
    </g>
    <path
       style="fill:none;stroke:#0000ff;stroke-width:0.3985;stroke-linecap:butt;stroke-linejoin:miter;stroke-miterlimit:10;stroke-opacity:1"
       d="m 75.462437,-19.722656 h 9.960938"
       transform="matrix(1,0,0,-1,62.436,72)"
       id="path302" />
    <g
       style="fill:#0000ff;fill-opacity:1"
       id="g306">
      <use
         xlink:href="#glyph0-1"
         x="140.38901"
         y="101.045"
         id="use304" />
    </g>
    <path
       style="fill:none;stroke:#0000ff;stroke-width:0.3985;stroke-linecap:butt;stroke-linejoin:miter;stroke-miterlimit:10;stroke-opacity:1"
       d="m 70.880406,-5.550781 h 19.125"
       transform="matrix(1,0,0,-1,62.436,72)"
       id="path308" />
    <path
       style="fill:none;stroke:#0000ff;stroke-width:0.3985;stroke-linecap:butt;stroke-linejoin:miter;stroke-miterlimit:10;stroke-opacity:1"
       d="M 71.079625,-32.34375 V -5.550781"
       transform="matrix(1,0,0,-1,62.436,72)"
       id="path310" />
    <path
       style="fill:none;stroke:#0000ff;stroke-width:0.3985;stroke-linecap:butt;stroke-linejoin:miter;stroke-miterlimit:10;stroke-opacity:1"
       d="M 89.806187,-32.34375 V -5.550781"
       transform="matrix(1,0,0,-1,62.436,72)"
       id="path312" />
    <path
       style="fill:none;stroke:#0000ff;stroke-width:0.3985;stroke-linecap:butt;stroke-linejoin:miter;stroke-miterlimit:10;stroke-opacity:1"
       d="m 70.880406,-32.34375 h 19.125"
       transform="matrix(1,0,0,-1,62.436,72)"
       id="path314" />
    <g
       style="fill:#000000;fill-opacity:1"
       id="g320">
      <use
         xlink:href="#glyph3-4"
         x="163.601"
         y="90.289001"
         id="use316" />
      <use
         xlink:href="#glyph3-3"
         x="167.56909"
         y="90.289001"
         id="use318" />
    </g>
    <path
       style="fill:none;stroke:#000000;stroke-width:0.3985;stroke-linecap:butt;stroke-linejoin:miter;stroke-miterlimit:10;stroke-opacity:1"
       d="m 96.768563,-19.722656 h 7.941407"
       transform="matrix(1,0,0,-1,66.833,72)"
       id="path322" />
    <g
       style="fill:#000000;fill-opacity:1"
       id="g326">
      <use
         xlink:href="#glyph3-4"
         x="165.58701"
         y="97.647003"
         id="use324" />
    </g>
    <g
       style="fill:#000000;fill-opacity:1"
       id="g332">
      <use
         xlink:href="#glyph3-2"
         x="184.29601"
         y="90.289001"
         id="use328" />
      <use
         xlink:href="#glyph3-3"
         x="188.2641"
         y="90.289001"
         id="use330" />
    </g>
    <path
       style="fill:none;stroke:#000000;stroke-width:0.3985;stroke-linecap:butt;stroke-linejoin:miter;stroke-miterlimit:10;stroke-opacity:1"
       d="m 117.46388,-19.722656 h 7.9414"
       transform="matrix(1,0,0,-1,66.833,72)"
       id="path334" />
    <g
       style="fill:#000000;fill-opacity:1"
       id="g338">
      <use
         xlink:href="#glyph3-4"
         x="186.28101"
         y="97.647003"
         id="use336" />
    </g>
    <g
       style="fill:#000000;fill-opacity:1"
       id="g342">
      <use
         xlink:href="#glyph2-3"
         x="49.620998"
         y="123.187"
         id="use340" />
    </g>
    <g
       style="fill:#000000;fill-opacity:1"
       id="g346">
      <use
         xlink:href="#glyph3-4"
         x="78.527"
         y="119.265"
         id="use344" />
    </g>
    <path
       style="fill:none;stroke:#000000;stroke-width:0.3985;stroke-linecap:butt;stroke-linejoin:miter;stroke-miterlimit:10;stroke-opacity:1"
       d="m 9.708344,-48.695313 h 3.96875"
       transform="matrix(1,0,0,-1,68.819,72)"
       id="path348" />
    <g
       style="fill:#000000;fill-opacity:1"
       id="g352">
      <use
         xlink:href="#glyph3-5"
         x="78.527"
         y="126.623"
         id="use350" />
    </g>
    <g
       style="fill:#0000ff;fill-opacity:1"
       id="g356">
      <use
         xlink:href="#glyph0-1"
         x="113.788"
         y="116.448"
         id="use354" />
    </g>
    <path
       style="fill:none;stroke:#0000ff;stroke-width:0.3985;stroke-linecap:butt;stroke-linejoin:miter;stroke-miterlimit:10;stroke-opacity:1"
       d="m 48.863062,-48.695313 h 4.980469"
       transform="matrix(1,0,0,-1,64.926,72)"
       id="path358" />
    <g
       style="fill:#0000ff;fill-opacity:1"
       id="g362">
      <use
         xlink:href="#glyph0-2"
         x="113.788"
         y="130.021"
         id="use360" />
    </g>
    <path
       style="fill:none;stroke:#0000ff;stroke-width:0.3985;stroke-linecap:butt;stroke-linejoin:miter;stroke-miterlimit:10;stroke-opacity:1"
       d="M 44.277125,-34.734375 H 58.425562"
       transform="matrix(1,0,0,-1,64.926,72)"
       id="path364" />
    <path
       style="fill:none;stroke:#0000ff;stroke-width:0.3985;stroke-linecap:butt;stroke-linejoin:miter;stroke-miterlimit:10;stroke-opacity:1"
       d="m 44.476344,-61.210938 v 26.476563"
       transform="matrix(1,0,0,-1,64.926,72)"
       id="path366" />
    <path
       style="fill:none;stroke:#0000ff;stroke-width:0.3985;stroke-linecap:butt;stroke-linejoin:miter;stroke-miterlimit:10;stroke-opacity:1"
       d="m 58.226344,-61.210938 v 26.476563"
       transform="matrix(1,0,0,-1,64.926,72)"
       id="path368" />
    <path
       style="fill:none;stroke:#0000ff;stroke-width:0.3985;stroke-linecap:butt;stroke-linejoin:miter;stroke-miterlimit:10;stroke-opacity:1"
       d="M 44.277125,-61.210938 H 58.425562"
       transform="matrix(1,0,0,-1,64.926,72)"
       id="path370" />
    <g
       style="fill:#000000;fill-opacity:1"
       id="g374">
      <use
         xlink:href="#glyph2-5"
         x="147.46201"
         y="123.187"
         id="use372" />
    </g>
    <g
       style="fill:#000000;fill-opacity:1"
       id="g380">
      <use
         xlink:href="#glyph3-6"
         x="163.601"
         y="119.265"
         id="use376" />
      <use
         xlink:href="#glyph3-4"
         x="167.56909"
         y="119.265"
         id="use378" />
    </g>
    <path
       style="fill:none;stroke:#000000;stroke-width:0.3985;stroke-linecap:butt;stroke-linejoin:miter;stroke-miterlimit:10;stroke-opacity:1"
       d="m 96.768563,-48.695313 h 7.941407"
       transform="matrix(1,0,0,-1,66.833,72)"
       id="path382" />
    <g
       style="fill:#000000;fill-opacity:1"
       id="g386">
      <use
         xlink:href="#glyph3-2"
         x="165.58701"
         y="126.623"
         id="use384" />
    </g>
    <g
       style="fill:#000000;fill-opacity:1"
       id="g392">
      <use
         xlink:href="#glyph3-2"
         x="184.29601"
         y="119.265"
         id="use388" />
      <use
         xlink:href="#glyph3-4"
         x="188.2641"
         y="119.265"
         id="use390" />
    </g>
    <path
       style="fill:none;stroke:#000000;stroke-width:0.3985;stroke-linecap:butt;stroke-linejoin:miter;stroke-miterlimit:10;stroke-opacity:1"
       d="m 117.46388,-48.695313 h 7.9414"
       transform="matrix(1,0,0,-1,66.833,72)"
       id="path394" />
    <g
       style="fill:#000000;fill-opacity:1"
       id="g398">
      <use
         xlink:href="#glyph3-7"
         x="186.28101"
         y="126.623"
         id="use396" />
    </g>
    <g
       style="fill:#000000;fill-opacity:1"
       id="g402">
      <use
         xlink:href="#glyph2-5"
         x="49.620998"
         y="152.263"
         id="use400" />
    </g>
    <g
       style="fill:#0000ff;fill-opacity:1"
       id="g406">
      <use
         xlink:href="#glyph0-3"
         x="75.324997"
         y="152.263"
         id="use404" />
    </g>
    <path
       style="fill:none;stroke:#0000ff;stroke-width:0.3985;stroke-linecap:butt;stroke-linejoin:miter;stroke-miterlimit:10;stroke-opacity:1"
       d="M 5.8155,-70.550781 H 17.573313"
       transform="matrix(1,0,0,-1,66.122,72)"
       id="path408" />
    <path
       style="fill:none;stroke:#0000ff;stroke-width:0.3985;stroke-linecap:butt;stroke-linejoin:miter;stroke-miterlimit:10;stroke-opacity:1"
       d="m 6.014719,-83.449219 v 12.898438"
       transform="matrix(1,0,0,-1,66.122,72)"
       id="path410" />
    <path
       style="fill:none;stroke:#0000ff;stroke-width:0.3985;stroke-linecap:butt;stroke-linejoin:miter;stroke-miterlimit:10;stroke-opacity:1"
       d="m 17.370188,-83.449219 v 12.898438"
       transform="matrix(1,0,0,-1,66.122,72)"
       id="path412" />
    <path
       style="fill:none;stroke:#0000ff;stroke-width:0.3985;stroke-linecap:butt;stroke-linejoin:miter;stroke-miterlimit:10;stroke-opacity:1"
       d="M 5.8155,-83.449219 H 17.573313"
       transform="matrix(1,0,0,-1,66.122,72)"
       id="path414" />
    <g
       style="fill:#000000;fill-opacity:1"
       id="g418">
      <use
         xlink:href="#glyph2-5"
         x="118.371"
         y="152.263"
         id="use416" />
    </g>
    <g
       style="fill:#0000ff;fill-opacity:1"
       id="g424">
      <use
         xlink:href="#glyph0-2"
         x="137.89799"
         y="145.52299"
         id="use420" />
      <use
         xlink:href="#glyph0-4"
         x="142.8793"
         y="145.52299"
         id="use422" />
    </g>
    <path
       style="fill:none;stroke:#0000ff;stroke-width:0.3985;stroke-linecap:butt;stroke-linejoin:miter;stroke-miterlimit:10;stroke-opacity:1"
       d="m 75.462437,-77.773438 h 9.960938"
       transform="matrix(1,0,0,-1,62.436,72)"
       id="path426" />
    <g
       style="fill:#0000ff;fill-opacity:1"
       id="g430">
      <use
         xlink:href="#glyph0-1"
         x="140.38901"
         y="159.097"
         id="use428" />
    </g>
    <path
       style="fill:none;stroke:#0000ff;stroke-width:0.3985;stroke-linecap:butt;stroke-linejoin:miter;stroke-miterlimit:10;stroke-opacity:1"
       d="m 70.880406,-63.601563 h 19.125"
       transform="matrix(1,0,0,-1,62.436,72)"
       id="path432" />
    <path
       style="fill:none;stroke:#0000ff;stroke-width:0.3985;stroke-linecap:butt;stroke-linejoin:miter;stroke-miterlimit:10;stroke-opacity:1"
       d="m 71.079625,-90.394531 v 26.792968"
       transform="matrix(1,0,0,-1,62.436,72)"
       id="path434" />
    <path
       style="fill:none;stroke:#0000ff;stroke-width:0.3985;stroke-linecap:butt;stroke-linejoin:miter;stroke-miterlimit:10;stroke-opacity:1"
       d="m 89.806187,-90.394531 v 26.792968"
       transform="matrix(1,0,0,-1,62.436,72)"
       id="path436" />
    <path
       style="fill:none;stroke:#0000ff;stroke-width:0.3985;stroke-linecap:butt;stroke-linejoin:miter;stroke-miterlimit:10;stroke-opacity:1"
       d="m 70.880406,-90.394531 h 19.125"
       transform="matrix(1,0,0,-1,62.436,72)"
       id="path438" />
    <g
       style="fill:#000000;fill-opacity:1"
       id="g444">
      <use
         xlink:href="#glyph3-4"
         x="163.601"
         y="148.34"
         id="use440" />
      <use
         xlink:href="#glyph3-3"
         x="167.56909"
         y="148.34"
         id="use442" />
    </g>
    <path
       style="fill:none;stroke:#000000;stroke-width:0.3985;stroke-linecap:butt;stroke-linejoin:miter;stroke-miterlimit:10;stroke-opacity:1"
       d="m 96.768563,-77.773438 h 7.941407"
       transform="matrix(1,0,0,-1,66.833,72)"
       id="path446" />
    <g
       style="fill:#000000;fill-opacity:1"
       id="g450">
      <use
         xlink:href="#glyph3-4"
         x="165.58701"
         y="155.698"
         id="use448" />
    </g>
    <g
       style="fill:#000000;fill-opacity:1"
       id="g456">
      <use
         xlink:href="#glyph3-2"
         x="184.29601"
         y="148.34"
         id="use452" />
      <use
         xlink:href="#glyph3-3"
         x="188.2641"
         y="148.34"
         id="use454" />
    </g>
    <path
       style="fill:none;stroke:#000000;stroke-width:0.3985;stroke-linecap:butt;stroke-linejoin:miter;stroke-miterlimit:10;stroke-opacity:1"
       d="m 117.46388,-77.773438 h 7.9414"
       transform="matrix(1,0,0,-1,66.833,72)"
       id="path458" />
    <g
       style="fill:#000000;fill-opacity:1"
       id="g462">
      <use
         xlink:href="#glyph3-4"
         x="186.28101"
         y="155.698"
         id="use460" />
    </g>
    <g
       style="fill:#0000ff;fill-opacity:1"
       id="g466">
      <use
         xlink:href="#glyph0-2"
         x="45.037998"
         y="174.49899"
         id="use464" />
    </g>
    <path
       style="fill:none;stroke:#0000ff;stroke-width:0.3985;stroke-linecap:butt;stroke-linejoin:miter;stroke-miterlimit:10;stroke-opacity:1"
       d="m -19.886938,-106.74609 h 4.980469"
       transform="matrix(1,0,0,-1,64.926,72)"
       id="path468" />
    <g
       style="fill:#0000ff;fill-opacity:1"
       id="g472">
      <use
         xlink:href="#glyph0-1"
         x="45.037998"
         y="188.073"
         id="use470" />
    </g>
    <path
       style="fill:none;stroke:#0000ff;stroke-width:0.3985;stroke-linecap:butt;stroke-linejoin:miter;stroke-miterlimit:10;stroke-opacity:1"
       d="m -24.472875,-92.785156 h 14.148437"
       transform="matrix(1,0,0,-1,64.926,72)"
       id="path474" />
    <path
       style="fill:none;stroke:#0000ff;stroke-width:0.3985;stroke-linecap:butt;stroke-linejoin:miter;stroke-miterlimit:10;stroke-opacity:1"
       d="m -24.273656,-119.37109 v 26.585934"
       transform="matrix(1,0,0,-1,64.926,72)"
       id="path476" />
    <path
       style="fill:none;stroke:#0000ff;stroke-width:0.3985;stroke-linecap:butt;stroke-linejoin:miter;stroke-miterlimit:10;stroke-opacity:1"
       d="m -10.523656,-119.37109 v 26.585934"
       transform="matrix(1,0,0,-1,64.926,72)"
       id="path478" />
    <path
       style="fill:none;stroke:#0000ff;stroke-width:0.3985;stroke-linecap:butt;stroke-linejoin:miter;stroke-miterlimit:10;stroke-opacity:1"
       d="m -24.472875,-119.37109 h 14.148437"
       transform="matrix(1,0,0,-1,64.926,72)"
       id="path480" />
    <g
       style="fill:#000000;fill-opacity:1"
       id="g484">
      <use
         xlink:href="#glyph2-5"
         x="78.711998"
         y="181.239"
         id="use482" />
    </g>
    <g
       style="fill:#0000ff;fill-opacity:1"
       id="g488">
      <use
         xlink:href="#glyph0-3"
         x="114.984"
         y="181.239"
         id="use486" />
    </g>
    <path
       style="fill:none;stroke:#0000ff;stroke-width:0.3985;stroke-linecap:butt;stroke-linejoin:miter;stroke-miterlimit:10;stroke-opacity:1"
       d="M 45.475656,-99.523438 H 57.229563"
       transform="matrix(1,0,0,-1,66.122,72)"
       id="path490" />
    <path
       style="fill:none;stroke:#0000ff;stroke-width:0.3985;stroke-linecap:butt;stroke-linejoin:miter;stroke-miterlimit:10;stroke-opacity:1"
       d="m 45.674875,-112.42578 v 12.902342"
       transform="matrix(1,0,0,-1,66.122,72)"
       id="path492" />
    <path
       style="fill:none;stroke:#0000ff;stroke-width:0.3985;stroke-linecap:butt;stroke-linejoin:miter;stroke-miterlimit:10;stroke-opacity:1"
       d="m 57.030344,-112.42578 v 12.902342"
       transform="matrix(1,0,0,-1,66.122,72)"
       id="path494" />
    <path
       style="fill:none;stroke:#0000ff;stroke-width:0.3985;stroke-linecap:butt;stroke-linejoin:miter;stroke-miterlimit:10;stroke-opacity:1"
       d="M 45.475656,-112.42578 H 57.229563"
       transform="matrix(1,0,0,-1,66.122,72)"
       id="path496" />
    <g
       style="fill:#000000;fill-opacity:1"
       id="g500">
      <use
         xlink:href="#glyph2-5"
         x="147.46201"
         y="181.239"
         id="use498" />
    </g>
    <g
       style="fill:#000000;fill-opacity:1"
       id="g504">
      <use
         xlink:href="#glyph2-1"
         x="167.758"
         y="181.239"
         id="use502" />
    </g>
    <g
       style="fill:#000000;fill-opacity:1"
       id="g508">
      <use
         xlink:href="#glyph3-4"
         x="188.267"
         y="177.31599"
         id="use506" />
    </g>
    <path
       style="fill:none;stroke:#000000;stroke-width:0.3985;stroke-linecap:butt;stroke-linejoin:miter;stroke-miterlimit:10;stroke-opacity:1"
       d="m 119.44662,-106.74609 h 3.97266"
       transform="matrix(1,0,0,-1,68.819,72)"
       id="path510" />
    <g
       style="fill:#000000;fill-opacity:1"
       id="g514">
      <use
         xlink:href="#glyph3-1"
         x="188.267"
         y="184.674"
         id="use512" />
    </g>
    <g
       style="fill:#000000;fill-opacity:1"
       id="g518">
      <use
         xlink:href="#glyph2-5"
         x="49.620998"
         y="210.215"
         id="use516" />
    </g>
    <g
       style="fill:#0000ff;fill-opacity:1"
       id="g522">
      <use
         xlink:href="#glyph0-1"
         x="71.639"
         y="203.47501"
         id="use520" />
    </g>
    <path
       style="fill:none;stroke:#0000ff;stroke-width:0.3985;stroke-linecap:butt;stroke-linejoin:miter;stroke-miterlimit:10;stroke-opacity:1"
       d="m 6.712438,-135.72266 h 9.960937"
       transform="matrix(1,0,0,-1,62.436,72)"
       id="path524" />
    <g
       style="fill:#0000ff;fill-opacity:1"
       id="g530">
      <use
         xlink:href="#glyph0-2"
         x="69.148003"
         y="217.049"
         id="use526" />
      <use
         xlink:href="#glyph0-4"
         x="74.129303"
         y="217.049"
         id="use528" />
    </g>
    <path
       style="fill:none;stroke:#0000ff;stroke-width:0.3985;stroke-linecap:butt;stroke-linejoin:miter;stroke-miterlimit:10;stroke-opacity:1"
       d="M 2.130406,-121.76172 H 21.259313"
       transform="matrix(1,0,0,-1,62.436,72)"
       id="path532" />
    <path
       style="fill:none;stroke:#0000ff;stroke-width:0.3985;stroke-linecap:butt;stroke-linejoin:miter;stroke-miterlimit:10;stroke-opacity:1"
       d="m 2.329625,-148.34766 v 26.58594"
       transform="matrix(1,0,0,-1,62.436,72)"
       id="path534" />
    <path
       style="fill:none;stroke:#0000ff;stroke-width:0.3985;stroke-linecap:butt;stroke-linejoin:miter;stroke-miterlimit:10;stroke-opacity:1"
       d="m 21.056188,-148.34766 v 26.58594"
       transform="matrix(1,0,0,-1,62.436,72)"
       id="path536" />
    <path
       style="fill:none;stroke:#0000ff;stroke-width:0.3985;stroke-linecap:butt;stroke-linejoin:miter;stroke-miterlimit:10;stroke-opacity:1"
       d="M 2.130406,-148.34766 H 21.259313"
       transform="matrix(1,0,0,-1,62.436,72)"
       id="path538" />
    <g
       style="fill:#000000;fill-opacity:1"
       id="g542">
      <use
         xlink:href="#glyph2-5"
         x="118.371"
         y="210.215"
         id="use540" />
    </g>
    <g
       style="fill:#0000ff;fill-opacity:1"
       id="g546">
      <use
         xlink:href="#glyph0-3"
         x="144.075"
         y="210.215"
         id="use544" />
    </g>
    <path
       style="fill:none;stroke:#0000ff;stroke-width:0.3985;stroke-linecap:butt;stroke-linejoin:miter;stroke-miterlimit:10;stroke-opacity:1"
       d="M 74.5655,-128.5 H 86.319406"
       transform="matrix(1,0,0,-1,66.122,72)"
       id="path548" />
    <path
       style="fill:none;stroke:#0000ff;stroke-width:0.3985;stroke-linecap:butt;stroke-linejoin:miter;stroke-miterlimit:10;stroke-opacity:1"
       d="M 74.764719,-141.40234 V -128.5"
       transform="matrix(1,0,0,-1,66.122,72)"
       id="path550" />
    <path
       style="fill:none;stroke:#0000ff;stroke-width:0.3985;stroke-linecap:butt;stroke-linejoin:miter;stroke-miterlimit:10;stroke-opacity:1"
       d="M 86.120188,-141.40234 V -128.5"
       transform="matrix(1,0,0,-1,66.122,72)"
       id="path552" />
    <path
       style="fill:none;stroke:#0000ff;stroke-width:0.3985;stroke-linecap:butt;stroke-linejoin:miter;stroke-miterlimit:10;stroke-opacity:1"
       d="M 74.5655,-141.40234 H 86.319406"
       transform="matrix(1,0,0,-1,66.122,72)"
       id="path554" />
    <g
       style="fill:#000000;fill-opacity:1"
       id="g558">
      <use
         xlink:href="#glyph2-2"
         x="167.758"
         y="210.215"
         id="use556" />
    </g>
    <g
       style="fill:#000000;fill-opacity:1"
       id="g562">
      <use
         xlink:href="#glyph3-8"
         x="188.267"
         y="206.29201"
         id="use560" />
    </g>
    <path
       style="fill:none;stroke:#000000;stroke-width:0.3985;stroke-linecap:butt;stroke-linejoin:miter;stroke-miterlimit:10;stroke-opacity:1"
       d="m 119.44662,-135.72266 h 3.97266"
       transform="matrix(1,0,0,-1,68.819,72)"
       id="path564" />
    <g
       style="fill:#000000;fill-opacity:1"
       id="g568">
      <use
         xlink:href="#glyph3-5"
         x="188.267"
         y="213.64999"
         id="use566" />
    </g>
    <g
       style="fill:#0000ff;fill-opacity:1"
       id="g572">
      <use
         xlink:href="#glyph1-2"
         x="117.264"
         y="229.91"
         id="use570" />
    </g>
    <g
       style="fill:#0000ff;fill-opacity:1"
       id="g576">
      <use
         xlink:href="#glyph1-2"
         x="146.355"
         y="229.91"
         id="use574" />
    </g>
    <g
       style="fill:#000000;fill-opacity:1"
       id="g580">
      <use
         xlink:href="#glyph1-3"
         x="167.758"
         y="229.91"
         id="use578" />
    </g>
    <g
       style="fill:#0000ff;fill-opacity:1"
       id="g584">
      <use
         xlink:href="#glyph0-5"
         x="114.107"
         y="241.86501"
         id="use582" />
    </g>
    <g
       style="fill:#0000ff;fill-opacity:1"
       id="g588">
      <use
         xlink:href="#glyph4-1"
         x="119.367"
         y="243.36"
         id="use586" />
    </g>
    <g
       style="fill:#0000ff;fill-opacity:1"
       id="g592">
      <use
         xlink:href="#glyph0-5"
         x="143.198"
         y="241.86501"
         id="use590" />
    </g>
    <g
       style="fill:#0000ff;fill-opacity:1"
       id="g596">
      <use
         xlink:href="#glyph4-2"
         x="148.45799"
         y="243.36"
         id="use594" />
    </g>
    <g
       style="fill:#000000;fill-opacity:1"
       id="g600">
      <use
         xlink:href="#glyph0-5"
         x="163.494"
         y="241.86501"
         id="use598" />
    </g>
    <g
       style="fill:#000000;fill-opacity:1"
       id="g604">
      <use
         xlink:href="#glyph4-3"
         x="168.754"
         y="243.36"
         id="use602" />
    </g>
    <path
       style="fill:none;stroke:#000000;stroke-width:0.43834;stroke-linecap:butt;stroke-linejoin:miter;stroke-miterlimit:10;stroke-opacity:1"
       d="M -97.721031,124.91813 V 84.097813"
       transform="matrix(1,0,0,-1,275.639,125.715)"
       id="path606" />
    <g
       style="fill:#000000;fill-opacity:1"
       id="g610">
      <use
         xlink:href="#glyph5-1"
         x="100.068"
         y="0.68300003"
         id="use608" />
    </g>
    <g
       style="fill:#000000;fill-opacity:1"
       id="g614">
      <use
         xlink:href="#glyph5-2"
         x="100.068"
         y="18.216999"
         id="use612" />
    </g>
    <g
       style="fill:#000000;fill-opacity:1"
       id="g618">
      <use
         xlink:href="#glyph5-3"
         x="100.068"
         y="24.593"
         id="use616" />
    </g>
    <g
       style="fill:#000000;fill-opacity:1"
       id="g622">
      <use
         xlink:href="#glyph5-4"
         x="193.85201"
         y="0.68300003"
         id="use620" />
    </g>
    <g
       style="fill:#000000;fill-opacity:1"
       id="g626">
      <use
         xlink:href="#glyph5-5"
         x="193.85201"
         y="18.216999"
         id="use624" />
    </g>
    <g
       style="fill:#000000;fill-opacity:1"
       id="g630">
      <use
         xlink:href="#glyph5-6"
         x="193.85201"
         y="24.593"
         id="use628" />
    </g>
    <g
       style="fill:#000000;fill-opacity:1"
       id="g634">
      <use
         xlink:href="#glyph5-1"
         x="31.316999"
         y="50.011002"
         id="use632" />
    </g>
    <g
       style="fill:#000000;fill-opacity:1"
       id="g638">
      <use
         xlink:href="#glyph5-2"
         x="31.316999"
         y="67.545998"
         id="use636" />
    </g>
    <g
       style="fill:#000000;fill-opacity:1"
       id="g642">
      <use
         xlink:href="#glyph5-2"
         x="31.316999"
         y="73.523003"
         id="use640" />
    </g>
    <g
       style="fill:#000000;fill-opacity:1"
       id="g646">
      <use
         xlink:href="#glyph5-2"
         x="31.316999"
         y="79.500999"
         id="use644" />
    </g>
    <g
       style="fill:#000000;fill-opacity:1"
       id="g650">
      <use
         xlink:href="#glyph5-3"
         x="31.316999"
         y="85.876999"
         id="use648" />
    </g>
    <g
       style="fill:#000000;fill-opacity:1"
       id="g654">
      <use
         xlink:href="#glyph5-4"
         x="84.110001"
         y="50.011002"
         id="use652" />
    </g>
    <g
       style="fill:#000000;fill-opacity:1"
       id="g658">
      <use
         xlink:href="#glyph5-5"
         x="84.110001"
         y="67.545998"
         id="use656" />
    </g>
    <g
       style="fill:#000000;fill-opacity:1"
       id="g662">
      <use
         xlink:href="#glyph5-5"
         x="84.110001"
         y="73.523003"
         id="use660" />
    </g>
    <g
       style="fill:#000000;fill-opacity:1"
       id="g666">
      <use
         xlink:href="#glyph5-5"
         x="84.110001"
         y="79.500999"
         id="use664" />
    </g>
    <g
       style="fill:#000000;fill-opacity:1"
       id="g670">
      <use
         xlink:href="#glyph5-6"
         x="84.110001"
         y="85.876999"
         id="use668" />
    </g>
    <path
       style="fill:none;stroke:#000000;stroke-width:0.43834;stroke-linecap:butt;stroke-linejoin:miter;stroke-miterlimit:10;stroke-opacity:1"
       d="M -97.721031,78.429844 V 19.976719"
       transform="matrix(1,0,0,-1,275.639,125.715)"
       id="path672" />
    <g
       style="fill:#000000;fill-opacity:1"
       id="g676">
      <use
         xlink:href="#glyph5-1"
         x="100.068"
         y="50.011002"
         id="use674" />
    </g>
    <g
       style="fill:#000000;fill-opacity:1"
       id="g680">
      <use
         xlink:href="#glyph5-2"
         x="100.068"
         y="67.545998"
         id="use678" />
    </g>
    <g
       style="fill:#000000;fill-opacity:1"
       id="g684">
      <use
         xlink:href="#glyph5-2"
         x="100.068"
         y="73.523003"
         id="use682" />
    </g>
    <g
       style="fill:#000000;fill-opacity:1"
       id="g688">
      <use
         xlink:href="#glyph5-2"
         x="100.068"
         y="79.500999"
         id="use686" />
    </g>
    <g
       style="fill:#000000;fill-opacity:1"
       id="g692">
      <use
         xlink:href="#glyph5-3"
         x="100.068"
         y="85.876999"
         id="use690" />
    </g>
    <g
       style="fill:#000000;fill-opacity:1"
       id="g696">
      <use
         xlink:href="#glyph5-4"
         x="193.85201"
         y="50.011002"
         id="use694" />
    </g>
    <g
       style="fill:#000000;fill-opacity:1"
       id="g700">
      <use
         xlink:href="#glyph5-5"
         x="193.85201"
         y="67.545998"
         id="use698" />
    </g>
    <g
       style="fill:#000000;fill-opacity:1"
       id="g704">
      <use
         xlink:href="#glyph5-5"
         x="193.85201"
         y="73.523003"
         id="use702" />
    </g>
    <g
       style="fill:#000000;fill-opacity:1"
       id="g708">
      <use
         xlink:href="#glyph5-5"
         x="193.85201"
         y="79.500999"
         id="use706" />
    </g>
    <g
       style="fill:#000000;fill-opacity:1"
       id="g712">
      <use
         xlink:href="#glyph5-6"
         x="193.85201"
         y="85.876999"
         id="use710" />
    </g>
    <g
       style="fill:#000000;fill-opacity:1"
       id="g716">
      <use
         xlink:href="#glyph5-1"
         x="31.316999"
         y="108.063"
         id="use714" />
    </g>
    <g
       style="fill:#000000;fill-opacity:1"
       id="g720">
      <use
         xlink:href="#glyph5-2"
         x="31.316999"
         y="125.598"
         id="use718" />
    </g>
    <g
       style="fill:#000000;fill-opacity:1"
       id="g724">
      <use
         xlink:href="#glyph5-2"
         x="31.316999"
         y="131.575"
         id="use722" />
    </g>
    <g
       style="fill:#000000;fill-opacity:1"
       id="g728">
      <use
         xlink:href="#glyph5-2"
         x="31.316999"
         y="137.55299"
         id="use726" />
    </g>
    <g
       style="fill:#000000;fill-opacity:1"
       id="g732">
      <use
         xlink:href="#glyph5-3"
         x="31.316999"
         y="143.929"
         id="use730" />
    </g>
    <g
       style="fill:#000000;fill-opacity:1"
       id="g736">
      <use
         xlink:href="#glyph5-4"
         x="84.110001"
         y="108.063"
         id="use734" />
    </g>
    <g
       style="fill:#000000;fill-opacity:1"
       id="g740">
      <use
         xlink:href="#glyph5-5"
         x="84.110001"
         y="125.598"
         id="use738" />
    </g>
    <g
       style="fill:#000000;fill-opacity:1"
       id="g744">
      <use
         xlink:href="#glyph5-5"
         x="84.110001"
         y="131.575"
         id="use742" />
    </g>
    <g
       style="fill:#000000;fill-opacity:1"
       id="g748">
      <use
         xlink:href="#glyph5-5"
         x="84.110001"
         y="137.55299"
         id="use746" />
    </g>
    <g
       style="fill:#000000;fill-opacity:1"
       id="g752">
      <use
         xlink:href="#glyph5-6"
         x="84.110001"
         y="143.929"
         id="use750" />
    </g>
    <path
       style="fill:none;stroke:#000000;stroke-width:0.43834;stroke-linecap:butt;stroke-linejoin:miter;stroke-miterlimit:10;stroke-opacity:1"
       d="M -97.721031,20.375156 V -38.074062"
       transform="matrix(1,0,0,-1,275.639,125.715)"
       id="path754" />
    <g
       style="fill:#000000;fill-opacity:1"
       id="g758">
      <use
         xlink:href="#glyph5-1"
         x="100.068"
         y="108.063"
         id="use756" />
    </g>
    <g
       style="fill:#000000;fill-opacity:1"
       id="g762">
      <use
         xlink:href="#glyph5-2"
         x="100.068"
         y="125.598"
         id="use760" />
    </g>
    <g
       style="fill:#000000;fill-opacity:1"
       id="g766">
      <use
         xlink:href="#glyph5-2"
         x="100.068"
         y="131.575"
         id="use764" />
    </g>
    <g
       style="fill:#000000;fill-opacity:1"
       id="g770">
      <use
         xlink:href="#glyph5-2"
         x="100.068"
         y="137.55299"
         id="use768" />
    </g>
    <g
       style="fill:#000000;fill-opacity:1"
       id="g774">
      <use
         xlink:href="#glyph5-3"
         x="100.068"
         y="143.929"
         id="use772" />
    </g>
    <g
       style="fill:#000000;fill-opacity:1"
       id="g778">
      <use
         xlink:href="#glyph5-4"
         x="193.85201"
         y="108.063"
         id="use776" />
    </g>
    <g
       style="fill:#000000;fill-opacity:1"
       id="g782">
      <use
         xlink:href="#glyph5-5"
         x="193.85201"
         y="125.598"
         id="use780" />
    </g>
    <g
       style="fill:#000000;fill-opacity:1"
       id="g786">
      <use
         xlink:href="#glyph5-5"
         x="193.85201"
         y="131.575"
         id="use784" />
    </g>
    <g
       style="fill:#000000;fill-opacity:1"
       id="g790">
      <use
         xlink:href="#glyph5-5"
         x="193.85201"
         y="137.55299"
         id="use788" />
    </g>
    <g
       style="fill:#000000;fill-opacity:1"
       id="g794">
      <use
         xlink:href="#glyph5-6"
         x="193.85201"
         y="143.929"
         id="use792" />
    </g>
    <g
       style="fill:#000000;fill-opacity:1"
       id="g798">
      <use
         xlink:href="#glyph5-1"
         x="31.316999"
         y="166.06599"
         id="use796" />
    </g>
    <g
       style="fill:#000000;fill-opacity:1"
       id="g802">
      <use
         xlink:href="#glyph5-2"
         x="31.316999"
         y="183.601"
         id="use800" />
    </g>
    <g
       style="fill:#000000;fill-opacity:1"
       id="g806">
      <use
         xlink:href="#glyph5-2"
         x="31.316999"
         y="189.578"
         id="use804" />
    </g>
    <g
       style="fill:#000000;fill-opacity:1"
       id="g810">
      <use
         xlink:href="#glyph5-2"
         x="31.316999"
         y="195.556"
         id="use808" />
    </g>
    <g
       style="fill:#000000;fill-opacity:1"
       id="g814">
      <use
         xlink:href="#glyph5-3"
         x="31.316999"
         y="201.93201"
         id="use812" />
    </g>
    <g
       style="fill:#000000;fill-opacity:1"
       id="g818">
      <use
         xlink:href="#glyph5-4"
         x="84.110001"
         y="166.06599"
         id="use816" />
    </g>
    <g
       style="fill:#000000;fill-opacity:1"
       id="g822">
      <use
         xlink:href="#glyph5-5"
         x="84.110001"
         y="183.601"
         id="use820" />
    </g>
    <g
       style="fill:#000000;fill-opacity:1"
       id="g826">
      <use
         xlink:href="#glyph5-5"
         x="84.110001"
         y="189.578"
         id="use824" />
    </g>
    <g
       style="fill:#000000;fill-opacity:1"
       id="g830">
      <use
         xlink:href="#glyph5-5"
         x="84.110001"
         y="195.556"
         id="use828" />
    </g>
    <g
       style="fill:#000000;fill-opacity:1"
       id="g834">
      <use
         xlink:href="#glyph5-6"
         x="84.110001"
         y="201.93201"
         id="use832" />
    </g>
    <path
       style="fill:none;stroke:#000000;stroke-width:0.43834;stroke-linecap:butt;stroke-linejoin:miter;stroke-miterlimit:10;stroke-opacity:1"
       d="M -97.721031,-37.675625 V -96.027187"
       transform="matrix(1,0,0,-1,275.639,125.715)"
       id="path836" />
    <g
       style="fill:#000000;fill-opacity:1"
       id="g840">
      <use
         xlink:href="#glyph5-1"
         x="100.068"
         y="166.06599"
         id="use838" />
    </g>
    <g
       style="fill:#000000;fill-opacity:1"
       id="g844">
      <use
         xlink:href="#glyph5-2"
         x="100.068"
         y="183.601"
         id="use842" />
    </g>
    <g
       style="fill:#000000;fill-opacity:1"
       id="g848">
      <use
         xlink:href="#glyph5-2"
         x="100.068"
         y="189.578"
         id="use846" />
    </g>
    <g
       style="fill:#000000;fill-opacity:1"
       id="g852">
      <use
         xlink:href="#glyph5-2"
         x="100.068"
         y="195.556"
         id="use850" />
    </g>
    <g
       style="fill:#000000;fill-opacity:1"
       id="g856">
      <use
         xlink:href="#glyph5-3"
         x="100.068"
         y="201.93201"
         id="use854" />
    </g>
    <g
       style="fill:#000000;fill-opacity:1"
       id="g860">
      <use
         xlink:href="#glyph5-4"
         x="193.85201"
         y="166.06599"
         id="use858" />
    </g>
    <g
       style="fill:#000000;fill-opacity:1"
       id="g864">
      <use
         xlink:href="#glyph5-5"
         x="193.85201"
         y="183.601"
         id="use862" />
    </g>
    <g
       style="fill:#000000;fill-opacity:1"
       id="g868">
      <use
         xlink:href="#glyph5-5"
         x="193.85201"
         y="189.578"
         id="use866" />
    </g>
    <g
       style="fill:#000000;fill-opacity:1"
       id="g872">
      <use
         xlink:href="#glyph5-5"
         x="193.85201"
         y="195.556"
         id="use870" />
    </g>
    <g
       style="fill:#000000;fill-opacity:1"
       id="g876">
      <use
         xlink:href="#glyph5-6"
         x="193.85201"
         y="201.93201"
         id="use874" />
    </g>
    <path
       style="fill:none;stroke:#0000ff;stroke-width:1.41731;stroke-linecap:butt;stroke-linejoin:miter;stroke-miterlimit:10;stroke-opacity:1"
       d="m -166.63509,-37.675625 v -29.375 h 21.96484 v -28.976562 h 62.664062"
       transform="matrix(1,0,0,-1,275.639,125.715)"
       id="path878" />
    <path
       style="fill:none;stroke:#0000ff;stroke-width:1.41731;stroke-linecap:butt;stroke-linejoin:miter;stroke-miterlimit:10;stroke-opacity:1"
       d="M -166.63509,78.429844 V 49.164219 h 21.96484 v -29.1875"
       transform="matrix(1,0,0,-1,275.639,125.715)"
       id="path880" />
    <path
       style="fill:none;stroke:#0000ff;stroke-width:1.41731;stroke-linecap:butt;stroke-linejoin:miter;stroke-miterlimit:10;stroke-opacity:1"
       d="M -213.42025,19.976719 V -38.074062"
       transform="matrix(1,0,0,-1,275.639,125.715)"
       id="path882" />
    <path
       style="fill:none;stroke:#0000ff;stroke-width:1.41731;stroke-linecap:butt;stroke-linejoin:miter;stroke-miterlimit:10;stroke-opacity:1"
       d="M -166.63509,124.91813 V 84.097813"
       transform="matrix(1,0,0,-1,275.639,125.715)"
       id="path884" />
    <path
       style="fill:none;stroke:#0000ff;stroke-width:1.41731;stroke-linecap:butt;stroke-linejoin:miter;stroke-miterlimit:10;stroke-opacity:1"
       d="M -166.63509,20.375156 V -8.890469 h 21.96484 v -29.183593 h 62.664062"
       transform="matrix(1,0,0,-1,275.639,125.715)"
       id="path886" />
    <path
       style="fill:none;stroke:#0000ff;stroke-width:1.41731;stroke-linecap:butt;stroke-linejoin:miter;stroke-miterlimit:10;stroke-opacity:1"
       d="M -235.38509,78.429844 V 19.976719"
       transform="matrix(1,0,0,-1,275.639,125.715)"
       id="path888" />
  </g>
</svg>
